<svg width="86" height="47" viewBox="0 0 86 47" fill="none" xmlns="http://www.w3.org/2000/svg">
<ellipse cx="79.463" cy="30.2423" rx="6.5" ry="6.42244" fill="#2F80ED"/>
<path d="M12.6096 27.7229C13.222 27.2947 14.0713 27.665 14.1741 28.4052L15.8053 40.1451C15.9122 40.9148 15.1383 41.5063 14.423 41.2018L2.97448 36.3274C2.25192 36.0197 2.14908 35.0382 2.79228 34.5884L12.6096 27.7229Z" fill="#27AE60"/>
<g clip-path="url(#clip0)">
<path d="M52.7807 11.9407C52.9399 12.2236 52.8991 12.545 52.6865 12.7627L44.9722 20.67L35.0367 15.6914C34.7604 15.5436 34.6013 15.2607 34.6421 14.9393L35.1299 11.6056L36.0993 5.02792C36.1401 4.70655 36.6137 4.59935 36.7512 4.93467L39.826 10.8551L46.5365 9.75722L47.5058 3.17954C47.5466 2.85817 47.9834 2.76611 48.1578 3.08629L51.2325 9.00668L52.7807 11.9407Z" fill="#FCA326"/>
</g>
<defs>
<clipPath id="clip0">
<rect width="18" height="18" fill="white" transform="translate(31.2213 6.8291) rotate(-22.2965)"/>
</clipPath>
</defs>
</svg>
