<?xml version="1.0" encoding="utf-8"?>
<!-- Generator: Adobe Illustrator 23.0.1, SVG Export Plug-In . SVG Version: 6.00 Build 0)  -->
<svg version="1.1" id="Layer_1" xmlns="http://www.w3.org/2000/svg" xmlns:xlink="http://www.w3.org/1999/xlink" x="0px" y="0px"
	 viewBox="0 0 90 80" style="enable-background:new 0 0 90 80;" xml:space="preserve">
<style type="text/css">
	.st0{fill:#5BA2E8;}
	.st1{fill:#606060;}
	.st2{opacity:0.1;}
	.st3{fill:none;stroke:#FFFFFF;stroke-width:4;stroke-linecap:round;stroke-linejoin:round;stroke-miterlimit:10;}
	.st4{fill:none;stroke:#FFFFFF;stroke-width:2;stroke-linecap:round;stroke-linejoin:round;stroke-miterlimit:10;}
	.st5{fill:#FFFFFF;stroke:#FFFFFF;stroke-width:2;stroke-linecap:round;stroke-linejoin:round;stroke-miterlimit:10;}
	.st6{fill:#43E6A3;}
	.st7{fill:none;stroke:#606060;stroke-width:1.706;stroke-linecap:round;stroke-linejoin:round;stroke-miterlimit:10;}
</style>
<g>
	<g>
		<g>
			<path class="st0" d="M20.3,79c-1.8,0-3.3-1.5-3.3-3.3V4.3C17,2.5,18.5,1,20.3,1h49.5C71.5,1,73,2.5,73,4.3v71.5
				c0,1.8-1.5,3.3-3.3,3.3H20.3z"/>
			<path class="st1" d="M69.8,2C71,2,72,3,72,4.3v71.5c0,1.2-1,2.3-2.3,2.3H20.3C19,78,18,77,18,75.7V4.3C18,3,19,2,20.3,2L69.8,2
				 M69.8,0H20.3C17.9,0,16,1.9,16,4.3v71.5c0,2.3,1.9,4.3,4.3,4.3h49.5c2.3,0,4.3-1.9,4.3-4.3V4.3C74,1.9,72.1,0,69.8,0z"/>
		</g>
		<g class="st2">
			<path class="st3" d="M27,19h16"/>
			<path class="st3" d="M27,33h36"/>
			<path class="st3" d="M27,47h36"/>
			<path class="st3" d="M27,61h36"/>
		</g>
		<g>
			<path class="st4" d="M34.9,23.4h21v21"/>
			<path class="st5" d="M60.1,40.4l-4.2,4.2l-4.2-4.2H60.1z"/>
			<path class="st4" d="M55.1,56.6h-21v-21"/>
			<path class="st5" d="M29.9,39.6l4.2-4.2l4.2,4.2H29.9z"/>
		</g>
		<g>
			<circle class="st6" cx="11" cy="19" r="10"/>
			<path class="st1" d="M11,10c5,0,9,4,9,9s-4,9-9,9s-9-4-9-9S6,10,11,10 M11,8C4.9,8,0,12.9,0,19s4.9,11,11,11s11-4.9,11-11
				S17.1,8,11,8z"/>
		</g>
		<path class="st7" d="M14.9,16.2l-5.7,5.7l-2.1-2.1"/>
		<g>
			<circle class="st6" cx="79" cy="61" r="10"/>
			<path class="st1" d="M79,52c5,0,9,4,9,9s-4,9-9,9s-9-4-9-9S74,52,79,52 M79,50c-6.1,0-11,4.9-11,11s4.9,11,11,11s11-4.9,11-11
				S85.1,50,79,50z"/>
		</g>
		<path class="st7" d="M82.9,58.2l-5.6,5.7l-2.1-2.1"/>
	</g>
</g>
</svg>
