<?xml version="1.0" encoding="utf-8"?>
<!-- Generator: Adobe Illustrator 23.0.1, SVG Export Plug-In . SVG Version: 6.00 Build 0)  -->
<svg version="1.1" id="Layer_1" xmlns="http://www.w3.org/2000/svg" xmlns:xlink="http://www.w3.org/1999/xlink" x="0px" y="0px"
	 viewBox="0 0 102 80" style="enable-background:new 0 0 102 80;" xml:space="preserve">
<style type="text/css">
	.st0{fill:#FFFFFF;}
	.st1{fill:#606060;}
	.st2{fill:none;stroke:#5BA2E8;stroke-width:2.5;stroke-linecap:round;stroke-linejoin:round;stroke-miterlimit:10;}
	.st3{fill:none;stroke:#5BA2E8;stroke-width:2.472;stroke-linecap:round;stroke-linejoin:round;stroke-miterlimit:10;}
	.st4{fill:none;stroke:#606060;stroke-width:2;stroke-linecap:round;stroke-linejoin:round;stroke-miterlimit:10;}
	.st5{fill:#606060;stroke:#606060;stroke-width:2;stroke-linecap:round;stroke-linejoin:round;stroke-miterlimit:10;}
	.st6{fill:#F75B24;}
</style>
<g>
	<g>
		<g>
			<g>
				<path class="st0" d="M13.6,49c-0.9,0-1.6-0.7-1.6-1.6V2.6C12,1.7,12.7,1,13.6,1h30.7C45.3,1,46,1.7,46,2.6v44.7
					c0,0.9-0.7,1.7-1.6,1.7L13.6,49"/>
				<path class="st1" d="M44.3,2C44.7,2,45,2.3,45,2.6v44.7c0,0.4-0.3,0.6-0.6,0.6H13.6c-0.4,0-0.6-0.3-0.6-0.6V2.6
					C13,2.3,13.3,2,13.6,2L44.3,2 M44.3,0H13.6C12.2,0,11,1.2,11,2.6v44.7c0,1.5,1.2,2.6,2.6,2.6h30.7c1.5,0,2.6-1.2,2.6-2.6V2.6
					C47,1.2,45.8,0,44.3,0z"/>
			</g>
			<path class="st2" d="M18.1,13h10"/>
			<path class="st3" d="M18.1,21h22"/>
			<path class="st3" d="M18.1,29h22"/>
			<path class="st3" d="M18.1,37h22"/>
		</g>
		<g>
			<g>
				<path class="st0" d="M57.6,79c-0.9,0-1.6-0.7-1.6-1.6V32.6c0-0.9,0.7-1.6,1.6-1.6h30.7c0.9,0,1.7,0.7,1.7,1.6v44.7
					c0,0.9-0.7,1.7-1.6,1.7H57.6"/>
				<path class="st1" d="M88.3,32c0.4,0,0.6,0.3,0.6,0.6v44.7c0,0.4-0.3,0.6-0.6,0.6H57.6c-0.4,0-0.6-0.3-0.6-0.6V32.6
					c0-0.4,0.3-0.6,0.6-0.6L88.3,32 M88.3,30H57.6c-1.5,0-2.6,1.2-2.6,2.6v44.7c0,1.5,1.2,2.6,2.6,2.6h30.7c1.5,0,2.6-1.2,2.6-2.6
					V32.6C91,31.2,89.8,30,88.3,30z"/>
			</g>
			<path class="st2" d="M62.1,43h10"/>
			<path class="st3" d="M62.1,51h22"/>
			<path class="st3" d="M62.1,59h22"/>
			<path class="st3" d="M62.1,67h22"/>
		</g>
		<path class="st4" d="M52,14h21v11"/>
		<path class="st5" d="M77.2,21L73,25.2L68.8,21H77.2z"/>
		<path class="st4" d="M50,66H29V55"/>
		<path class="st5" d="M25,59l4-4l4,4H25z"/>
		<g>
			<circle class="st6" cx="11" cy="69" r="10"/>
			<path class="st1" d="M11,60c5,0,9,4,9,9s-4,9-9,9s-9-4-9-9S6,60,11,60 M11,58C4.9,58,0,62.9,0,69s4.9,11,11,11s11-4.9,11-11
				S17.1,58,11,58z"/>
		</g>
		<path class="st0" d="M11,71c-0.6,0-1-0.4-1-1v-6c0-0.6,0.4-1,1-1s1,0.4,1,1v6C12,70.6,11.6,71,11,71"/>
		<path class="st0" d="M11,75.5c-0.4,0-0.8-0.2-1.1-0.4c-0.1-0.1-0.2-0.3-0.3-0.5c-0.1-0.2-0.1-0.4-0.1-0.6c0-0.1,0-0.2,0-0.3
			c0-0.1,0.1-0.2,0.1-0.3c0-0.1,0.1-0.2,0.1-0.3c0.1-0.1,0.1-0.2,0.2-0.2c0.6-0.6,1.6-0.6,2.1,0c0.1,0.1,0.1,0.1,0.2,0.2
			c0.1,0.1,0.1,0.2,0.1,0.3c0,0.1,0.1,0.2,0.1,0.3c0,0.1,0,0.2,0,0.3c0,0.2,0,0.4-0.1,0.6c-0.1,0.2-0.2,0.4-0.3,0.5
			C11.8,75.3,11.4,75.5,11,75.5"/>
		<g>
			<circle class="st6" cx="91" cy="11" r="10"/>
			<path class="st1" d="M91,2c5,0,9,4,9,9s-4,9-9,9s-9-4-9-9S86,2,91,2 M91,0c-6.1,0-11,4.9-11,11s4.9,11,11,11s11-4.9,11-11
				S97.1,0,91,0z"/>
		</g>
		<path class="st0" d="M91,13c-0.6,0-1-0.4-1-1V6c0-0.6,0.4-1,1-1s1,0.4,1,1v6C92,12.6,91.6,13,91,13"/>
		<path class="st0" d="M91,17.5c-0.2,0-0.4,0-0.6-0.1c-0.2-0.1-0.3-0.2-0.5-0.3c-0.1-0.1-0.2-0.3-0.3-0.5c-0.1-0.2-0.1-0.4-0.1-0.6
			c0-0.4,0.2-0.8,0.4-1.1c0.1-0.1,0.1-0.1,0.2-0.2c0.1-0.1,0.2-0.1,0.3-0.1c0.1,0,0.2-0.1,0.3-0.1c0.5-0.1,1,0.1,1.3,0.4
			c0.3,0.3,0.4,0.7,0.4,1.1c0,0.4-0.2,0.8-0.4,1.1c-0.1,0.1-0.3,0.2-0.5,0.3C91.4,17.5,91.2,17.5,91,17.5"/>
	</g>
</g>
</svg>
