<?xml version="1.0" encoding="utf-8"?>
<!-- Generator: Adobe Illustrator 25.0.1, SVG Export Plug-In . SVG Version: 6.00 Build 0)  -->
<svg version="1.1" id="Layer_1" xmlns="http://www.w3.org/2000/svg" xmlns:xlink="http://www.w3.org/1999/xlink" x="0px" y="0px"
	 viewBox="0 0 866.3 183.2" style="enable-background:new 0 0 866.3 183.2;" xml:space="preserve">
<style type="text/css">
	.st0{fill:#CAB5FF;}
	.st1{opacity:0.5;}
	.st2{clip-path:url(#SVGID_2_);}
	.st3{fill:#B7A8F4;}
	.st4{fill:none;stroke:#B7A8F4;stroke-width:1.1221;stroke-linecap:round;stroke-linejoin:round;stroke-miterlimit:10;}
	.st5{fill:#E24329;}
	.st6{fill:#FC6D26;}
	.st7{fill:#FCA326;}
	.st8{fill:#38276D;}
	.st9{fill:#AC7FFF;}
	.st10{fill:#E5E0FC;}
	.st11{clip-path:url(#SVGID_4_);}
	.st12{fill:none;stroke:#B7A8F4;stroke-width:1.3332;stroke-linecap:round;stroke-linejoin:round;stroke-miterlimit:10;}
	.st13{fill:#FF675F;}
	.st14{fill:#E04733;}
	.st15{fill:#BC2922;}
	.st16{fill:#00DBB1;}
	.st17{fill:#38F2AF;}
	.st18{fill:#18A3FF;}
	.st19{fill:#5AC4FF;}
	.st20{fill:#0B8ED6;}
	.st21{fill:#F968B3;}
	.st22{fill:#FF908D;}
	.st23{fill:#6E49CB;}
	.st24{fill:#380D75;}
	.st25{fill:#180633;}
	.st26{fill:#FCA121;}
	.st27{fill:#E58615;}
	.st28{fill:#FFC46C;}
	.st29{fill:#FFD8A4;}
	.st30{fill:#E5DAD1;}
	.st31{fill:#FCF7F2;}
	.st32{fill:#E85929;}
	.st33{fill:#584088;}
	.st34{fill:#7F6997;}
	.st35{fill:none;stroke:#380D75;stroke-width:4;stroke-linecap:round;stroke-linejoin:round;stroke-miterlimit:10;}
	.st36{opacity:0.25;fill:none;stroke:#341472;stroke-width:4;stroke-linecap:round;stroke-linejoin:round;stroke-miterlimit:10;}
	
		.st37{opacity:0.15;fill:none;stroke:#3C257B;stroke-width:4;stroke-linecap:round;stroke-linejoin:round;stroke-miterlimit:10;stroke-dasharray:12,20;}
	.st38{fill:#F9F7FF;}
	.st39{fill:#AFA3C6;}
	.st40{fill:#D9D3EA;}
	.st41{fill:#978ACE;}
	.st42{fill:#AFAAE5;}
	.st43{fill:#FF9769;}
	.st44{fill:#FFD8CC;}
	.st45{fill:none;stroke:#380D75;stroke-width:2.5;stroke-linecap:round;stroke-linejoin:round;stroke-miterlimit:10;}
	.st46{opacity:0.25;fill:none;stroke:#341472;stroke-width:2.5;stroke-linecap:round;stroke-linejoin:round;stroke-miterlimit:10;}
</style>
<g>
	<g>
		<g>
			<g>
				<g id="g48_53_" transform="translate(155.197863, 1.160267)">
					<g id="path50_53_">
						<path class="st5" d="M-73,174.3L-73,174.3l28.3-86.4h-56.5L-73,174.3L-73,174.3z"/>
					</g>
				</g>
				<g id="g56_48_" transform="translate(28.531199, 1.160800)">
					<g id="path58_48_">
						<path class="st6" d="M53.7,174.3L25.4,87.8h-39.6L53.7,174.3L53.7,174.3z"/>
					</g>
				</g>
				<g id="g72_53_" transform="translate(29.421866, 280.255593)">
					<g id="path74_53_">
						<path class="st5" d="M-15.1-191.2h39.6l-17-52.1c-0.9-2.7-4.7-2.7-5.6,0L-15.1-191.2L-15.1-191.2z"/>
					</g>
				</g>
				<g id="g76_48_" transform="translate(247.197860, 1.160800)">
					<g id="path78_48_">
						<path class="st6" d="M-165,174.3l28.3-86.4h39.6L-165,174.3L-165,174.3z"/>
					</g>
				</g>
				<g id="g80_81_" transform="translate(246.307061, 0.255867)">
					<g id="path82_80_">
						<path class="st7" d="M-96.2,88.8L-96.2,88.8l8.6,26.3c0.8,2.4-0.1,5-2.1,6.5l-74.3,53.6L-96.2,88.8L-96.2,88.8z"/>
					</g>
				</g>
				<g id="g80_80_" transform="translate(246.307061, 0.255867)">
					<g id="path82_79_">
						<path class="st7" d="M-231.9,88.8L-231.9,88.8l-8.6,26.3c-0.8,2.4,0.1,5,2.1,6.5l74.3,53.6L-231.9,88.8L-231.9,88.8z"/>
					</g>
				</g>
				<g id="g84_53_" transform="translate(336.973725, 280.255593)">
					<g id="path86_53_">
						<path class="st5" d="M-186.9-191.2h-39.6l17-52.1c0.9-2.7,4.7-2.7,5.6,0L-186.9-191.2L-186.9-191.2z"/>
					</g>
				</g>
			</g>
		</g>
		<g>
			<g id="g64_21_" transform="translate(0.088533, 0.255867)">
				<g id="path66_21_">
					<path class="st8" d="M82.2,182.9c-0.9,0-1.7-0.3-2.4-0.8L4,126.9c-3.5-2.6-5-7.1-3.7-11.3l8.8-26.9c0.5-1.5,1.7-2.5,3.2-2.8
						c1.5-0.3,3,0.3,4,1.5l69.1,88.8c1.3,1.6,1.1,3.9-0.3,5.4C84.3,182.5,83.2,182.9,82.2,182.9z M14.6,98.7l-6.3,19.4
						c-0.2,0.7,0,1.6,0.7,2L60.7,158L14.6,98.7z"/>
				</g>
			</g>
			<g id="g80_79_" transform="translate(246.307061, 0.255867)">
				<g id="path82_78_">
					<path class="st8" d="M-164,182.9c-1.1,0-2.2-0.4-3-1.3c-1.4-1.5-1.6-3.8-0.3-5.4l69.1-88.8c0.9-1.2,2.5-1.8,4-1.5
						c1.5,0.3,2.8,1.3,3.2,2.8l8.8,26.9c1.4,4.2-0.1,8.7-3.7,11.3l-75.7,55.2C-162.3,182.6-163.2,182.9-164,182.9z M-96.4,98.7
						l-46.2,59.3l51.9-37.8c0.6-0.5,0.9-1.3,0.7-2L-96.4,98.7z"/>
				</g>
			</g>
			<g id="g56_47_" transform="translate(28.531199, 1.160800)">
				<g id="path58_47_">
					<path class="st8" d="M53.7,182c-1.2,0-2.5-0.6-3.3-1.6l-69.1-88.8c-1-1.2-1.1-2.9-0.5-4.4c0.7-1.4,2.1-2.3,3.7-2.3h40.3
						c1.8,0,3.4,1.2,3.9,2.9l28.8,88.8c0.6,1.9-0.2,4-2,4.9C55.1,181.8,54.4,182,53.7,182z M-6.9,93.2l49.4,63.5L21.9,93.2H-6.9z"/>
				</g>
			</g>
			<g id="g76_47_" transform="translate(247.197860, 1.160800)">
				<g id="path78_47_">
					<path class="st8" d="M-164.9,182c-0.7,0-1.3-0.2-1.9-0.5c-1.8-0.9-2.6-3-2-4.9l28.8-88.8c0.6-1.7,2.1-2.9,3.9-2.9h40.4
						c1.6,0,3,0.9,3.7,2.3c0.7,1.4,0.5,3.1-0.5,4.4l-69.2,88.8C-162.5,181.4-163.7,182-164.9,182z M-133.1,93.2l-20.6,63.5
						l49.4-63.5H-133.1z"/>
				</g>
			</g>
			<g id="g48_52_" transform="translate(155.197863, 1.160267)">
				<g id="path50_52_">
					<path class="st8" d="M-72.9,182c-1.8,0-3.4-1.2-3.9-2.9l-28.8-88.8c-0.4-1.3-0.2-2.6,0.6-3.7c0.8-1.1,2-1.7,3.4-1.7h57.6
						c1.3,0,2.6,0.6,3.4,1.7c0.8,1.1,1,2.5,0.6,3.7L-69,179.1C-69.5,180.8-71.1,182-72.9,182z M-96,93.2l23.1,71.2l23.1-71.2H-96z"
						/>
				</g>
			</g>
			<g id="g72_52_" transform="translate(29.421866, 280.255593)">
				<g id="path74_52_">
					<path class="st8" d="M24.1-185.9h-40.4c-1.3,0-2.6-0.6-3.4-1.7c-0.8-1.1-1-2.5-0.6-3.7l17.3-53.2c1-3,3.7-4.9,6.8-4.9
						c3.1,0,5.8,1.9,6.7,4.9L28-191.3c0.4,1.3,0.2,2.6-0.6,3.7S25.4-185.9,24.1-185.9z M-10.6-194.2h28.9L3.9-238.6L-10.6-194.2z"/>
				</g>
			</g>
			<g id="g84_52_" transform="translate(336.973725, 280.255593)">
				<g id="path86_52_">
					<path class="st8" d="M-185.5-185.9h-40.4c-1.3,0-2.6-0.6-3.4-1.7c-0.8-1.1-1-2.5-0.6-3.7l17.3-53.2c1-3,3.6-4.9,6.7-4.9
						c0,0,0,0,0,0c3.1,0,5.8,1.9,6.8,4.9l17.4,53.3c0.4,1.3,0.2,2.6-0.6,3.7S-184.2-185.9-185.5-185.9z M-220.2-194.2h28.9
						l-14.5-44.4L-220.2-194.2z"/>
				</g>
			</g>
		</g>
		<g>
			<path class="st9" d="M105.2,42L105.2,42c-4.6-6.6-13.7-8-20.1-3.2L82.2,41l-2.9-2.2C72.9,34,63.8,35.4,59.3,42l0,0
				c-4.3,6.2-3,15.1,3.1,19.7l19.9,14.6l19.9-14.6C108.1,57.1,109.5,48.2,105.2,42z"/>
		</g>
		<g>
			<path class="st8" d="M82.2,79.4c-0.9,0-1.7-0.3-2.5-0.8L59.9,64c-7.9-5.9-9.6-17.3-4-25.4C58.7,34.5,63,31.8,68,31
				c4.9-0.8,9.9,0.4,13.9,3.5l0.4,0.3l0.4-0.3c4-3,8.9-4.2,13.9-3.5c4.9,0.8,9.2,3.5,12.1,7.6c5.6,8.1,3.8,19.4-4,25.3L84.7,78.6
				C83.9,79.2,83.1,79.4,82.2,79.4z M70.9,39.1c-0.5,0-1.1,0-1.6,0.1c-2.7,0.4-5,1.9-6.6,4.1c-3.1,4.4-2.1,10.8,2.2,14l17.4,12.8
				l17.4-12.8c4.2-3.2,5.2-9.6,2.1-13.9l0,0c-1.6-2.2-3.9-3.7-6.6-4.1c-2.7-0.4-5.4,0.2-7.6,1.9l-2.9,2.2c-1.5,1.1-3.5,1.1-5,0
				l-2.9-2.2C75.1,39.8,73,39.1,70.9,39.1z"/>
		</g>
		<g>
			<path class="st10" d="M82.3,19.7c-2.3,0-4.1-1.9-4.1-4.1V4.1C78.1,1.9,80,0,82.3,0s4.1,1.9,4.1,4.1v11.4
				C86.4,17.9,84.6,19.7,82.3,19.7z"/>
		</g>
		<g>
			<path class="st10" d="M111.5,23.7c-1.1,0-2.1-0.4-2.9-1.2c-1.6-1.6-1.6-4.2,0-5.9l8.1-8.1c1.6-1.6,4.2-1.6,5.9,0
				c1.6,1.6,1.6,4.2,0,5.9l-8.1,8.1C113.7,23.3,112.6,23.7,111.5,23.7z"/>
		</g>
		<g>
			<path class="st10" d="M52.9,23.7c-1.1,0-2.1-0.4-2.9-1.2l-8.1-8.1c-1.6-1.6-1.6-4.2,0-5.9c1.6-1.6,4.2-1.6,5.9,0l8.1,8.1
				c1.6,1.6,1.6,4.2,0,5.9C55,23.3,53.9,23.7,52.9,23.7z"/>
		</g>
	</g>
	<g>
		<path class="st8" d="M202,93.1v-0.2c0-20.8,16.2-37.8,38.3-37.8c11.1,0,18.4,2.5,25,7.1c1.6,1.1,3.3,3.3,3.3,6.5
			c0,4.4-3.5,7.9-7.9,7.9c-2.3,0-3.8-0.8-4.9-1.7c-4.4-3.1-9.1-5-16-5c-11.7,0-21,10.3-21,22.8v0.2c0,13.4,9.2,23.2,22.1,23.2
			c5.8,0,11.1-1.5,15.1-4.4v-10.4h-10.9c-3.9,0-7-3-7-6.9c0-3.9,3.1-7,7-7h18.4c4.5,0,8,3.5,8,8v17.7c0,4.7-1.8,7.9-5.6,10.2
			c-6,3.7-14.6,7.3-25.6,7.3C217.6,130.6,202,114.7,202,93.1z"/>
		<path class="st8" d="M285.2,60.1c0-4.6,3.9-7.4,8.9-7.4c5,0,8.9,2.8,8.9,7.4v0.2c0,4.6-3.9,7.5-8.9,7.5c-5,0-8.9-2.9-8.9-7.5V60.1
			z M286.1,80.7c0-4.4,3.5-7.9,7.9-7.9s7.9,3.5,7.9,7.9v41.3c0,4.4-3.5,7.9-7.9,7.9s-7.9-3.5-7.9-7.9V80.7z"/>
		<path class="st8" d="M319.5,113.5V87H319c-3.8,0-6.8-3-6.8-6.8c0-3.8,3-6.8,6.8-6.8h0.5v-7c0-4.4,3.5-7.9,7.9-7.9s7.9,3.5,7.9,7.9
			v7h7c3.8,0,6.8,3,6.8,6.8c0,3.8-3,6.8-6.8,6.8h-7v23.9c0,3.7,1.6,5.4,5.1,5.4c0.5,0,1.6-0.1,1.9-0.1c3.5,0,6.6,2.9,6.6,6.6
			c0,2.8-1.9,5.1-4.1,6c-2.9,1.1-5.6,1.6-9.1,1.6C326.1,130.3,319.5,126.5,319.5,113.5z"/>
		<path class="st8" d="M361.9,63.7c0-4.5,3.5-8,8-8s8,3.5,8,8v51.1h29.8c4.1,0,7.3,3.2,7.3,7.3c0,4.1-3.2,7.3-7.3,7.3H370
			c-4.5,0-8-3.5-8-8V63.7z"/>
		<path class="st8" d="M421.5,113.3v-0.2c0-12.2,9.3-17.9,22.5-17.9c5.6,0,9.7,0.9,13.7,2.3v-0.9c0-6.6-4.1-10.2-12-10.2
			c-4.4,0-7.9,0.6-11,1.6c-0.9,0.3-1.6,0.4-2.3,0.4c-3.7,0-6.6-2.8-6.6-6.5c0-2.8,1.8-5.2,4.3-6.2c5-1.9,10.4-2.9,17.9-2.9
			c8.7,0,14.9,2.3,18.9,6.3c4.2,4.2,6.1,10.3,6.1,17.9v25.5c0,4.3-3.4,7.6-7.7,7.6c-4.6,0-7.6-3.2-7.6-6.6v-0.1
			c-3.9,4.3-9.2,7.1-16.9,7.1C430.2,130.4,421.5,124.4,421.5,113.3z M458,109.7v-2.8c-2.7-1.3-6.3-2.1-10.1-2.1
			c-6.8,0-11,2.7-11,7.7v0.2c0,4.3,3.5,6.8,8.7,6.8C453,119.5,458,115.4,458,109.7z"/>
		<path class="st8" d="M486.7,60.5c0-4.4,3.5-7.9,7.9-7.9c4.4,0,7.9,3.5,7.9,7.9v21c3.9-5.2,9.2-9.1,17.4-9.1
			c13,0,25.5,10.2,25.5,28.9v0.2c0,18.7-12.2,28.9-25.5,28.9c-8.5,0-13.7-3.9-17.4-8.4v0.1c0,4.3-3.5,7.8-7.9,7.8
			c-4.4,0-7.9-3.5-7.9-7.9V60.5z M529.6,101.5v-0.2c0-9.3-6.3-15.5-13.7-15.5c-7.4,0-13.6,6.2-13.6,15.5v0.2
			c0,9.3,6.2,15.5,13.6,15.5C523.3,117,529.6,110.9,529.6,101.5z"/>
		<path class="st8" d="M586.9,93.1v-0.2c0-20.8,16.2-37.8,38.3-37.8c11.1,0,18.4,2.5,25,7.1c1.6,1.1,3.3,3.3,3.3,6.5
			c0,4.4-3.5,7.9-7.9,7.9c-2.3,0-3.8-0.8-4.9-1.7c-4.4-3.1-9.1-5-16-5c-11.7,0-21,10.3-21,22.8v0.2c0,13.4,9.2,23.2,22.1,23.2
			c5.8,0,11.1-1.5,15.1-4.4v-10.4h-10.9c-3.9,0-7-3-7-6.9c0-3.9,3.1-7,7-7h18.4c4.5,0,8,3.5,8,8v17.7c0,4.7-1.8,7.9-5.6,10.2
			c-6,3.7-14.6,7.3-25.6,7.3C602.6,130.6,586.9,114.7,586.9,93.1z"/>
		<path class="st8" d="M670.1,60.1c0-4.6,3.9-7.4,8.9-7.4c5,0,8.9,2.8,8.9,7.4v0.2c0,4.6-3.9,7.5-8.9,7.5c-5,0-8.9-2.9-8.9-7.5V60.1
			z M671.1,80.7c0-4.4,3.5-7.9,7.9-7.9s7.9,3.5,7.9,7.9v41.3c0,4.4-3.5,7.9-7.9,7.9s-7.9-3.5-7.9-7.9V80.7z"/>
		<path class="st8" d="M725.9,130.5H725c-4.3,0-7.2-2.7-9-6.9l-17.1-39.6c-0.4-1-0.8-2.4-0.8-3.9c0-3.8,3.4-7.4,7.7-7.4
			s6.6,2.4,7.7,5.6l12,32.5l12.2-32.7c1-2.7,3.2-5.4,7.4-5.4c4.2,0,7.6,3.2,7.6,7.5c0,1.4-0.5,3-0.8,3.8l-17.1,39.6
			C733.1,127.7,730.1,130.5,725.9,130.5z"/>
		<path class="st8" d="M787.9,130.6c-16.8,0-29.2-11.8-29.2-28.9v-0.2c0-16,11.4-29.1,27.7-29.1c18.7,0,26.9,15.3,26.9,26.9
			c0,4.6-3.2,7.6-7.4,7.6h-31.4c1.6,7.2,6.6,11,13.7,11c4.4,0,8-1.4,11.3-3.8c1.1-0.8,2.2-1.3,3.9-1.3c3.5,0,6.2,2.7,6.2,6.3
			c0,2.1-0.9,3.7-2.1,4.7C802.4,128,796,130.6,787.9,130.6z M798.1,97c-0.9-7.1-5.1-11.9-11.8-11.9c-6.6,0-10.9,4.7-12.1,11.9H798.1
			z"/>
		<path class="st8" d="M823.9,124.1c-1.7-1-3-2.9-3-5.4c0-3.5,2.7-6.3,6.3-6.3c1.1,0,2.3,0.3,3.1,0.8c5.3,3.3,10.6,5,15.1,5
			c4.6,0,6.7-1.7,6.7-4.2v-0.2c0-3.4-5.4-4.6-11.6-6.5c-7.8-2.3-16.7-6-16.7-16.8v-0.2c0-11.4,9.2-17.7,20.5-17.7
			c5.8,0,11.9,1.6,17.3,4.3c2.3,1.1,3.8,3.2,3.8,6c0,3.5-2.8,6.3-6.4,6.3c-1.1,0-1.9-0.2-2.9-0.7c-4.5-2.2-8.8-3.5-12.1-3.5
			c-3.9,0-5.8,1.7-5.8,3.9v0.2c0,3.1,5.3,4.6,11.4,6.7c7.8,2.6,16.9,6.4,16.9,16.6v0.2c0,12.4-9.3,18.1-21.4,18.1
			C838.1,130.4,830.7,128.4,823.9,124.1z"/>
	</g>
</g>
</svg>
