<?xml version="1.0" encoding="utf-8"?>
<!-- Generator: Adobe Illustrator 25.0.1, SVG Export Plug-In . SVG Version: 6.00 Build 0)  -->
<svg version="1.1" id="Layer_1" xmlns="http://www.w3.org/2000/svg" xmlns:xlink="http://www.w3.org/1999/xlink" x="0px" y="0px"
	 viewBox="0 0 216 216" style="enable-background:new 0 0 216 216;" xml:space="preserve">
<style type="text/css">
	.st0{fill:none;stroke:#0B001A;stroke-width:6;stroke-linejoin:round;stroke-miterlimit:10;}
	.st1{fill:#FF675F;}
	.st2{fill:#E04733;}
	.st3{fill:#BC2922;}
	.st4{fill:#00DBB1;}
	.st5{fill:#38F2AF;}
	.st6{fill:#18A3FF;}
	.st7{fill:#5AC4FF;}
	.st8{fill:#0B8ED6;}
	.st9{fill:#F968B3;}
	.st10{fill:#AC7FFF;}
	.st11{fill:#CAB5FF;}
	.st12{fill:#FF908D;}
	.st13{fill:#6E49CB;}
	.st14{fill:#380D75;}
	.st15{fill:#180633;}
	.st16{fill:#FC6D26;}
	.st17{fill:#FCA121;}
	.st18{fill:#E58615;}
	.st19{fill:#FFC46C;}
	.st20{fill:#FFD8A4;}
	.st21{fill:#E5DAD1;}
	.st22{fill:#FCF7F2;}
	.st23{fill:#E85929;}
	.st24{fill:#584088;}
	.st25{fill:#7F6997;}
	.st26{fill:none;stroke:#380D75;stroke-width:4;stroke-linecap:round;stroke-linejoin:round;stroke-miterlimit:10;}
	
		.st27{opacity:0.25;fill:none;stroke:#341472;stroke-width:4;stroke-linecap:round;stroke-linejoin:round;stroke-miterlimit:10;enable-background:new    ;}
	
		.st28{opacity:0.15;fill:none;stroke:#3C257B;stroke-width:4;stroke-linecap:round;stroke-linejoin:round;stroke-miterlimit:10;stroke-dasharray:12,20;enable-background:new    ;}
	.st29{fill:#F9F7FF;}
	.st30{fill:#E5E0FC;}
	.st31{fill:#AFA3C6;}
	.st32{fill:#D9D3EA;}
	.st33{fill:#978ACE;}
	.st34{fill:#AFAAE5;}
	.st35{fill:#FF9769;}
	.st36{fill:#FFD8CC;}
	.st37{fill:none;stroke:#380D75;stroke-width:2.5;stroke-linecap:round;stroke-linejoin:round;stroke-miterlimit:10;}
	
		.st38{opacity:0.25;fill:none;stroke:#341472;stroke-width:2.5;stroke-linecap:round;stroke-linejoin:round;stroke-miterlimit:10;enable-background:new    ;}
	.st39{fill:#F3E500;}
	.st40{fill:#0EFFFB;}
	.st41{fill:#E8D700;}
	.st42{fill:#CCC200;}
	.st43{fill:#0B001A;}
	.st44{fill:#0EFFFB;stroke:#0EFFFB;stroke-width:6;stroke-linecap:round;stroke-linejoin:round;stroke-miterlimit:10;}
	.st45{fill:none;stroke:#CCC200;stroke-width:2;stroke-linecap:round;stroke-linejoin:round;stroke-miterlimit:10;}
</style>
<g>
	<g id="g64_2_" transform="translate(0.088533, 0.255867)">
		<path id="path66_2_" class="st0" d="M-254.3,85.7L-254.3,85.7l-11.7,35.8c-1.1,3.3,0.1,6.8,2.9,8.9l100.7,73.2L-254.3,85.7
			L-254.3,85.7z"/>
	</g>
	<g id="g80_2_" transform="translate(246.307061, 0.255867)">
		<path id="path82_2_" class="st0" d="M-316.6,85.7L-316.6,85.7l11.7,35.8c1.1,3.3-0.1,6.8-2.9,8.9l-100.7,73.1L-316.6,85.7
			L-316.6,85.7z"/>
	</g>
	<g id="g56_2_" transform="translate(28.531199, 1.160800)">
		<path id="path58_2_" class="st0" d="M-190.8,202.6l-38.3-117.9h-53.6L-190.8,202.6L-190.8,202.6z"/>
	</g>
	<g id="g76_2_" transform="translate(247.197860, 1.160800)">
		<path id="path78_2_" class="st0" d="M-409.4,202.6l38.3-117.9h53.7L-409.4,202.6L-409.4,202.6z"/>
	</g>
	<g id="g48_2_" transform="translate(155.197863, 1.160267)">
		<path id="path50_2_" class="st0" d="M-317.4,202.6L-317.4,202.6l38.3-117.9h-76.6L-317.4,202.6L-317.4,202.6z"/>
	</g>
	<g id="g72_2_" transform="translate(29.421866, 280.255593)">
		<path id="path74_2_" class="st0" d="M-283.6-194.3h53.7l-23.1-71c-1.2-3.6-6.3-3.6-7.6,0L-283.6-194.3L-283.6-194.3z"/>
	</g>
	<g id="g84_2_" transform="translate(336.973725, 280.255593)">
		<path id="path86_2_" class="st0" d="M-407.2-194.3h-53.7l23.1-71c1.2-3.6,6.3-3.6,7.6,0L-407.2-194.3L-407.2-194.3z"/>
	</g>
</g>
<g>
	<rect x="540.4" y="-256.3" class="st1" width="23.1" height="23.1"/>
	<rect x="540.4" y="-223.3" class="st2" width="23.1" height="23.1"/>
	<rect x="540.4" y="-190.2" class="st3" width="23.1" height="23.1"/>
	<rect x="573.5" y="-223.3" class="st4" width="23.1" height="23.1"/>
	<rect x="573.5" y="-256.3" class="st5" width="23.1" height="23.1"/>
	<rect x="606.6" y="-256.3" class="st6" width="23.1" height="23.1"/>
	<rect x="606.6" y="-289.4" class="st7" width="23.1" height="23.1"/>
	<rect x="606.6" y="-223.3" class="st8" width="23.1" height="23.1"/>
	<rect x="639.7" y="-256.3" class="st9" width="23.1" height="23.1"/>
	<rect x="507.4" y="-256.3" class="st10" width="23.1" height="23.1"/>
	<rect x="507.4" y="-289.4" class="st11" width="23.1" height="23.1"/>
	<rect x="540.4" y="-289.4" class="st12" width="23.1" height="23.1"/>
	<rect x="507.4" y="-223.3" class="st13" width="23.1" height="23.1"/>
	<rect x="507.4" y="-190.2" class="st14" width="23.1" height="23.1"/>
	<rect x="507.4" y="-157.1" class="st15" width="23.1" height="23.1"/>
	<rect x="474.3" y="-223.3" class="st16" width="23.1" height="23.1"/>
	<rect x="441" y="-223.5" class="st17" width="23.1" height="23.1"/>
	<rect x="441" y="-190.2" class="st18" width="23.1" height="23.1"/>
	<rect x="441" y="-256.6" class="st19" width="23.1" height="23.1"/>
	<rect x="441" y="-289.4" class="st20" width="23.1" height="23.1"/>
	<rect x="343.2" y="-256.3" class="st21" width="23.1" height="23.1"/>
	<rect x="343.2" y="-289.4" class="st22" width="23.1" height="23.1"/>
	<rect x="474.3" y="-190.2" class="st23" width="23.1" height="23.1"/>
	<rect x="407.9" y="-190.2" class="st24" width="23.1" height="23.1"/>
	<rect x="407.9" y="-223.5" class="st25" width="23.1" height="23.1"/>
	<rect x="310.1" y="-190.2" class="st26" width="23.1" height="23.1"/>
	<rect x="310.1" y="-223.5" class="st27" width="23.1" height="23.1"/>
	<rect x="310.1" y="-256.3" class="st28" width="23.1" height="23.1"/>
	<rect x="376.3" y="-289.4" class="st29" width="23.1" height="23.1"/>
	<rect x="376.3" y="-256.3" class="st30" width="23.1" height="23.1"/>
	<rect x="407.9" y="-256.6" class="st31" width="23.1" height="23.1"/>
	<rect x="407.9" y="-289.4" class="st32" width="23.1" height="23.1"/>
	<rect x="376.3" y="-190.2" class="st33" width="23.1" height="23.1"/>
	<rect x="376.3" y="-223.3" class="st34" width="23.1" height="23.1"/>
	<g>
		<rect x="474" y="-256.6" class="st35" width="23.5" height="23.5"/>
	</g>
	<g>
		<rect x="474" y="-289.6" class="st36" width="23.5" height="23.5"/>
	</g>
	<rect x="316.7" y="-183.6" class="st37" width="10" height="10"/>
	<rect x="316.7" y="-217" class="st38" width="10" height="10"/>
</g>
<rect x="301" y="174.8" class="st39" width="41.4" height="41.4"/>
<rect x="342.4" y="174.8" class="st40" width="41.4" height="41.4"/>
<g>
	<g>
		<path class="st40" d="M212.6,128.4l-5.7-17.6l2.5-9l-14-43.1l-6.7-3.8l-10-30.8c-1.2-3.5-6.2-3.5-7.4,0l-22.5,69.3l0,0l0,0H74l0,0
			l-7.2-22.2l4.2-1.4l-7.4-22.9l-6-4l-6.1-18.8c-1.2-3.5-6.2-3.5-7.4,0L10.2,128.4c-1,3.2,0.1,6.7,2.8,8.7l95.4,69.4
			c1.7,1.3,4.1,1.3,5.8,0l95.5-69.4C212.5,135.1,213.7,131.6,212.6,128.4z"/>
		<path class="st40" d="M111.4,210.4c-1.6,0-3.3-0.5-4.7-1.5l-95.4-69.4c-3.8-2.7-5.3-7.6-3.9-12L41.3,23.2c1-2.9,3.5-4.8,6.6-4.7
			c3,0,5.6,1.9,6.5,4.7L60.2,41l5.1,3.4c0.6,0.4,1,0.9,1.2,1.6l7.4,22.9c0.5,1.6-0.3,3.3-1.9,3.8l-1.4,0.5l5.6,17.3h70.5l21.8-67.2
			c0.9-2.9,3.5-4.7,6.5-4.7l0,0c3,0,5.6,1.8,6.5,4.7l9.6,29.7l5.7,3.2c0.6,0.4,1.1,1,1.4,1.7l14,43.1c0.2,0.6,0.2,1.2,0,1.7
			l-2.3,8.1l5.4,16.8l0,0c1.4,4.4-0.1,9.3-3.9,12L115.9,209C114.7,209.9,113,210.4,111.4,210.4z M47.8,24.4c-0.3,0-0.7,0.1-0.9,0.6
			L13.1,129.3c-0.6,2,0.1,4.1,1.7,5.3l95.4,69.3c0.7,0.5,1.6,0.5,2.3,0l95.5-69.4c1.7-1.2,2.4-3.3,1.7-5.3l-5.7-17.6
			c-0.2-0.6-0.2-1.2,0-1.7l2.3-8.1L193,60.7l-5.7-3.2c-0.6-0.4-1.1-1-1.4-1.7l-10-30.8c-0.2-0.5-0.6-0.6-0.9-0.6
			c-0.4,0-0.7,0.2-0.8,0.6l-22.5,69.3c-0.4,1.2-1.6,2.1-2.9,2.1H74.1c-0.2,0-0.3,0-0.5,0c-1.1-0.2-2.1-0.9-2.4-2L64,72.1
			c-0.5-1.6,0.3-3.3,1.9-3.8l1.4-0.5l-6.2-19.1L56,45.3c-0.6-0.4-1-0.9-1.2-1.6L48.6,25C48.5,24.6,48.2,24.4,47.8,24.4L47.8,24.4z"
			/>
	</g>
	<g>
		<path class="st39" d="M41,13.8L3,126.5l98.6,72.2c1.8,1.3,4.2,1.3,5.9,0l98.6-74l-38-110.9l-25.5,69.7l-75.5,2.3L41,13.8z"/>
	</g>
	<g>
		<polygon class="st41" points="90.1,95.6 53.1,95.6 53.1,163.2 90.1,190.4 		"/>
	</g>
	<g>
		<polygon class="st41" points="150.9,126.5 119.3,126.5 119.3,189.8 150.9,168.7 		"/>
	</g>
	<g>
		<polygon class="st41" points="176.7,137.6 145.1,137.6 145.1,171.8 176.7,150.6 		"/>
	</g>
	<g>
		<path class="st42" d="M104.6,178.6c-0.3,0-0.5-0.1-0.7-0.3c-0.4-0.4-0.4-1,0-1.4l1.9-1.9c0.2-0.2,0.4-0.3,0.7-0.3h31.4
			c0.6,0,1,0.4,1,1s-0.4,1-1,1h-31l-1.6,1.6C105.1,178.5,104.8,178.6,104.6,178.6z"/>
	</g>
	<g>
		<path class="st42" d="M32.8,61.6H22.3c-0.6,0-1-0.4-1-1s0.4-1,1-1h10.1l8.4-8.4c0.2-0.2,0.4-0.3,0.7-0.3h14.7c0.6,0,1,0.4,1,1
			s-0.4,1-1,1H41.9l-8.4,8.4C33.3,61.5,33,61.6,32.8,61.6z"/>
	</g>
	<g>
		<path class="st42" d="M150.9,61.6c-0.4,0-0.9-0.3-1-0.8s0.2-1.1,0.7-1.2l33.8-8.7c0.5-0.1,1.1,0.2,1.2,0.7
			c0.1,0.5-0.2,1.1-0.7,1.2l-33.8,8.7C151,61.6,150.9,61.6,150.9,61.6z"/>
	</g>
	<g>
		<path class="st42" d="M134.3,178.6H87.9c-0.3,0-0.5-0.1-0.7-0.3l-28.5-28.5H32.8c-0.6,0-1-0.4-1-1s0.4-1,1-1H59
			c0.3,0,0.5,0.1,0.7,0.3l28.5,28.5h46c0.6,0,1,0.4,1,1S134.9,178.6,134.3,178.6z"/>
	</g>
	<g>
		<path class="st42" d="M118.4,147.1c-0.3,0-0.5-0.1-0.7-0.3c-0.4-0.4-0.4-1,0-1.4l70.7-70.7c0.4-0.4,1-0.4,1.4,0s0.4,1,0,1.4
			l-70.7,70.7C118.9,147,118.6,147.1,118.4,147.1z"/>
	</g>
	<g>
		<path class="st42" d="M181.9,147.1h-63.5c-0.3,0-0.5-0.1-0.7-0.3l-31.4-31.4H39.5c-0.6,0-1-0.4-1-1s0.4-1,1-1h47.1
			c0.3,0,0.5,0.1,0.7,0.3l31.4,31.4h63.1c0.6,0,1,0.4,1,1S182.4,147.1,181.9,147.1z"/>
	</g>
	<g>
		<path class="st42" d="M35.6,115.4H7.7c-0.6,0-1-0.4-1-1s0.4-1,1-1h27.9c0.6,0,1,0.4,1,1S36.2,115.4,35.6,115.4z"/>
	</g>
	<g>
		<path class="st43" d="M104.5,202.8c-1.6,0-3.3-0.5-4.7-1.5L4.4,131.9c-3.8-2.7-5.3-7.6-3.9-12L34.4,15.6c1-2.9,3.5-4.7,6.6-4.7
			l0,0c3,0,5.6,1.9,6.5,4.7l21.9,67.2h70.5l21.8-67.2c0.9-2.9,3.5-4.7,6.5-4.7l0,0c3,0,5.6,1.8,6.5,4.7l33.9,104.3l0,0
			c1.4,4.4-0.1,9.3-3.9,12l-95.5,69.4C107.8,202.3,106.2,202.8,104.5,202.8z M41,16.8c-0.3,0-0.7,0.1-0.9,0.6L6.2,121.7
			c-0.6,2,0.1,4.1,1.7,5.3l95.4,69.4c0.7,0.5,1.6,0.5,2.3,0l95.5-69.4c1.7-1.2,2.4-3.3,1.7-5.3L169,17.4c-0.2-0.5-0.6-0.6-0.9-0.6
			l0,0c-0.4,0-0.7,0.2-0.8,0.6l-22.5,69.3c-0.4,1.2-1.6,2.1-2.9,2.1H67.3c-0.2,0-0.3,0-0.5,0c-1.1-0.2-2.1-0.9-2.4-2L41.8,17.4
			C41.7,17,41.4,16.8,41,16.8L41,16.8z"/>
	</g>
	<g>
		<path class="st42" d="M37.6,117.1c-1.5,0-2.7-1.2-2.7-2.7s1.2-2.7,2.7-2.7s2.7,1.2,2.7,2.7S39.1,117.1,37.6,117.1z M37.6,113.7
			c-0.4,0-0.7,0.3-0.7,0.7c0,0.4,0.3,0.7,0.7,0.7s0.7-0.3,0.7-0.7S38,113.7,37.6,113.7z"/>
	</g>
	<g>
		<path class="st42" d="M75.4,115.4c-0.6,0-1-0.4-1-1V113c0-0.6,0.4-1,1-1s1,0.4,1,1v1.4C76.4,115,75.9,115.4,75.4,115.4z"/>
	</g>
	<g>
		<path class="st42" d="M71.5,115.4L71.5,115.4c-0.6,0-1-0.5-1-1.1v-0.4h-2.9l-0.7,0.9c-0.3,0.4-1,0.5-1.4,0.1
			c-0.4-0.3-0.5-1-0.1-1.4l1-1.2c0.2-0.2,0.5-0.4,0.8-0.4h4.4c0.3,0,0.5,0.1,0.7,0.3c0.2,0.2,0.3,0.5,0.3,0.7l-0.1,1.4
			C72.5,115,72.1,115.4,71.5,115.4z"/>
	</g>
	<g>
		<path class="st43" d="M122.3,195.8c-0.8,0-1.5-0.3-2.1-0.9l-3-3l4.2-4.2l1.2,1.2l13.8-10.4l0.9-4.8l5.9,1.1l-1.1,6
			c-0.1,0.7-0.5,1.4-1.1,1.9l-16.8,12.7C123.6,195.6,123,195.8,122.3,195.8z"/>
	</g>
	<g>
		<path class="st43" d="M62.7,68.4L60.1,63l1.5-0.7l-3.4-10.8l-5.7-3.2l2.9-5.2l6.8,3.8c0.7,0.4,1.2,1,1.4,1.7L68.2,63
			c0.5,1.4-0.2,3-1.6,3.6L62.7,68.4z"/>
	</g>
	<g>
		<path class="st43" d="M203.7,106.6l-5.7-1.8l1.6-4.9l-6.2-21.3l-1,0.3l-2-5.7l3.9-1.4c0.8-0.3,1.6-0.2,2.4,0.2
			c0.7,0.4,1.3,1,1.5,1.8l7.3,25.2c0.2,0.6,0.2,1.2,0,1.7L203.7,106.6z"/>
	</g>
	<g>
		<path class="st43" d="M189.1,68.9l-1.4-3.7l0,0l-0.1-0.3l-0.6-1.5h0.1l-1.1-3.8l3.6-1.1c1.6-0.5,3.3,0.4,3.7,2l1.1,3.6
			c0.5,1.5-0.3,3.1-1.8,3.7L189.1,68.9z"/>
	</g>
	<g>
		<path class="st41" d="M35.5,90.3l-6-2.8c-1.3-0.6-2.1-1.9-2.1-3.3V84c0-2,1.6-3.6,3.6-3.6h6.2c1.1,0,2.2,0.5,2.9,1.4l1.4,1.9
			c1.2,1.6,0.9,4-0.8,5.2L39.1,90C38.1,90.8,36.7,90.9,35.5,90.3z"/>
	</g>
	<g>
		<path class="st41" d="M178.9,113.2c0.9-0.9,1.3-2.2,0.9-3.4l0,0c-0.5-1.7-2.4-2.7-4.1-2.2l-4.9,1.5c-1,0.3-1.8,1-2.1,2l-0.1,0.2
			c-0.9,3.5,1.8,5.6,1.4,5.3C172.9,117.6,179,113.1,178.9,113.2z"/>
	</g>
</g>
<g>
	<path class="st44" d="M212.6-101.2l-5.7-17.6l2.5-9l-14-43.1l-6.7-3.8l-10-30.8c-1.2-3.5-6.2-3.5-7.4,0l-22.5,69.3l0,0l0,0H74l0,0
		l-7.2-22.2l4.2-1.4l-7.4-22.9l-6-4l-6.1-18.8c-1.2-3.5-6.2-3.5-7.4,0L10.2-101.2c-1,3.2,0.1,6.7,2.8,8.7l95.4,69.4
		c1.7,1.3,4.1,1.3,5.8,0l95.5-69.4C212.5-94.5,213.7-98,212.6-101.2z"/>
	<path class="st39" d="M41-215.7L3-103.1l98.6,72.2c1.8,1.3,4.2,1.3,5.9,0l98.6-74l-38-110.9L142.7-146l-75.5,2.3L41-215.7z"/>
	<polygon class="st41" points="90.1,-133.9 53.1,-133.9 53.1,-66.4 90.1,-39.1 	"/>
	<polygon class="st41" points="150.9,-103.1 119.3,-103.1 119.3,-39.7 150.9,-60.9 	"/>
	<polygon class="st41" points="176.7,-92 145.1,-92 145.1,-57.8 176.7,-79 	"/>
	<polyline class="st45" points="104.6,-51.9 106.4,-53.8 137.8,-53.8 	"/>
	<polyline class="st45" points="22.3,-168.9 32.8,-168.9 41.5,-177.6 56.2,-177.6 	"/>
	<line class="st45" x1="150.9" y1="-168.9" x2="184.7" y2="-177.6"/>
	<polyline class="st45" points="32.8,-80.8 59,-80.8 87.9,-51.9 134.3,-51.9 	"/>
	<line class="st45" x1="118.4" y1="-83.4" x2="189.1" y2="-154.2"/>
	<polyline class="st45" points="39.5,-115.2 86.6,-115.2 118.4,-83.4 181.9,-83.4 	"/>
	<line class="st45" x1="7.7" y1="-115.2" x2="35.6" y2="-115.2"/>
	<path class="st0" d="M205.8-108.8l-33.9-104.3c-1.2-3.5-6.2-3.5-7.4,0L142-143.8l0,0l0,0H67.2l0,0l-22.5-69.3
		c-1.2-3.5-6.2-3.5-7.4,0L3.4-108.8c-1,3.2,0.1,6.7,2.8,8.7l95.4,69.4c1.7,1.3,4.1,1.3,5.8,0l95.5-69.4
		C205.7-102.1,206.8-105.6,205.8-108.8z"/>
	<circle class="st45" cx="37.6" cy="-115.2" r="1.7"/>
	<line class="st45" x1="75.4" y1="-115.2" x2="75.4" y2="-116.6"/>
	<polyline class="st45" points="71.5,-115.2 71.6,-116.6 67.2,-116.6 66.2,-115.3 	"/>
	<polyline class="st0" points="119.3,-39.7 122.3,-36.7 139.2,-49.4 140.2,-55.4 	"/>
	<polyline class="st0" points="61.4,-163.9 65.2,-165.7 60.6,-180.1 53.9,-183.9 	"/>
	<polyline class="st0" points="200.9,-123.9 202.7,-129.7 195.4,-154.9 191.5,-153.6 	"/>
	<polyline class="st0" points="188,-163.4 191.5,-164.7 190.4,-168.3 186.8,-167.2 	"/>
	<path class="st41" d="M35.5-139.2l-6-2.8c-1.3-0.6-2.1-1.9-2.1-3.3v-0.3c0-2,1.6-3.6,3.6-3.6h6.2c1.1,0,2.2,0.5,2.9,1.4l1.4,1.9
		c1.2,1.6,0.9,4-0.8,5.2l-1.7,1.2C38.1-138.8,36.7-138.7,35.5-139.2z"/>
	<path class="st41" d="M178.9-116.4c0.9-0.9,1.3-2.2,0.9-3.4l0,0c-0.5-1.7-2.4-2.7-4.1-2.2l-4.9,1.5c-1,0.3-1.8,1-2.1,2l-0.1,0.2
		c-0.9,3.5,1.8,5.6,1.4,5.3C172.9-112,179-116.5,178.9-116.4z"/>
</g>
</svg>
