<?xml version="1.0" encoding="utf-8"?>
<!-- Generator: Adobe Illustrator 23.0.1, SVG Export Plug-In . SVG Version: 6.00 Build 0)  -->
<svg version="1.1" xmlns="http://www.w3.org/2000/svg" xmlns:xlink="http://www.w3.org/1999/xlink" x="0px" y="0px" width="540px"
	 height="406px" viewBox="0 0 540 406" style="enable-background:new 0 0 540 406;" xml:space="preserve">
<style type="text/css">
	.st0{display:none;}
	.st1{display:inline;opacity:0.1;fill:#FF00FF;}
	.st2{fill:none;stroke:#14125B;stroke-width:5.4;stroke-linecap:round;stroke-miterlimit:10;}
	.st3{fill:none;stroke:url(#SVGID_1_);stroke-width:5.4;stroke-linecap:round;stroke-miterlimit:10;}
	.st4{fill:#14125B;}
	.st5{fill:#FFFFFF;}
	.st6{fill:url(#SVGID_2_);}
	.st7{fill:none;stroke:url(#SVGID_3_);stroke-width:5.4;stroke-linecap:round;stroke-miterlimit:10;}
	.st8{clip-path:url(#SVGID_5_);fill:url(#SVGID_6_);}
	.st9{clip-path:url(#SVGID_8_);fill:url(#SVGID_9_);}
	.st10{clip-path:url(#SVGID_11_);fill:url(#SVGID_12_);}
	.st11{clip-path:url(#SVGID_14_);fill:url(#SVGID_15_);}
	.st12{clip-path:url(#SVGID_17_);fill:url(#SVGID_18_);}
	.st13{clip-path:url(#SVGID_20_);fill:url(#SVGID_21_);}
	.st14{fill:#844B6E;}
	.st15{opacity:0.5;}
	.st16{fill:url(#SVGID_22_);}
	.st17{fill:url(#SVGID_23_);}
	.st18{fill:none;stroke:#FFFFFF;stroke-width:2.6505;stroke-linecap:round;stroke-linejoin:round;stroke-miterlimit:10;}
	.st19{fill:#DA3B21;}
	.st20{fill:#FB6D26;}
	.st21{fill:#FBA021;}
	.st22{fill:#231F20;}
</style>
<g id="spacing" class="st0">
</g>
<g id="Layer_1">
	<g>
		<g>
			<g>
				<g id="g48_9_" transform="translate(155.197863, 1.160267)">
					<path id="path50_9_" class="st19" d="M114.825,246.003L114.825,246.003l40.537-124.74H74.288L114.825,246.003L114.825,246.003z
						"/>
				</g>
				<g id="g56_9_" transform="translate(28.531199, 1.160800)">
					<path id="path58_9_" class="st20" d="M241.462,246.003l-40.537-124.74h-56.761L241.462,246.003L241.462,246.003z"/>
				</g>
				<g id="g64_9_" transform="translate(0.088533, 0.255867)">
					<path id="path66_9_" class="st21" d="M172.587,122.21L172.587,122.21l-12.335,37.9c-1.117,3.441,0.089,7.24,3.039,9.386
						l106.595,77.454L172.587,122.21L172.587,122.21z"/>
				</g>
				<g id="g72_9_" transform="translate(29.421866, 280.255593)">
					<path id="path74_9_" class="st19" d="M143.269-157.79h56.806l-24.448-75.13c-1.251-3.844-6.704-3.844-8,0L143.269-157.79
						L143.269-157.79z"/>
				</g>
				<g id="g76_9_" transform="translate(247.197860, 1.160800)">
					<path id="path78_9_" class="st20" d="M22.825,246.003l40.537-124.74h56.806L22.825,246.003L22.825,246.003z"/>
				</g>
				<g id="g80_9_" transform="translate(246.307061, 0.255867)">
					<path id="path82_9_" class="st21" d="M121.018,122.21L121.018,122.21l12.335,37.9c1.117,3.441-0.089,7.24-3.039,9.386
						L23.72,246.905L121.018,122.21L121.018,122.21z"/>
				</g>
				<g id="g84_9_" transform="translate(336.973725, 280.255593)">
					<path id="path86_9_" class="st19" d="M30.381-157.79h-56.806l24.403-75.13c1.251-3.844,6.704-3.844,8,0L30.381-157.79
						L30.381-157.79z"/>
				</g>
				<path class="st4" d="M383.99,158.957l-12.136-37.288c-0.055-0.325-0.154-0.643-0.281-0.954L347.266,45.88
					c-1.226-3.638-4.492-5.981-8.327-5.981c-0.017,0-0.034,0-0.049,0c-3.836,0.02-7.081,2.385-8.267,6.029l-23.367,71.942h-74.466
					l-23.41-71.945c-1.186-3.64-4.43-6.005-8.266-6.025c-0.017,0-0.033,0-0.049,0c-3.835,0-7.101,2.343-8.344,6.031l-24.294,74.93
					c-0.025,0.066-0.057,0.128-0.079,0.195L156.01,158.96c-1.738,5.352,0.148,11.169,4.694,14.475l106.594,77.454
					c0.804,0.584,1.742,0.869,2.674,0.869c0.688,0,1.365-0.173,1.992-0.479c0.025-0.012,0.049-0.024,0.074-0.036
					c0.019-0.009,0.038-0.017,0.056-0.026c0.03-0.016,0.058-0.037,0.088-0.053c0.056-0.03,0.113-0.06,0.167-0.093
					c0.095-0.058,0.19-0.116,0.281-0.182c0.024-0.016,0.05-0.028,0.073-0.045l106.596-77.411
					C383.844,170.129,385.729,164.313,383.99,158.957z M226.162,127.018l31.503,96.937l-75.612-96.937H226.162z M282.346,223.971
					l31.508-96.953h44.145l-59.519,76.278L282.346,223.971z M338.952,49.756l22.123,68.114h-44.247L338.952,49.756z
					 M304.293,126.975l-34.271,105.458l-34.27-105.458H304.293z M201.05,49.756l22.164,68.114h-44.248L201.05,49.756z
					 M166.057,166.07c-1.347-0.98-1.904-2.707-1.388-4.296l9.685-29.756l72.161,92.514L166.057,166.07z M373.946,166.068
					l-80.464,58.434l6.015-7.709l66.151-84.77l9.682,29.748C375.847,163.364,375.29,165.091,373.946,166.068z"/>
			</g>
			<g>
				<path class="st5" d="M280.498,294.942c-7.819,0-14.972,2.782-19.08,9.806c-4.372-7.024-11.129-9.806-19.212-9.806
					c-14.043,0-25.172,10.07-25.172,26.63v36.039c0,4.108,3.178,7.417,7.285,7.417s7.288-3.31,7.288-7.417V321.44
					c0-8.744,5.035-12.983,11.261-12.983c6.229,0,11.261,4.24,11.261,12.983v36.171c0,4.108,3.18,7.417,7.288,7.417
					c3.976,0,7.288-3.31,7.288-7.417V321.44c0-8.744,4.9-12.983,11.129-12.983c6.358,0,11.264,4.24,11.264,12.983v36.171
					c0,4.108,3.178,7.417,7.285,7.417c4.108,0,7.285-3.31,7.285-7.417v-36.039C305.669,305.012,294.543,294.942,280.498,294.942z"/>
				<path class="st5" d="M385.661,294.942c-7.819,0-14.975,2.782-19.08,9.806c-4.374-7.024-11.129-9.806-19.212-9.806
					c-14.045,0-25.172,10.07-25.172,26.63v36.039c0,4.108,3.18,7.417,7.285,7.417c4.108,0,7.285-3.31,7.285-7.417V321.44
					c0-8.744,5.035-12.983,11.264-12.983c6.229,0,11.264,4.24,11.264,12.983v36.171c0,4.108,3.178,7.417,7.285,7.417
					c3.976,0,7.285-3.31,7.285-7.417V321.44c0-8.744,4.903-12.983,11.132-12.983c6.358,0,11.261,4.24,11.261,12.983v36.171
					c0,4.108,3.18,7.417,7.288,7.417c4.108,0,7.285-3.31,7.285-7.417v-36.039C410.832,305.012,399.703,294.942,385.661,294.942z"/>
				<path class="st5" d="M434.618,270.167c-4.771,0-8.612,3.841-8.612,8.612c0,4.636,3.841,8.612,8.612,8.612
					c4.771,0,8.614-3.976,8.614-8.612C443.232,274.008,439.389,270.167,434.618,270.167z"/>
				<path class="st5" d="M434.618,295.074c-4.108,0-7.288,3.18-7.288,7.288v55.249c0,4.108,3.18,7.417,7.288,7.417
					c4.108,0,7.288-3.31,7.288-7.417v-55.249C441.906,298.255,438.726,295.074,434.618,295.074z"/>
				<path class="st5" d="M492.646,351.385c-9.01,0-15.501-5.962-15.501-17.622V309.78h15.501c3.711,0,6.757-3.046,6.757-6.754
					c0-3.844-3.046-6.757-6.757-6.757h-15.501v-9.938c0-4.108-3.18-7.288-7.288-7.288c-4.108,0-7.288,3.18-7.288,7.288v9.938h-4.768
					c-3.711,0-6.757,2.914-6.757,6.757c0,3.709,3.046,6.754,6.757,6.754h4.768v23.983c0,19.21,12.986,31.266,30.077,31.266
					c3.711,0,6.757-3.046,6.757-6.889C499.403,354.431,496.357,351.385,492.646,351.385z"/>
				<path class="st5" d="M184.4,298.394c-12.272-5.865-26.29-4.625-38.446,3.401c-8.544,5.639-15.156,14.242-20.991,21.832
					l-0.499,0.65c-12.611,16.398-22.907,27.848-40.176,25.635c-7.566-0.96-15.549-4.817-19.867-9.603
					c-7.835-8.676-10.711-19.816-7.895-30.565c3.318-12.654,13.013-22.428,24.123-24.32c12.778-2.175,23.207,1.162,31.02,9.919
					c2.738,3.073,7.447,3.34,10.52,0.601s3.342-7.45,0.601-10.52c-11.134-12.485-26.994-17.7-44.642-14.695
					c-16.781,2.86-31.263,17.021-36.036,35.236c-4.056,15.466,0.148,32.039,11.248,44.33c6.736,7.466,17.87,12.986,29.053,14.404
					c27.088,3.439,42.578-16.657,53.866-31.333l0.501-0.655c5.121-6.663,10.924-14.215,17.385-18.476
					c5.517-3.644,14.129-7.016,23.813-2.391c4.865,2.323,8.598,5.908,10.242,9.827c3.032,7.237,2.078,14.503-2.757,21.015
					c-4.517,6.086-13.194,9.229-20.625,7.444c-4.93-1.172-9.523-4.137-11.703-7.55c-2.218-3.466-6.822-4.48-10.293-2.267
					c-3.466,2.218-4.482,6.825-2.267,10.293c4.28,6.695,12.059,11.938,20.808,14.021c2.52,0.601,5.1,0.892,7.679,0.892
					c10.921,0,21.864-5.188,28.368-13.951c8.029-10.814,9.638-23.479,4.536-35.659C198.882,308.556,192.645,302.335,184.4,298.394z"
					/>
			</g>
		</g>
	</g>
</g>
</svg>
