<?xml version="1.0" encoding="UTF-8"?>
<svg width="80px" height="73px" viewBox="0 0 80 73" version="1.1" xmlns="http://www.w3.org/2000/svg" xmlns:xlink="http://www.w3.org/1999/xlink">
    <title>Group</title>
    <g id="Page-1" stroke="none" stroke-width="1" fill="none" fill-rule="evenodd">
        <g id="DevSecOps-UI" transform="translate(-860.000000, -17509.000000)">
            <g id="Group" transform="translate(860.000000, 17509.000000)">
                <polygon id="Fill-3" fill="#E24329" points="39.5334313 73.0002 54.0924313 28.0922 24.9764313 28.0922"></polygon>
                <polygon id="Fill-4" fill="#FC6D26" points="39.5334313 73.0002 24.9744313 28.0922 4.57243126 28.0922 39.5334313 72.9992"></polygon>
                <path d="M4.57243126,28.092 L0.147431257,41.738 C-0.255568743,42.984 0.186431257,44.348 1.24343126,45.116 L39.5334313,73 L4.57243126,28.091 L4.57243126,28.092 Z" id="Fill-5" fill="#FCA326"></path>
                <path d="M4.57243126,28.092 L24.9754313,28.092 L16.2064313,1.044 C15.7564313,-0.348 13.7914313,-0.348 13.3414313,1.044 L4.57243126,28.092 Z" id="Fill-6" fill="#E24329"></path>
                <polygon id="Fill-7" fill="#FC6D26" points="39.5334313 73.0002 54.0924313 28.0922 74.4944313 28.0922 39.5334313 72.9992"></polygon>
                <path d="M74.4943313,28.092 L78.9193313,41.738 C79.3223313,42.984 78.8803313,44.348 77.8233313,45.116 L39.5333313,73 L74.4943313,28.091 L74.4943313,28.092 Z" id="Fill-8" fill="#FCA326"></path>
                <path d="M74.4943313,28.092 L54.0913313,28.092 L62.8603313,1.044 C63.3113313,-0.348 65.2753313,-0.348 65.7263313,1.044 L74.4953313,28.092 L74.4943313,28.092 Z" id="Fill-9" fill="#E24329"></path>
            </g>
        </g>
    </g>
</svg>