<?xml version="1.0" encoding="UTF-8"?>
<svg width="225px" height="73px" viewBox="0 0 225 73" version="1.1" xmlns="http://www.w3.org/2000/svg" xmlns:xlink="http://www.w3.org/1999/xlink">
    <title>Group 10</title>
    <defs>
        <polygon id="path-1" points="0 0.0001 225 0.0001 225 73 0 73"></polygon>
    </defs>
    <g id="Page-1" stroke="none" stroke-width="1" fill="none" fill-rule="evenodd">
        <g id="DevSecOps-UI" transform="translate(-187.000000, -150.000000)">
            <g id="Group-10" transform="translate(187.000000, 150.000000)">
                <mask id="mask-2" fill="white">
                    <use xlink:href="#path-1"></use>
                </mask>
                <g id="Clip-2"></g>
                <path d="M130.98,24.515 L135.332,24.515 L135.332,20.208 L130.98,20.208 L130.98,24.515 Z M130.98,53.006 L135.332,53.006 L135.332,27.969 L130.98,27.969 L130.98,53.005 L130.98,53.006 Z M146.373,20.208 L142.021,20.208 L142.036,25.716 L142.036,44.743 C142.036,50.051 144.363,53.607 150.991,53.607 C151.907,53.607 152.804,53.524 153.674,53.368 L153.674,49.501 C153.044,49.596 152.371,49.651 151.649,49.651 C148.007,49.651 146.388,47.798 146.388,44.694 L146.388,31.575 L153.674,31.575 L153.674,27.969 L146.388,27.969 L146.373,20.208 Z M115.059,23.763 C119.005,23.763 121.535,25.065 123.205,26.368 L125.118,23.086 C122.511,20.824 119.002,19.607 115.261,19.607 C105.799,19.607 99.171,25.316 99.171,36.832 C99.171,48.9 106.321,53.607 114.502,53.607 C118.601,53.607 122.092,52.656 124.368,51.703 L124.275,38.81 L124.275,34.754 L112.132,34.754 L112.132,38.81 L119.873,38.81 L119.967,48.599 C118.955,49.1 117.184,49.5 114.806,49.5 C108.228,49.5 103.826,45.406 103.826,36.782 C103.826,28.02 108.38,23.763 115.059,23.763 L115.059,23.763 Z M214.778,27.368 C210.799,27.368 208.656,30.047 208.656,30.047 L208.656,25.817 L208.643,20.208 L204.291,20.208 L204.306,52.204 C206.48,53.106 209.466,53.607 212.705,53.607 C221.003,53.607 225,48.349 225,39.285 C225,32.125 221.306,27.368 214.778,27.368 L214.778,27.368 Z M212.907,49.701 C211.237,49.701 209.769,49.5 208.656,49 L208.656,33.828 C210.175,32.576 212.047,31.674 214.425,31.674 C218.726,31.674 220.395,34.679 220.395,39.536 C220.395,46.446 217.714,49.701 212.907,49.701 L212.907,49.701 Z M189.584,27.368 C185.988,27.368 182.689,28.63 180.116,30.73 L181.69,33.428 C183.512,32.376 185.738,31.325 188.926,31.325 C192.568,31.325 194.188,33.177 194.188,36.283 L194.188,37.884 C193.479,37.734 192.013,37.633 191.102,37.633 C183.31,37.633 179.362,40.337 179.362,45.996 C179.362,51.053 182.5,53.607 187.256,53.607 C190.46,53.607 193.53,52.155 194.593,49.801 L195.402,53.006 L198.54,53.006 L198.54,36.232 C198.54,30.924 196.212,27.368 189.584,27.368 L189.584,27.368 Z M194.188,47.247 C193.075,48.399 191.203,49.551 188.673,49.551 C185.283,49.551 183.917,47.899 183.917,45.745 C183.917,42.491 186.193,40.939 191.052,40.939 C191.962,40.939 193.43,41.038 194.188,41.189 L194.188,47.247 Z M163.461,20.208 L159.009,20.208 L159.022,53.006 L177.036,53.006 L177.036,48.951 L163.476,48.951 L163.461,20.208 Z" id="Fill-1" fill="#FFFFFF" mask="url(#mask-2)"></path>
                <polygon id="Fill-3" fill="#E24329" mask="url(#mask-2)" points="39.5332 73.0003 54.0922 28.0923 24.9762 28.0923"></polygon>
                <polygon id="Fill-4" fill="#FC6D26" mask="url(#mask-2)" points="39.5332 73.0003 24.9742 28.0923 4.5722 28.0923 39.5332 72.9993"></polygon>
                <path d="M4.5722,28.0921 L0.1472,41.7381 C-0.2558,42.9841 0.1862,44.3481 1.2432,45.1161 L39.5332,73.0001 L4.5722,28.0911 L4.5722,28.0921 Z" id="Fill-5" fill="#FCA326" mask="url(#mask-2)"></path>
                <path d="M4.5722,28.0921 L24.9752,28.0921 L16.2062,1.0441 C15.7562,-0.3479 13.7912,-0.3479 13.3412,1.0441 L4.5722,28.0921 Z" id="Fill-6" fill="#E24329" mask="url(#mask-2)"></path>
                <polygon id="Fill-7" fill="#FC6D26" mask="url(#mask-2)" points="39.5332 73.0003 54.0922 28.0923 74.4942 28.0923 39.5332 72.9993"></polygon>
                <path d="M74.4941,28.0921 L78.9191,41.7381 C79.3221,42.9841 78.8801,44.3481 77.8231,45.1161 L39.5331,73.0001 L74.4941,28.0911 L74.4941,28.0921 Z" id="Fill-8" fill="#FCA326" mask="url(#mask-2)"></path>
                <path d="M74.4941,28.0921 L54.0911,28.0921 L62.8601,1.0441 C63.3111,-0.3479 65.2751,-0.3479 65.7261,1.0441 L74.4951,28.0921 L74.4941,28.0921 Z" id="Fill-9" fill="#E24329" mask="url(#mask-2)"></path>
            </g>
        </g>
    </g>
</svg>