<?xml version="1.0" encoding="utf-8"?>
<!-- Generator: Adobe Illustrator 24.0.3, SVG Export Plug-In . SVG Version: 6.00 Build 0)  -->
<svg version="1.1" id="Layer_1" xmlns="http://www.w3.org/2000/svg" xmlns:xlink="http://www.w3.org/1999/xlink" x="0px" y="0px"
	 viewBox="0 0 565.07 377.6" style="enable-background:new 0 0 565.07 377.6;" xml:space="preserve">
<style type="text/css">
	.st0{fill:#FFD731;}
	.st1{fill:#F7DEB0;}
	.st2{fill:#38E5C4;}
	.st3{fill:#4584F4;}
	.st4{fill:#FC6D26;}
	.st5{fill:#E24329;}
	.st6{fill:#FCA326;}
	.st7{fill:#002E8C;}
	.st8{fill:#7285A5;}
	.st9{fill:#FFBB69;}
	.st10{fill:#FD96A9;}
	.st11{fill:#E0BE86;}
	.st12{fill:#FFFFFF;}
</style>
<g>
	<g>
		<g>
			<path class="st6" d="M278.96,360.79c-80.06-14.02-116.31-59.81-132.62-95.76c-16.25-35.81-15.98-68.98-15.8-74.68V4.83h305.02
				v185.52c0.18,5.7,0.45,38.87-15.8,74.68c-16.31,35.95-52.56,81.75-132.62,95.76l-4.09,0.72L278.96,360.79z"/>
		</g>
		<g>
			<path class="st1" d="M279.53,334.27c-68.9-12.06-100.09-51.47-114.13-82.41c-13.98-30.81-13.75-59.36-13.6-64.26V28.53h262.49
				V187.6c0.16,4.9,0.39,33.45-13.6,64.26c-14.04,30.94-45.23,70.35-114.13,82.41l-3.52,0.62L279.53,334.27z"/>
		</g>
		<g>
			<path class="st2" d="M73.19,222.04c-11.9-6.48-23.48-13.79-34.66-21.91c-5.36,7.37,5.25,38.6,5.25,38.6s-33.55,11.83-39.66,20.25
				c26.99,19.61,55.82,23.57,85.94,35.12"/>
		</g>
		<g>
			<path class="st2" d="M492.96,222.04c11.9-6.48,23.48-13.79,34.66-21.91c5.35,7.37-5.25,38.6-5.25,38.6s33.55,0.35,39.66,8.77
				c-26.99,19.61-55.82,35.05-85.94,46.6"/>
		</g>
		<g>
			<path class="st2" d="M503.4,236.41c-131.34,95.43-309.2,95.43-440.54,0c11.47-15.79,22.94-31.58,34.41-47.37
				c110.82,80.52,260.89,80.52,371.72,0C480.46,204.84,491.93,220.63,503.4,236.41z"/>
		</g>
		<g>
			<polygon class="st0" points="282.54,63.45 269.56,83.71 251.66,74.7 264.01,102.84 301.06,102.84 313.41,74.7 295.51,83.71 			
				"/>
		</g>
		<g>
			<g id="g48_2_" transform="translate(155.197863, 1.160267)">
				<g id="path50_2_">
					<path class="st5" d="M127.87,230.7L127.87,230.7l35.68-109.8H92.19L127.87,230.7L127.87,230.7z"/>
				</g>
			</g>
			<g id="g56_2_" transform="translate(28.531199, 1.160800)">
				<g id="path58_2_">
					<path class="st4" d="M254.51,230.7l-35.68-109.8h-49.96L254.51,230.7L254.51,230.7z"/>
				</g>
			</g>
			<g id="g64_2_" transform="translate(0.088533, 0.255867)">
				<g id="path66_2_">
					<path class="st6" d="M197.29,121.83L197.29,121.83l-10.86,33.36c-0.98,3.03,0.08,6.37,2.68,8.26l93.83,68.18L197.29,121.83
						L197.29,121.83z"/>
				</g>
			</g>
			<g id="g72_2_" transform="translate(29.421866, 280.255593)">
				<g id="path74_2_">
					<path class="st5" d="M167.97-158.17h50l-21.52-66.13c-1.1-3.38-5.9-3.38-7.04,0L167.97-158.17L167.97-158.17z"/>
				</g>
			</g>
			<g id="g76_2_" transform="translate(247.197860, 1.160800)">
				<g id="path78_2_">
					<path class="st4" d="M35.87,230.7l35.68-109.8h50L35.87,230.7L35.87,230.7z"/>
				</g>
			</g>
			<g id="g80_2_" transform="translate(246.307061, 0.255867)">
				<g id="path82_2_">
					<path class="st6" d="M122.41,121.83L122.41,121.83l10.86,33.36c0.98,3.03-0.08,6.37-2.68,8.26L36.77,231.6L122.41,121.83
						L122.41,121.83z"/>
				</g>
			</g>
			<g id="g84_2_" transform="translate(336.973725, 280.255593)">
				<g id="path86_2_">
					<path class="st5" d="M31.77-158.17h-50L3.25-224.3c1.1-3.38,5.9-3.38,7.04,0L31.77-158.17L31.77-158.17z"/>
				</g>
			</g>
		</g>
	</g>
	<g>
		<g>
			<g id="g48_1_" transform="translate(155.197863, 1.160267)">
				<g id="path50_1_">
					<path class="st7" d="M127.36,237.81c-1.86,0-3.52-1.2-4.1-2.98L87.02,123.3c-0.43-1.31-0.2-2.75,0.61-3.86
						c0.81-1.11,2.11-1.77,3.48-1.77h72.49c1.38,0,2.67,0.66,3.48,1.77c0.81,1.12,1.04,2.55,0.61,3.86l-36.24,111.53
						C130.88,236.61,129.22,237.81,127.36,237.81z M97.04,126.28l30.32,93.29l30.32-93.29H97.04z"/>
				</g>
			</g>
			<g id="g56_1_" transform="translate(28.531199, 1.160800)">
				<g id="path58_1_">
					<path class="st7" d="M254,237.81c-1.29,0-2.56-0.58-3.4-1.66l-87-111.53c-1.01-1.3-1.2-3.06-0.47-4.54
						c0.72-1.48,2.22-2.42,3.87-2.42h50.75c1.86,0,3.52,1.2,4.1,2.98l36.24,111.53c0.64,1.99-0.23,4.15-2.07,5.13
						C255.38,237.64,254.69,237.81,254,237.81z M175.82,126.28l66.51,85.27l-27.71-85.27H175.82z"/>
				</g>
			</g>
			<g id="g64_1_" transform="translate(0.088533, 0.255867)">
				<g id="path66_1_">
					<path class="st7" d="M282.42,238.75c-0.88,0-1.77-0.27-2.53-0.82l-95.31-69.25c-4.15-3.02-5.87-8.32-4.28-13.2l11.03-33.89
						c0.49-1.51,1.78-2.63,3.35-2.91c1.58-0.28,3.16,0.34,4.14,1.59l87,111.53c1.32,1.69,1.19,4.1-0.3,5.64
						C284.68,238.3,283.56,238.75,282.42,238.75z M197.02,131.95l-8.52,26.18c-0.43,1.32,0.03,2.76,1.16,3.58L260.24,213
						L197.02,131.95z"/>
				</g>
			</g>
			<g id="g72_1_" transform="translate(29.421866, 280.255593)">
				<g id="path74_1_">
					<path class="st7" d="M216.9-152.78h-50.79c-1.38,0-2.67-0.66-3.48-1.77c-0.81-1.11-1.04-2.55-0.61-3.86l21.78-67.17
						c1.14-3.4,4.15-5.56,7.68-5.56c0.01,0,0.03,0,0.04,0c3.53,0.02,6.52,2.2,7.61,5.55L221-158.42c0.43,1.31,0.2,2.75-0.61,3.86
						C219.58-153.44,218.28-152.78,216.9-152.78z M172.04-161.39h38.94l-19.5-59.94L172.04-161.39z"/>
				</g>
			</g>
			<g id="g76_1_" transform="translate(247.197860, 1.160800)">
				<g id="path78_1_">
					<path class="st7" d="M35.36,237.81c-0.68,0-1.38-0.16-2.02-0.5c-1.84-0.98-2.72-3.15-2.07-5.13l36.24-111.53
						c0.58-1.77,2.23-2.98,4.1-2.98h50.79c1.65,0,3.15,0.94,3.87,2.42c0.72,1.48,0.54,3.24-0.47,4.54L38.75,236.15
						C37.91,237.23,36.65,237.81,35.36,237.81z M74.73,126.28l-27.72,85.28l66.55-85.28H74.73z"/>
				</g>
			</g>
			<g id="g80_1_" transform="translate(246.307061, 0.255867)">
				<g id="path82_1_">
					<path class="st7" d="M36.25,238.71c-1.14,0-2.26-0.45-3.1-1.31c-1.49-1.54-1.62-3.95-0.3-5.64l87-111.49
						c0.98-1.25,2.56-1.87,4.14-1.59c1.57,0.28,2.86,1.39,3.35,2.91l11.03,33.89c1.58,4.89-0.13,10.19-4.28,13.21l-95.31,69.21
						C38.02,238.44,37.14,238.71,36.25,238.71z M121.66,131.95l-63.22,81.02l70.59-51.26c1.12-0.81,1.58-2.25,1.15-3.58
						L121.66,131.95z"/>
				</g>
			</g>
			<g id="g84_1_" transform="translate(336.973725, 280.255593)">
				<g id="path86_1_">
					<path class="st7" d="M32.61-152.78h-50.79c-1.38,0-2.67-0.66-3.48-1.77c-0.81-1.12-1.04-2.55-0.61-3.86l21.82-67.17
						c1.09-3.36,4.08-5.54,7.61-5.55c0.01,0,0.03,0,0.04,0c3.53,0,6.54,2.16,7.67,5.51l21.83,67.22c0.43,1.31,0.2,2.75-0.61,3.86
						C35.28-153.44,33.99-152.78,32.61-152.78z M-12.25-161.39h38.94L7.21-221.33L-12.25-161.39z"/>
				</g>
			</g>
		</g>
		<g>
			<path class="st7" d="M433.61,215.45c-0.19,0-0.38-0.01-0.57-0.04c-2.36-0.31-4.02-2.48-3.71-4.83c1.6-12.16,1.48-20.81,1.4-23.17
				l0-178.79H134.33v178.66c-0.07,2.29-0.19,10.18,1.15,21.3c0.28,2.36-1.4,4.51-3.76,4.79c-2.41,0.29-4.51-1.4-4.79-3.76
				c-1.37-11.4-1.3-19.51-1.21-22.46l0-182.82c0-2.38,1.93-4.31,4.31-4.31h305.02c2.38,0,4.31,1.93,4.31,4.31v182.96
				c0.08,2.39,0.21,11.63-1.47,24.44C437.59,213.87,435.74,215.45,433.61,215.45z"/>
		</g>
		<g>
			<path class="st7" d="M282.63,362.73c-0.47,0-0.93-0.07-1.37-0.22c-0.4-0.09-1.12-0.19-2.12-0.35
				c-52.48-8.41-94.47-32.97-121.43-71c-1.38-1.94-0.92-4.63,1.02-6c1.93-1.37,4.63-0.92,6,1.02c25.6,36.1,65.63,59.43,115.77,67.48
				c0.91,0.15,1.59,0.25,2.12,0.35c0.59-0.11,1.35-0.23,2.42-0.39c62.94-9.68,97.44-41.8,115.29-67.04c1.37-1.94,4.07-2.4,6-1.03
				c1.94,1.37,2.4,4.06,1.03,6c-18.81,26.6-55.08,60.44-121.01,70.57c-1.1,0.17-1.88,0.28-2.32,0.37
				C283.58,362.65,283.11,362.73,282.63,362.73z M284.56,362.27C284.56,362.27,284.56,362.27,284.56,362.27L284.56,362.27z
				 M284.57,362.27C284.57,362.27,284.56,362.27,284.57,362.27C284.56,362.27,284.57,362.27,284.57,362.27z"/>
		</g>
		<g>
			<path class="st7" d="M407.39,227.57c-0.32,0-0.64-0.04-0.97-0.11c-2.32-0.54-3.76-2.85-3.23-5.16
				c4.54-19.64,3.86-34.23,3.85-34.38l-0.01-155.61H158.03V187.7c-0.01,0.36-0.68,14.72,3.74,34.11c0.53,2.32-0.93,4.63-3.24,5.15
				c-2.32,0.54-4.62-0.92-5.16-3.24c-4.7-20.64-3.98-35.62-3.94-36.25L149.42,28c0-2.38,1.93-4.31,4.31-4.31h257.62
				c2.38,0,4.31,1.93,4.31,4.31V187.7c0.03,0.41,0.76,15.64-4.07,36.54C411.13,226.23,409.35,227.57,407.39,227.57z"/>
		</g>
		<g>
			<path class="st7" d="M282.53,338.67c-0.25,0-0.5-0.02-0.74-0.06c-32.34-5.66-59.47-17.44-80.65-35.02
				c-1.83-1.52-2.08-4.23-0.56-6.06c1.52-1.83,4.23-2.08,6.06-0.56c19.84,16.47,45.37,27.58,75.89,33.03
				c30.52-5.45,56.05-16.56,75.89-33.03c1.83-1.52,4.54-1.27,6.06,0.56c1.52,1.83,1.27,4.54-0.56,6.06
				c-21.18,17.58-48.31,29.36-80.65,35.02C283.03,338.65,282.78,338.67,282.53,338.67z"/>
		</g>
		<g>
			<path class="st7" d="M301.07,107.15h-37.06c-1.71,0-3.26-1.01-3.94-2.58l-12.34-28.14c-0.73-1.66-0.34-3.6,0.98-4.85
				c1.32-1.25,3.28-1.54,4.9-0.72l14.43,7.26l10.88-16.99c1.59-2.47,5.67-2.47,7.26,0l10.88,16.99l14.43-7.26
				c1.62-0.81,3.58-0.53,4.9,0.72c1.32,1.25,1.71,3.19,0.98,4.85l-12.34,28.14C304.32,106.14,302.78,107.15,301.07,107.15z
				 M266.82,98.54h31.43l6.41-14.61l-7.22,3.63c-1.97,0.99-4.37,0.33-5.56-1.52l-9.34-14.6l-9.34,14.6
				c-1.19,1.86-3.59,2.52-5.56,1.52l-7.22-3.63L266.82,98.54z"/>
		</g>
		<g>
			<g>
				<path class="st7" d="M282.59,312.55c-77.88,0-155.76-24.14-222.23-72.43c-1.92-1.4-2.35-4.09-0.95-6.01l34.32-47.24
					c1.4-1.92,4.09-2.35,6.02-0.95c109.36,79.46,256.32,79.46,365.68,0c1.93-1.4,4.62-0.97,6.02,0.95l34.32,47.24
					c1.4,1.92,0.97,4.62-0.95,6.01C438.35,288.4,360.47,312.55,282.59,312.55z M68.93,235.66c128.34,91.02,298.99,91.02,427.33,0
					l-29.26-40.27c-110.84,78.3-257.97,78.3-368.81,0L68.93,235.66z"/>
			</g>
			<g>
				<path class="st7" d="M475.06,298.48c-1.73,0-3.36-1.05-4.02-2.77c-0.85-2.22,0.26-4.71,2.48-5.56
					c28.3-10.86,55.1-25.11,79.76-42.41c-6.82-2.63-20.37-4.37-32.11-4.5c-1.38-0.01-2.67-0.69-3.47-1.82
					c-0.8-1.13-1.01-2.57-0.56-3.87c3.89-11.46,6.39-23.3,6.55-29.87c-9.57,6.66-19.55,12.83-29.75,18.39
					c-2.08,1.14-4.7,0.37-5.84-1.72c-1.14-2.09-0.37-4.7,1.72-5.84c11.77-6.42,23.24-13.67,34.1-21.56c0.93-0.67,2.07-0.96,3.2-0.77
					c1.13,0.18,2.14,0.8,2.81,1.72c1.46,2.01,5.32,10.41-2.85,36.89c11.47,0.52,31.5,2.56,37.17,10.36c0.67,0.92,0.95,2.08,0.77,3.2
					c-0.18,1.13-0.8,2.14-1.72,2.81c-26.62,19.34-55.79,35.16-86.7,47.02C476.09,298.38,475.57,298.48,475.06,298.48z"/>
			</g>
			<g>
				<path class="st7" d="M455.65,265.4l19.41,28.77l27.23-57.54C502.29,236.63,476.49,262.94,455.65,265.4z"/>
				<path class="st7" d="M475.06,298.47c-1.42,0-2.77-0.71-3.57-1.9l-19.41-28.77c-0.84-1.24-0.97-2.84-0.34-4.2
					c0.63-1.37,1.92-2.31,3.41-2.48c19.11-2.26,43.82-27.26,44.06-27.51c1.47-1.5,3.82-1.72,5.54-0.52c1.73,1.2,2.33,3.47,1.43,5.37
					l-27.23,57.54c-0.66,1.4-2.02,2.34-3.57,2.45C475.27,298.47,475.16,298.47,475.06,298.47z M462.77,268.26l11.62,17.23
					l15.2-32.12C481.88,259.25,472.23,265.41,462.77,268.26z"/>
			</g>
			<g>
				<path class="st7" d="M90.02,298.48c-0.51,0-1.03-0.09-1.54-0.29c-6.29-2.41-12.62-4.69-18.74-6.9
					c-23.77-8.56-46.22-16.65-67.96-32.44c-0.92-0.67-1.54-1.68-1.72-2.81c-0.18-1.13,0.1-2.28,0.77-3.2
					c5.61-7.72,27.21-14.21,37.51-16.94c-8.61-27.34-4.67-35.94-3.19-37.99c0.67-0.92,1.68-1.54,2.81-1.72
					c1.12-0.19,2.28,0.1,3.2,0.77c10.86,7.89,22.33,15.14,34.1,21.56c2.09,1.14,2.86,3.75,1.72,5.84c-1.14,2.09-3.76,2.86-5.84,1.72
					c-10.2-5.56-20.19-11.73-29.76-18.39c0.16,6.57,2.67,18.41,6.56,29.87c0.39,1.15,0.28,2.4-0.31,3.46
					c-0.58,1.06-1.59,1.83-2.76,2.11c-10.8,2.59-26.26,7.52-33.54,11.9c19.41,13.07,39.81,20.41,61.32,28.16
					c6.16,2.22,12.53,4.51,18.91,6.96c2.22,0.85,3.33,3.34,2.48,5.56C93.38,297.42,91.75,298.48,90.02,298.48z"/>
			</g>
			<g>
				<path class="st7" d="M62.79,236.63l27.23,57.54l19.41-28.77C109.43,265.4,88.38,263.75,62.79,236.63z"/>
				<path class="st7" d="M90.02,298.47c-0.11,0-0.22,0-0.33-0.01c-1.54-0.12-2.9-1.05-3.57-2.45L58.9,238.47
					c-0.91-1.91-0.29-4.2,1.46-5.4c1.75-1.2,4.11-0.94,5.56,0.6c23.93,25.36,43.67,27.41,43.87,27.43c1.52,0.14,2.86,1.07,3.52,2.44
					c0.65,1.38,0.54,3-0.31,4.26l-19.41,28.77C92.78,297.77,91.44,298.47,90.02,298.47z M75.9,254.26l14.78,31.23l11.63-17.24
					C96.38,266.5,87,262.65,75.9,254.26z"/>
			</g>
		</g>
		<g>
			<path class="st7" d="M93.95,240.08c-0.54-0.3-0.69-0.68-0.43-1.14l0.07-0.13c0.16-0.28,0.63-0.6,1.4-0.94s1.33-0.82,1.66-1.4
				l8.56-15.31c0.33-0.59,0.44-1.3,0.33-2.15c-0.11-0.85-0.09-1.41,0.07-1.69l0.07-0.13c0.26-0.46,0.65-0.53,1.2-0.23l8.67,4.84
				c3.19,1.79,5.37,3.84,6.53,6.18c1.16,2.33,1.01,4.81-0.46,7.44c-1.36,2.43-3.31,3.92-5.85,4.47c-2.54,0.55-5.2,0.04-7.98-1.51
				l-2.51-1.4l-1.84,3.29c-0.33,0.59-0.41,1.32-0.24,2.2c0.17,0.87,0.17,1.46,0.01,1.74l-0.07,0.13c-0.26,0.46-0.66,0.53-1.2,0.23
				L93.95,240.08z M108.27,235.34l0.91,0.51c0.78,0.44,1.58,0.36,2.41-0.22c0.82-0.58,1.55-1.44,2.18-2.56
				c1.09-1.96,1.64-3.79,1.64-5.5c0-1.71-0.42-2.8-1.27-3.27l-0.1-0.06c-0.85-0.47-1.59-0.14-2.22,0.98l-4.21,7.52
				C106.99,233.89,107.2,234.75,108.27,235.34z"/>
			<path class="st7" d="M149.95,262.89c-0.17,0.47-0.14,1.1,0.09,1.88c0.23,0.79,0.27,1.35,0.13,1.7l-0.06,0.14
				c-0.21,0.48-0.59,0.6-1.17,0.35l-8.03-3.43c-0.57-0.24-0.76-0.61-0.55-1.08l0.06-0.14c0.15-0.34,0.5-0.69,1.07-1.03
				c0.56-0.34,0.94-0.73,1.12-1.16c1.22-2.86,1.17-5.14-0.16-6.85l-3.17-1.31l-2.17,5.08c-0.26,0.62-0.27,1.35-0.01,2.21
				c0.26,0.86,0.33,1.43,0.2,1.73l-0.06,0.14c-0.2,0.48-0.59,0.6-1.16,0.35l-8.41-3.59c-0.57-0.24-0.75-0.61-0.55-1.09l0.06-0.14
				c0.13-0.3,0.56-0.66,1.3-1.09c0.74-0.43,1.24-0.95,1.5-1.57l6.89-16.13c0.26-0.62,0.29-1.34,0.09-2.17
				c-0.2-0.83-0.24-1.39-0.11-1.69l0.06-0.14c0.2-0.48,0.59-0.6,1.17-0.36l9.82,4.19c3.25,1.39,5.51,3.14,6.78,5.27
				c1.27,2.13,1.36,4.46,0.28,7c-0.42,0.98-1.16,1.86-2.22,2.64c-1.06,0.78-2.28,1.31-3.64,1.59
				C150.84,256.83,151.14,259.72,149.95,262.89z M142.75,250.37l0.62,0.26c0.62,0.26,1.28,0.15,1.99-0.35
				c0.71-0.49,1.35-1.42,1.93-2.77c0.7-1.65,0.91-3.19,0.62-4.64c-0.29-1.45-0.87-2.36-1.74-2.73l-0.17-0.07
				c-0.41-0.17-0.83-0.14-1.25,0.12c-0.42,0.26-0.75,0.66-0.98,1.21l-2.11,4.94c-0.46,1.07-0.59,1.93-0.4,2.57
				C141.46,249.54,141.95,250.03,142.75,250.37z"/>
			<path class="st7" d="M163.88,272.43c-0.6-0.18-0.82-0.52-0.67-1.02l0.04-0.14c0.11-0.36,0.55-0.75,1.33-1.16
				c0.77-0.41,1.4-0.94,1.88-1.58l11.33-14.55c0.39-0.5,0.41-1.28,0.08-2.32s-0.48-1.65-0.42-1.84l0.04-0.14
				c0.15-0.5,0.52-0.66,1.12-0.48l9.25,2.79c0.59,0.18,0.82,0.52,0.67,1.02l-0.04,0.14c-0.07,0.22-0.33,0.45-0.79,0.72
				c-0.46,0.26-0.87,0.59-1.23,0.99c-0.37,0.4-0.52,0.88-0.45,1.44l2.09,18.76c0.08,0.75,0.33,1.52,0.73,2.3
				c0.4,0.79,0.54,1.37,0.43,1.75l-0.04,0.14c-0.15,0.5-0.52,0.66-1.12,0.48l-10.4-3.14c-0.6-0.18-0.82-0.52-0.67-1.02l0.04-0.14
				c0.07-0.24,0.26-0.45,0.57-0.65c0.31-0.19,0.61-0.35,0.93-0.48c0.31-0.13,0.59-0.34,0.84-0.64c0.25-0.3,0.36-0.68,0.34-1.12
				l-0.08-1.82l-8.36-2.52l-1.07,1.47c-0.27,0.36-0.38,0.74-0.34,1.13c0.04,0.39,0.15,0.72,0.34,1c0.19,0.28,0.36,0.58,0.5,0.91
				c0.15,0.33,0.19,0.61,0.11,0.85l-0.04,0.14c-0.15,0.5-0.52,0.66-1.12,0.48L163.88,272.43z M173.3,265.52l6.29,1.9l-0.34-9.97
				L173.3,265.52z"/>
			<path class="st7" d="M228.22,274.04c0.61,0.11,0.87,0.43,0.77,0.94l-0.03,0.15c-0.06,0.32-0.44,0.76-1.12,1.33
				c-0.69,0.57-1.1,1.18-1.22,1.84l-1.59,8.4c-0.06,0.29-0.2,0.53-0.44,0.71c-0.24,0.18-0.5,0.25-0.79,0.19
				c-0.47-0.09-0.83-0.31-1.09-0.66l-1.32-1.88c-0.92,0.46-2.01,0.76-3.27,0.9c-1.25,0.14-2.39,0.11-3.42-0.08
				c-4.03-0.76-6.98-2.67-8.83-5.71c-1.86-3.05-2.43-6.43-1.73-10.15c0.51-2.69,1.58-4.95,3.22-6.8c1.64-1.84,3.49-3.1,5.54-3.78
				c2.05-0.68,4.1-0.82,6.16-0.43c3.15,0.59,5.65,1.72,7.49,3.37c1.84,1.65,2.57,3.48,2.19,5.49c-0.19,1-0.64,1.75-1.36,2.25
				c-0.71,0.5-1.57,0.65-2.57,0.46c-1.17-0.22-2.17-0.8-2.98-1.74c-0.81-0.94-1.39-1.9-1.75-2.9c-0.36-0.99-0.82-1.93-1.4-2.83
				c-0.58-0.89-1.25-1.41-2-1.56c-1.03-0.19-1.93,0.16-2.71,1.07c-0.78,0.9-1.32,2.16-1.63,3.78c-0.67,3.57-0.49,6.76,0.56,9.58
				c1.05,2.82,2.66,4.44,4.84,4.84c0.44,0.08,0.81,0.12,1.12,0.1l0.75-4c0.13-0.66-0.07-1.38-0.59-2.18
				c-0.52-0.79-0.75-1.35-0.69-1.67l0.03-0.15c0.04-0.22,0.17-0.38,0.4-0.49c0.22-0.11,0.48-0.14,0.78-0.08L228.22,274.04z"/>
			<path class="st7" d="M266.99,287.27c-0.05,0.7-0.01,1.23,0.13,1.6c0.13,0.37,0.3,0.58,0.49,0.63c0.2,0.05,0.37,0.17,0.52,0.34
				c0.15,0.17,0.21,0.43,0.19,0.78c-0.07,0.89-1.51,1.23-4.34,1.02c-1.34-0.1-2.28-0.41-2.81-0.94c-0.54-0.52-0.8-1.46-0.8-2.81
				c-1.47,2.31-4.13,3.32-7.97,3.04c-2.83-0.21-5.02-1.25-6.56-3.11c-1.54-1.86-2.2-4.39-1.96-7.59l0.86-11.5
				c0.05-0.67-0.15-1.35-0.61-2.05c-0.46-0.7-0.68-1.18-0.66-1.46l0.01-0.15c0.02-0.22,0.12-0.42,0.31-0.59
				c0.19-0.17,0.42-0.26,0.69-0.27l6.61-0.33c1.33-0.05,1.96,0.29,1.91,1l-1.42,17.07c-0.17,1.96,0.04,3.5,0.63,4.61
				c0.59,1.12,1.46,1.72,2.6,1.8c1.61,0.12,2.84-0.4,3.67-1.56c0.84-1.16,1.32-2.67,1.46-4.53l0.92-12.36
				c0.05-0.67-0.22-1.36-0.8-2.06c-0.59-0.7-0.87-1.19-0.85-1.47l0.01-0.15c0.02-0.2,0.17-0.38,0.47-0.54s0.6-0.26,0.9-0.29
				l6.24-0.36c1.23-0.06,1.81,0.27,1.76,0.99L266.99,287.27z"/>
			<path class="st7" d="M285.24,291.89c-0.62,0.02-0.94-0.23-0.96-0.75l-0.01-0.15c-0.01-0.33,0.23-0.84,0.71-1.54
				s0.72-1.39,0.7-2.06l-0.57-17.53c-0.02-0.67-0.3-1.34-0.83-2.01c-0.53-0.67-0.8-1.16-0.81-1.49l-0.01-0.15
				c-0.02-0.52,0.29-0.79,0.91-0.81l17.38-0.57c0.45-0.01,0.77,0.07,0.98,0.25c0.2,0.18,0.35,0.49,0.44,0.94l1.06,4.97
				c0.06,0.35,0,0.63-0.2,0.85c-0.19,0.22-0.46,0.33-0.81,0.34l-0.22,0.01c-0.52,0.02-1.05-0.2-1.59-0.66
				c-0.54-0.45-1.01-0.96-1.41-1.5c-0.4-0.55-0.91-1.05-1.52-1.5c-0.61-0.45-1.23-0.67-1.85-0.65l-2.09,0.07
				c-1.24,0.04-1.84,0.71-1.8,2l0.22,6.79l3.17-0.11c0.5-0.01,0.93-0.2,1.29-0.55c0.36-0.35,0.63-0.72,0.8-1.13
				c0.17-0.4,0.38-0.78,0.62-1.12c0.24-0.34,0.48-0.52,0.73-0.53l0.37-0.01c0.52-0.02,0.79,0.29,0.81,0.91l0.24,7.27
				c0.02,0.62-0.23,0.94-0.75,0.96l-0.37,0.01c-0.25,0.01-0.5-0.14-0.76-0.44c-0.26-0.3-0.49-0.64-0.69-1.02
				c-0.2-0.38-0.49-0.72-0.87-1.02c-0.38-0.3-0.82-0.44-1.32-0.42l-3.17,0.1l0.2,6.12c0.03,0.8,0.24,1.49,0.65,2.07
				c0.4,0.58,1.04,0.86,1.91,0.83l2.69-0.09c0.62-0.02,1.2-0.29,1.73-0.8c0.53-0.52,0.95-1.08,1.27-1.7
				c0.31-0.62,0.71-1.19,1.19-1.7c0.48-0.51,1-0.78,1.54-0.8l0.37-0.01c0.32-0.01,0.57,0.11,0.74,0.37s0.24,0.53,0.2,0.83
				l-0.65,5.18c-0.06,0.47-0.19,0.82-0.38,1.02c-0.19,0.2-0.51,0.31-0.96,0.33L285.24,291.89z"/>
			<path class="st7" d="M359.78,275.44c0.27-0.05,0.49,0,0.67,0.14c0.18,0.14,0.27,0.35,0.27,0.63l-0.04,6.39
				c-0.01,0.63-0.26,1-0.74,1.09l-18.26,3.46c-0.27,0.05-0.52,0.01-0.77-0.14c-0.24-0.14-0.39-0.34-0.43-0.58l-0.1-0.55
				c-0.28-1.47-0.13-2.99,0.45-4.56c0.57-1.58,1.35-3.05,2.34-4.41c0.98-1.37,1.96-2.7,2.94-4.01c0.98-1.31,1.78-2.64,2.4-3.99
				c0.62-1.35,0.82-2.57,0.61-3.67c-0.22-1.15-0.61-2.03-1.16-2.63c-0.56-0.6-1.15-0.84-1.79-0.72c-0.49,0.09-0.83,0.55-1.03,1.37
				c-0.2,0.82-0.33,1.7-0.39,2.64s-0.37,1.85-0.93,2.74c-0.55,0.89-1.39,1.44-2.51,1.65c-1.03,0.2-1.94,0.05-2.74-0.43
				c-0.8-0.48-1.3-1.26-1.51-2.34c-0.36-1.91,0.33-3.67,2.06-5.29c1.73-1.62,3.98-2.69,6.74-3.21c3.18-0.6,5.79-0.49,7.83,0.34
				c2.04,0.83,3.31,2.51,3.79,5.05c0.26,1.37,0.11,2.69-0.44,3.98c-0.55,1.28-1.35,2.44-2.38,3.49c-1.03,1.05-2.09,2.04-3.18,2.98
				c-1.09,0.94-2.09,1.93-2.99,2.96c-0.91,1.03-1.47,2.01-1.7,2.94l8.69-1.65c0.68-0.13,1.25-0.38,1.7-0.76
				c0.45-0.38,0.74-0.76,0.88-1.16c0.14-0.4,0.31-0.76,0.52-1.09c0.2-0.33,0.43-0.52,0.67-0.56L359.78,275.44z"/>
			<path class="st7" d="M389.26,276.42c-3.34,1.01-6.51,0.68-9.52-0.99c-3.01-1.67-5.1-4.43-6.26-8.28
				c-1.19-3.95-1.07-7.47,0.36-10.56c1.44-3.08,3.95-5.17,7.55-6.25c3.38-1.02,6.59-0.65,9.63,1.11c3.04,1.76,5.15,4.59,6.33,8.5
				c1.16,3.84,0.92,7.29-0.71,10.37C395,273.39,392.54,275.43,389.26,276.42z M389.53,273.45c1.83-0.55,2.06-3.13,0.67-7.73
				c-0.63-2.07-1.42-4.07-2.38-6.01c-0.96-1.93-2.05-3.54-3.27-4.82c-1.22-1.28-2.33-1.77-3.33-1.47c-1.86,0.56-2.01,3.41-0.46,8.56
				c0.99,3.29,2.34,6.13,4.04,8.53S388.08,273.89,389.53,273.45z"/>
			<path class="st7" d="M432.07,251.36c0.25-0.11,0.48-0.11,0.69-0.01c0.2,0.1,0.34,0.29,0.4,0.56l1.3,6.26
				c0.13,0.62-0.04,1.03-0.5,1.22l-17.12,7.22c-0.25,0.11-0.51,0.11-0.78,0.03c-0.27-0.09-0.45-0.25-0.55-0.48l-0.22-0.52
				c-0.58-1.37-0.76-2.89-0.53-4.56s0.68-3.27,1.35-4.81c0.67-1.54,1.35-3.06,2.03-4.54c0.68-1.49,1.18-2.95,1.51-4.4
				c0.32-1.45,0.26-2.68-0.17-3.71c-0.45-1.08-1.02-1.85-1.69-2.33c-0.67-0.47-1.31-0.58-1.9-0.33c-0.46,0.19-0.7,0.71-0.72,1.56
				c-0.02,0.85,0.04,1.74,0.17,2.66c0.14,0.93,0.03,1.89-0.33,2.87c-0.35,0.99-1.06,1.7-2.11,2.15c-0.96,0.41-1.88,0.46-2.77,0.16
				c-0.88-0.3-1.54-0.96-1.96-1.97c-0.75-1.79-0.46-3.66,0.9-5.6c1.35-1.95,3.32-3.47,5.91-4.56c2.98-1.26,5.56-1.7,7.73-1.32
				c2.17,0.38,3.76,1.76,4.77,4.15c0.54,1.28,0.68,2.61,0.4,3.98c-0.27,1.37-0.8,2.67-1.59,3.91c-0.79,1.24-1.61,2.43-2.48,3.58
				c-0.87,1.15-1.63,2.32-2.3,3.52c-0.67,1.2-1.02,2.28-1.05,3.24l8.15-3.44c0.64-0.27,1.14-0.64,1.5-1.1
				c0.36-0.46,0.57-0.9,0.62-1.31c0.05-0.41,0.15-0.8,0.28-1.17c0.13-0.36,0.31-0.59,0.54-0.69L432.07,251.36z"/>
			<path class="st7" d="M461.14,246.08c-3.05,1.68-6.22,2.03-9.51,1.04c-3.29-0.99-5.92-3.25-7.87-6.78c-2-3.61-2.62-7.08-1.87-10.4
				c0.75-3.32,2.77-5.88,6.06-7.7c3.09-1.71,6.31-2.03,9.65-0.95c3.34,1.08,6,3.4,7.98,6.97c1.94,3.5,2.44,6.93,1.49,10.29
				C466.12,241.91,464.14,244.42,461.14,246.08z M460.78,243.12c1.67-0.93,1.35-3.49-0.98-7.69c-1.05-1.89-2.25-3.68-3.59-5.37
				c-1.35-1.69-2.75-3.03-4.21-4.03c-1.46-1-2.65-1.24-3.56-0.73c-1.7,0.94-1.24,3.76,1.36,8.46c1.66,3.01,3.58,5.5,5.74,7.49
				C457.71,243.23,459.45,243.86,460.78,243.12z"/>
		</g>
		<g>
			<path class="st7" d="M212.69,377.59c-10.42,0-25.56-7.22-42.31-27.87c-1.56-1.92-3.11-3.86-4.67-5.79
				c-7.96-9.93-16.2-20.19-25.62-28.83c-7.78-7.13-15.07-6.85-19.82-5.35c-6.54,2.06-12.08,7.84-13.46,14.05
				c-0.7,3.14-0.62,7.71,3.71,11.68c4.65,4.27,8.94,4.12,11.7,3.25c3.6-1.14,6.17-3.91,7.14-6.39c-0.47-1.15-1.01-1.14-3.91-0.65
				c-2.36,0.4-8.65,1.48-10.33-4.95c-0.74-2.81,0.6-5.64,3.49-7.39c4.05-2.45,10.97-2.65,15.8,1.78c3.35,3.07,4.69,7.47,3.67,12.05
				c-1.37,6.16-6.7,11.68-13.28,13.75c-6.97,2.19-14.12,0.38-20.11-5.11c-5.66-5.19-7.95-12.44-6.3-19.89
				c2.05-9.22,9.79-17.41,19.28-20.4c9.76-3.08,19.8-0.51,28.22,7.21c9.9,9.08,18.34,19.6,26.51,29.78
				c1.54,1.92,3.08,3.85,4.64,5.76c18.76,23.12,33.23,26.1,38.83,24.22c1.4-0.47,3.09-1.49,3.16-3.68c0.03-0.99-0.1-2.29-0.93-2.84
				c-0.43-0.28-0.91-0.3-1.2-0.26c-1.16,1.79-3.5,2.47-5.46,1.54c-2.15-1.03-3.06-3.6-2.03-5.74c1.64-3.43,5.94-5.16,10.21-4.12
				c3.85,0.94,8.26,4.57,8.03,11.71c-0.18,5.32-3.64,9.74-9.03,11.55C216.88,377.27,214.89,377.59,212.69,377.59z"/>
		</g>
		<g>
			<path class="st7" d="M352.39,377.59c-2.2,0-4.19-0.32-5.94-0.91c-5.39-1.81-8.85-6.24-9.03-11.55
				c-0.24-7.14,4.17-10.77,8.03-11.71c4.27-1.04,8.56,0.69,10.21,4.12c1.03,2.14,0.12,4.72-2.03,5.74c-1.96,0.94-4.3,0.25-5.46-1.54
				c-0.29-0.04-0.77-0.02-1.2,0.26c-0.83,0.54-0.97,1.84-0.93,2.84c0.07,2.19,1.76,3.2,3.16,3.68c5.6,1.88,20.07-1.11,38.83-24.22
				c1.55-1.91,3.1-3.84,4.64-5.76c8.17-10.18,16.61-20.71,26.51-29.78c8.43-7.73,18.46-10.3,28.22-7.21
				c9.48,2.99,17.23,11.19,19.28,20.4c1.65,7.46-0.64,14.71-6.3,19.89c-5.99,5.5-13.14,7.31-20.11,5.11
				c-6.57-2.07-11.91-7.6-13.28-13.75c-1.02-4.59,0.32-8.98,3.67-12.05c4.83-4.43,11.75-4.23,15.8-1.78
				c2.89,1.74,4.23,4.58,3.49,7.39c-1.68,6.43-7.96,5.35-10.33,4.94c-2.9-0.49-3.45-0.5-3.91,0.65c0.98,2.49,3.54,5.26,7.14,6.39
				c2.77,0.87,7.05,1.02,11.7-3.25c4.33-3.97,4.4-8.54,3.71-11.68c-1.38-6.21-6.91-11.99-13.46-14.05
				c-4.74-1.5-12.04-1.78-19.82,5.35c-9.41,8.63-17.65,18.9-25.62,28.83c-1.55,1.93-3.1,3.87-4.67,5.79
				C377.95,370.37,362.8,377.59,352.39,377.59z"/>
		</g>
		<g>
			<path class="st7" d="M491.24,167.4c20.21,0.54,36.19-15.42,35.65-35.65C506.68,131.22,490.7,147.17,491.24,167.4z"/>
			<path class="st7" d="M492.24,171.73c-0.37,0-0.75-0.01-1.12-0.02c-2.29-0.06-4.13-1.9-4.19-4.19
				c-0.29-10.97,3.72-21.19,11.3-28.77c7.58-7.58,17.75-11.57,28.77-11.3c2.29,0.06,4.13,1.9,4.19,4.19
				c0.29,10.97-3.72,21.19-11.3,28.77C512.57,167.73,502.79,171.73,492.24,171.73z M522.41,136.24c-6.9,0.75-13.2,3.73-18.09,8.61
				c-4.88,4.88-7.85,11.18-8.6,18.08c6.9-0.75,13.2-3.73,18.09-8.61C518.68,149.44,521.66,143.14,522.41,136.24z"/>
		</g>
		<g>
			<path class="st7" d="M469.61,131.54c9.21-8.73,9.22-22.91,0-31.65C460.4,108.63,460.39,122.8,469.61,131.54z"/>
			<path class="st7" d="M469.61,135.85c-1.07,0-2.13-0.39-2.96-1.18c-5.32-5.05-8.25-11.78-8.25-18.95c0-7.17,2.93-13.9,8.25-18.95
				c1.67-1.58,4.27-1.58,5.93,0c5.32,5.05,8.25,11.77,8.25,18.95c0,7.17-2.93,13.9-8.25,18.95
				C471.74,135.46,470.67,135.85,469.61,135.85z M469.61,106.64c-1.7,2.73-2.6,5.84-2.6,9.08c0,3.24,0.91,6.35,2.6,9.08
				c1.7-2.73,2.6-5.84,2.6-9.08C472.21,112.48,471.31,109.37,469.61,106.64z"/>
		</g>
		<g>
			<path class="st7" d="M73.84,167.4c-20.21,0.54-36.19-15.42-35.65-35.65C58.39,131.22,74.38,147.17,73.84,167.4z"/>
			<path class="st7" d="M72.83,171.73c-10.54,0-20.33-4-27.65-11.32c-7.58-7.58-11.59-17.79-11.3-28.77
				c0.06-2.29,1.9-4.13,4.19-4.19c11.03-0.26,21.19,3.72,28.77,11.3c7.58,7.58,11.59,17.79,11.3,28.77
				c-0.06,2.29-1.9,4.13-4.19,4.19C73.57,171.72,73.2,171.73,72.83,171.73z M73.84,167.4h0.03H73.84z M42.67,136.24
				c0.75,6.9,3.73,13.2,8.6,18.08c4.88,4.88,11.19,7.86,18.09,8.61c-0.75-6.9-3.72-13.2-8.6-18.08
				C55.87,139.96,49.57,136.99,42.67,136.24z"/>
		</g>
		<g>
			<path class="st7" d="M95.47,131.54c-9.21-8.73-9.22-22.91,0-31.65C104.67,108.63,104.69,122.8,95.47,131.54z"/>
			<path class="st7" d="M95.46,135.85c-1.07,0-2.13-0.39-2.96-1.18c-5.32-5.05-8.25-11.78-8.25-18.95c0-7.17,2.93-13.9,8.25-18.95
				c1.66-1.58,4.26-1.58,5.93,0c5.32,5.05,8.25,11.78,8.25,18.95c0,7.17-2.93,13.9-8.25,18.95
				C97.6,135.46,96.53,135.85,95.46,135.85z M95.46,106.64c-1.7,2.73-2.6,5.84-2.6,9.08c0,3.24,0.91,6.35,2.6,9.08
				c1.7-2.73,2.6-5.84,2.6-9.08C98.07,112.48,97.16,109.37,95.46,106.64z"/>
		</g>
		<g>
			<path class="st7" d="M102.99,167.7c-0.26,0-0.55-0.03-0.83-0.09c-0.29-0.06-0.55-0.14-0.8-0.26c-0.26-0.11-0.52-0.23-0.75-0.4
				c-0.23-0.14-0.46-0.32-0.66-0.52c-0.2-0.2-0.37-0.43-0.52-0.66c-0.17-0.23-0.29-0.49-0.4-0.75c-0.11-0.26-0.2-0.52-0.26-0.8
				c-0.06-0.29-0.08-0.57-0.08-0.83c0-0.29,0.03-0.57,0.08-0.86c0.06-0.26,0.15-0.55,0.26-0.8c0.11-0.26,0.23-0.49,0.4-0.75
				c0.14-0.23,0.32-0.43,0.52-0.63c0.2-0.2,0.43-0.4,0.66-0.55c0.23-0.14,0.49-0.29,0.75-0.4c0.26-0.11,0.52-0.17,0.8-0.23
				c1.41-0.29,2.9,0.17,3.87,1.18c0.8,0.8,1.29,1.92,1.29,3.04c0,1.12-0.49,2.21-1.29,3.04C105.26,167.25,104.14,167.7,102.99,167.7
				z"/>
		</g>
		<g>
			<path class="st7" d="M465.98,167.7c-0.29,0-0.57-0.03-0.86-0.09c-0.26-0.06-0.54-0.14-0.8-0.26c-0.26-0.11-0.49-0.23-0.75-0.4
				c-0.23-0.14-0.46-0.32-0.63-0.52c-0.8-0.8-1.26-1.92-1.26-3.04c0-0.29,0.03-0.57,0.09-0.86c0.06-0.26,0.14-0.55,0.23-0.8
				c0.11-0.26,0.26-0.49,0.4-0.75c0.15-0.23,0.34-0.43,0.55-0.63c0.17-0.2,0.4-0.4,0.63-0.55c0.26-0.14,0.49-0.29,0.75-0.4
				c0.26-0.11,0.55-0.17,0.8-0.23c0.57-0.11,1.15-0.11,1.69,0c0.29,0.06,0.55,0.11,0.8,0.23c0.26,0.11,0.52,0.26,0.75,0.4
				c0.23,0.14,0.46,0.34,0.66,0.55c0.2,0.2,0.37,0.4,0.52,0.63c0.17,0.26,0.29,0.49,0.4,0.75c0.11,0.26,0.2,0.55,0.26,0.8
				c0.06,0.29,0.08,0.57,0.08,0.86c0,1.12-0.46,2.24-1.26,3.04c-0.2,0.2-0.43,0.37-0.66,0.52c-0.23,0.17-0.49,0.29-0.75,0.4
				c-0.26,0.11-0.52,0.2-0.8,0.26C466.53,167.68,466.24,167.7,465.98,167.7z"/>
		</g>
	</g>
</g>
</svg>
