<?xml version="1.0" encoding="utf-8"?>
<!-- Generator: Adobe Illustrator 25.0.1, SVG Export Plug-In . SVG Version: 6.00 Build 0)  -->
<svg version="1.1" id="Layer_1" xmlns="http://www.w3.org/2000/svg" xmlns:xlink="http://www.w3.org/1999/xlink" x="0px" y="0px"
	 viewBox="0 0 1126.1 1124.1" style="enable-background:new 0 0 1126.1 1124.1;" xml:space="preserve">
<style type="text/css">
	.st0{fill:#36276C;stroke:#36276C;stroke-width:4;stroke-linecap:round;stroke-linejoin:round;stroke-miterlimit:10;}
	.st1{fill:#9080BA;}
	.st2{fill:#C1B2D8;}
	.st3{fill:#5C4D9B;}
	.st4{fill:#EC6762;}
	.st5{fill:#E14734;}
	.st6{fill:#BC2A22;}
	.st7{fill:#56BAA4;}
	.st8{fill:#71C09B;}
	.st9{fill:#499AD5;}
	.st10{fill:#69BFEC;}
	.st11{fill:#208CCD;}
	.st12{fill:#ED6F8D;}
	.st13{fill:#F18F8E;}
	.st14{fill:#38276D;}
	.st15{fill:#ED6E2F;}
	.st16{fill:#F6A027;}
	.st17{fill:#E58616;}
	.st18{fill:#FBC36F;}
	.st19{fill:#FDD8A4;}
	.st20{fill:#E6DAD1;}
	.st21{fill:#FCF7F3;}
	.st22{fill:#E8592B;}
	.st23{fill:#594189;}
	.st24{fill:#806A97;}
	.st25{fill:none;stroke:#38276D;stroke-width:4;stroke-linecap:round;stroke-linejoin:round;stroke-miterlimit:10;}
	.st26{opacity:0.25;fill:none;stroke:#36276C;stroke-width:4;stroke-linecap:round;stroke-linejoin:round;stroke-miterlimit:10;}
	
		.st27{opacity:0.15;fill:none;stroke:#3C2779;stroke-width:4;stroke-linecap:round;stroke-linejoin:round;stroke-miterlimit:10;stroke-dasharray:12,20;}
	.st28{fill:#F9F7FC;}
	.st29{fill:#E4DEF0;}
	.st30{fill:#AFA3C6;}
	.st31{fill:#DAD4EB;}
	.st32{fill:#968AC1;}
	.st33{fill:#AFAAD5;}
	.st34{fill:#F3956C;}
	.st35{fill:#FBD7CC;}
	.st36{fill:none;stroke:#38276D;stroke-width:2.5;stroke-linecap:round;stroke-linejoin:round;stroke-miterlimit:10;}
	.st37{opacity:0.25;fill:none;stroke:#36276C;stroke-width:2.5;stroke-linecap:round;stroke-linejoin:round;stroke-miterlimit:10;}
	.st38{clip-path:url(#SVGID_2_);}
	.st39{fill:none;stroke:#D1CBE6;stroke-width:1.5;stroke-linecap:round;stroke-linejoin:round;stroke-miterlimit:10;}
	.st40{fill:#D1CBE6;}
	.st41{fill:none;stroke:#36276C;stroke-width:2;stroke-linecap:round;stroke-linejoin:round;stroke-miterlimit:10;}
	.st42{fill:#E34329;}
	.st43{fill:#F6A22D;}
	.st44{fill:none;stroke:#36276C;stroke-width:4;stroke-linecap:round;stroke-linejoin:round;stroke-miterlimit:10;}
	.st45{fill:none;stroke:#D0CAE5;stroke-width:4;stroke-linecap:round;stroke-linejoin:round;stroke-miterlimit:10;}
	.st46{fill:#8674B4;}
	.st47{fill:#958AC1;}
	.st48{fill:#6E5FA6;}
	.st49{fill:none;stroke:#4C4193;stroke-width:4;stroke-linecap:round;stroke-linejoin:round;stroke-miterlimit:10;}
	.st50{fill:#36276C;}
	.st51{fill:none;stroke:#36276C;stroke-width:5;stroke-linecap:round;stroke-linejoin:round;stroke-miterlimit:10;}
	.st52{fill:#535487;}
	.st53{fill:#FFFFFF;}
</style>
<g>
	<g>
		<g>
			<path class="st15" d="M451.4,213.7v107.7h-28V213.7H451.4z"/>
			<path class="st15" d="M567.2,302.6h-40l-6.4,18.7H491l41-107.7h30.6l41,107.7h-29.9L567.2,302.6z M559.8,281.4l-12.6-35.9
				l-12.6,35.9H559.8z"/>
			<path class="st15" d="M610.9,321.3l18.3-107.7h27.7l21.6,57.4l21.4-57.4h27.7l18.3,107.7h-27.9l-9.3-62l-25.4,62h-11.1l-24.1-62
				l-9.3,62H610.9z"/>
		</g>
		<g>
			<path class="st15" d="M224,762.1h48.3c8.5,0,16.6,1.7,24.1,5.2c7.5,3.4,14,8,19.6,13.7c5.6,5.7,10,12.4,13.2,20
				c3.2,7.6,4.8,15.6,4.8,23.9c0,8.2-1.6,16.1-4.7,23.7c-3.2,7.6-7.5,14.3-13.1,20.1c-5.6,5.8-12.2,10.4-19.6,13.8
				c-7.5,3.4-15.6,5.2-24.2,5.2H224V762.1z M256.6,860h7.5c5.7,0,10.7-0.9,15.1-2.7c4.4-1.8,8.2-4.2,11.2-7.3
				c3.1-3.1,5.4-6.8,7-11.1c1.6-4.3,2.4-9,2.4-14.1c0-5-0.8-9.7-2.5-14c-1.7-4.3-4-8-7.1-11.2c-3.1-3.1-6.8-5.5-11.2-7.3
				c-4.4-1.8-9.4-2.7-15-2.7h-7.5V860z"/>
			<path class="st15" d="M426.2,789.7h-38.8v21H424v27.6h-36.6V860h38.8v27.6h-71.4V762.1h71.4V789.7z"/>
			<path class="st15" d="M472,762.1l30.3,76.4l30.5-76.4h35.5l-52.9,125.5h-26l-52.8-125.5H472z"/>
			<path class="st15" d="M575.5,826.5c0-9.1,1.7-17.5,5-25.4c3.3-7.8,8-14.7,13.9-20.5c5.9-5.8,13-10.4,21.3-13.7
				c8.3-3.3,17.4-4.9,27.3-4.9c9.8,0,18.9,1.6,27.2,4.9c8.3,3.3,15.5,7.9,21.5,13.7c6,5.8,10.7,12.7,14,20.5c3.3,7.8,5,16.3,5,25.4
				s-1.7,17.5-5,25.4c-3.3,7.8-8,14.7-14,20.5c-6,5.8-13.1,10.4-21.5,13.7c-8.3,3.3-17.4,4.9-27.2,4.9c-9.9,0-19-1.6-27.3-4.9
				c-8.3-3.3-15.4-7.9-21.3-13.7c-5.9-5.8-10.6-12.7-13.9-20.5C577.1,844,575.5,835.6,575.5,826.5z M608.7,826.5
				c0,4.9,0.9,9.3,2.8,13.4c1.8,4.1,4.3,7.7,7.5,10.7c3.1,3,6.8,5.4,10.9,7c4.2,1.7,8.6,2.5,13.2,2.5c4.6,0,9-0.8,13.2-2.5
				c4.2-1.7,7.8-4,11-7c3.2-3,5.7-6.6,7.5-10.7c1.8-4.1,2.8-8.6,2.8-13.4s-0.9-9.3-2.8-13.4c-1.8-4.1-4.3-7.7-7.5-10.7
				c-3.2-3-6.9-5.4-11-7c-4.2-1.7-8.6-2.5-13.2-2.5c-4.6,0-9,0.8-13.2,2.5c-4.2,1.7-7.8,4-10.9,7c-3.1,3-5.6,6.6-7.5,10.7
				C609.6,817.2,608.7,821.7,608.7,826.5z"/>
			<path class="st15" d="M762.6,887.6h-31.8V765.5h50.5c13.7,0,24.2,3.6,31.5,10.7c7.3,7.1,10.9,17.2,10.9,30.1s-3.6,23-10.9,30.1
				c-7.3,7.1-17.8,10.7-31.5,10.7h-18.8V887.6z M762.6,821.5h10.5c11.7,0,17.5-5.1,17.5-15.2c0-10.2-5.8-15.2-17.5-15.2h-10.5V821.5
				z"/>
			<path class="st15" d="M907.7,796.7c-3.5-2.8-6.9-4.9-10.4-6.2c-3.5-1.3-6.8-2-10-2c-4.1,0-7.5,1-10,2.9c-2.6,1.9-3.9,4.5-3.9,7.6
				c0,2.2,0.6,3.9,1.9,5.3c1.3,1.4,3,2.6,5.1,3.6c2.1,1,4.5,1.9,7.1,2.7c2.6,0.8,5.3,1.6,7.9,2.4c10.4,3.5,18,8.1,22.8,13.9
				c4.8,5.8,7.2,13.3,7.2,22.6c0,6.3-1.1,11.9-3.2,17c-2.1,5.1-5.2,9.4-9.2,13c-4,3.6-9,6.4-14.9,8.4c-5.9,2-12.6,3-20,3
				c-15.4,0-29.8-4.6-42.9-13.8l13.6-25.6c4.8,4.2,9.4,7.3,14.1,9.4c4.6,2.1,9.2,3.1,13.8,3.1c5.2,0,9-1.2,11.6-3.6
				c2.5-2.4,3.8-5.1,3.8-8.1c0-1.8-0.3-3.4-1-4.8c-0.6-1.3-1.7-2.6-3.2-3.7c-1.5-1.1-3.5-2.2-5.9-3.2c-2.4-1-5.4-2.1-8.8-3.2
				c-4.1-1.3-8.1-2.7-12.1-4.3c-3.9-1.6-7.5-3.6-10.5-6.2c-3.1-2.6-5.6-5.9-7.5-9.8c-1.9-3.9-2.8-8.9-2.8-15c0-6,1-11.5,3-16.4
				c2-4.9,4.8-9.1,8.4-12.6c3.6-3.5,8-6.2,13.3-8.2c5.2-1.9,11.1-2.9,17.6-2.9c6,0,12.4,0.8,19,2.5c6.6,1.7,12.9,4.1,19,7.4
				L907.7,796.7z"/>
		</g>
	</g>
	<g>
		<path class="st46" d="M227.1,553.2c0,3.1,0.1,6.2,0.3,9.3l40.5-35.3c1.2-1,2.9-1,4.1,0l38.2,33.3c-0.2-2.4-0.3-4.9-0.3-7.4
			c0-46.2,36.6-83.9,82.4-85.7l36.2-41.4l-36-41.3C300.9,386.5,227.1,461.4,227.1,553.2z"/>
		<path class="st46" d="M579.1,490.1l59.1,59.5l20.6-22l33.5-34.3c15.7-16.1,36.4-25.2,58.7-25.9l-34.4-39.4c-1-1.2-1-2.9,0-4.1
			l34.3-39.3c-44.6,0.7-86.2,18.6-117.6,50.7l-28.6,29.2L579.1,490.1z"/>
		<path class="st46" d="M880.2,533.7l-42.4,37c0,0,0,0,0,0c-8.1,38.6-42.2,67.8-83.1,68.2l34.3,39.3c1,1.2,1,2.9,0,4.1l-34.3,39.3
			c86.9-0.4,158.5-67.1,166.8-152L880.2,533.7z"/>
		<path class="st46" d="M434.8,428.1l-34.4,39.4c21.5,1.2,41.4,10.2,56.6,25.8l72.6,73.1l54.5-3.7l3.7-54.9L516,435.5
			c-30.9-31.5-71.7-49.4-115.5-50.7l34.2,39.2C435.8,425.2,435.8,426.9,434.8,428.1z"/>
		<path class="st46" d="M526.7,572.4c-0.6-0.3-1.1-0.8-1.4-1.4L512,557.6l-21.6,22.5l-36.1,35.5c-13.5,12.7-30.5,20.6-48.7,22.7
			l-36.6,42l35.9,41.1c40.6-2.2,78.8-18.9,108.2-47.6l57.2-57.6L526.7,572.4z"/>
		<path class="st46" d="M922.3,553.2c0-91.1-72.7-165.5-163.1-168.4l-36,41.3l36.3,41.6c44.7,2.9,80.1,40.2,80.1,85.6
			c0,2.7-0.1,5.4-0.4,8l39-34c1.2-1,2.9-1,4.1,0L922,562C922.2,559.1,922.3,556.1,922.3,553.2z"/>
		<path class="st46" d="M395.6,721.7c0.4,0,0.8,0,1.2,0l-34.3-39.3c-1-1.2-1-2.9,0-4.1l34.3-39.3c-0.4,0-0.8,0-1.3,0
			c-41.6,0-76.3-29.7-84.1-69l-41.6-36.3l-41.9,36.6C236.5,655.2,308.4,721.7,395.6,721.7z"/>
		<path class="st46" d="M576.9,614.1C576.9,614.1,576.9,614.1,576.9,614.1l59.7,60.2c29.8,28.9,68.6,45.6,109.9,47.3l35.9-41.2
			L746,638.6c-19.2-1.7-37.2-9.8-51.3-23.2l-101-101.7l-3.6,52.2c-0.1,1.6-1.3,2.8-2.9,2.9l-51.9,3.5L576.9,614.1
			C576.9,614.1,576.9,614.1,576.9,614.1z"/>
	</g>
	<g>
		<path class="st15" d="M803.5,538.4c-1.9-30.4-35.7-36.8-55.7-15.1c-20-21.7-53.9-15.3-55.7,15.1c-2.2,35.7,55.7,63.8,55.7,63.8
			S805.7,574.1,803.5,538.4z M787.4,539.7c1,1,1,2.6,0,3.5c-0.5,0.5-1.1,0.7-1.8,0.7c-0.6,0-1.3-0.2-1.8-0.7l-2.1-2.1l-3.1,3.1
			l2.1,2.1c1,1,1,2.6,0,3.5c-0.5,0.5-1.1,0.7-1.8,0.7s-1.3-0.2-1.8-0.7l-2.1-2.1l-2.1,2.1c-0.5,0.5-1.1,0.7-1.8,0.7
			s-1.3-0.2-1.8-0.7c-1-1-1-2.6,0-3.5l2.1-2.1l-3.1-3.1l-2.1,2.1c-0.5,0.5-1.1,0.7-1.8,0.7c-0.6,0-1.3-0.2-1.8-0.7c-1-1-1-2.6,0-3.5
			l2.1-2.1l-2.1-2.1c-1-1-1-2.6,0-3.5s2.6-1,3.5,0l2.1,2.1l3.1-3.1l-2.1-2.1c-1-1-1-2.6,0-3.5s2.6-1,3.5,0l2.1,2.1l2.1-2.1
			c1-1,2.6-1,3.5,0c1,1,1,2.6,0,3.5l-2.1,2.1l3.1,3.1l2.1-2.1c1-1,2.6-1,3.5,0s1,2.6,0,3.5l-2.1,2.1L787.4,539.7z"/>
		
			<rect x="772.9" y="535.4" transform="matrix(0.7071 -0.7071 0.7071 0.7071 -153.1307 705.462)" class="st15" width="4.4" height="4.4"/>
	</g>
	<g>
		<path class="st15" d="M449.1,563.3l-16.8-51.4c-0.6-1.7-3.1-1.7-3.7,0L417.5,546h0h-37.1l0,0l-11.2-34.2c-0.6-1.7-3.1-1.7-3.7,0
			l-16.8,51.4c-0.5,1.6,0,3.3,1.4,4.3l48.1,34.7c0.4,0.3,1,0.3,1.5,0l48.1-34.7C449.1,566.6,449.6,564.8,449.1,563.3z M380.3,546
			L380.3,546L380.3,546L380.3,546z"/>
	</g>
	<g>
		<g>
			<path class="st52" d="M102.6,375.9c-2.1,0-4.2-0.2-6.3-0.5c-0.9-0.1-1.6-0.8-2-1.6l-2.4-6.5c-0.3-0.9-1-1.6-1.9-2
				c-0.9-0.4-1.9-0.4-2.8,0l-6.2,2.9c-0.8,0.4-1.8,0.3-2.5-0.2c-3.4-2.5-6.5-5.5-9-9c-0.5-0.7-0.6-1.7-0.2-2.5l2.9-6.2
				c0.4-0.9,0.4-1.9,0.1-2.8s-1.1-1.6-2-1.9l-6.5-2.4c-0.9-0.3-1.5-1.1-1.6-2c-0.7-4.2-0.7-8.5,0-12.7c0.1-0.9,0.8-1.6,1.6-2
				l6.5-2.4c0.9-0.3,1.6-1,2-2c0.5-1.3,2-1.9,3.2-1.4c1.3,0.5,1.9,2,1.4,3.2c-0.9,2.2-2.7,4-4.9,4.8l-5.1,1.8
				c-0.3,2.7-0.3,5.5,0,8.2l5.1,1.8c2.2,0.8,4,2.5,4.9,4.7c0.9,2.2,0.8,4.6-0.2,6.8l-2.3,4.9c1.7,2.2,3.7,4.1,5.8,5.8l4.9-2.3
				c2.1-1,4.6-1,6.8-0.1c2.2,0.9,3.9,2.7,4.7,4.9l1.8,5.1c2.7,0.3,5.5,0.3,8.3,0l1.8-5.1c0.8-2.2,2.5-4,4.7-4.9
				c2.2-0.9,4.7-0.9,6.8,0.1l4.9,2.3c2.2-1.7,4.1-3.7,5.8-5.8l-2.3-4.9c-1-2.1-1-4.6-0.1-6.8c0.9-2.2,2.7-3.9,4.9-4.7l5.1-1.8
				c0.3-2.7,0.3-5.5,0-8.2l-5.1-1.8c-2.2-0.8-4-2.5-4.9-4.7s-0.9-4.7,0.1-6.8l2.3-4.9c-1.7-2.2-3.7-4.1-5.8-5.8l-4.9,2.3
				c-2.1,1-4.6,1-6.8,0.1c-2.2-0.9-3.9-2.7-4.7-4.9l-1.8-5.1c-2.7-0.3-5.5-0.3-8.3,0l-1.8,5.1c-0.8,2.2-2.5,4-4.7,4.9
				c-2.2,0.9-4.7,0.9-6.8-0.1l-4.9-2.3c-2.5,2-4.8,4.4-6.7,7c-0.8,1.1-2.4,1.4-3.5,0.5c-1.1-0.8-1.4-2.4-0.5-3.5
				c2.5-3.4,5.5-6.5,9-9c0.7-0.5,1.7-0.6,2.5-0.2l6.2,2.9c0.9,0.4,1.9,0.4,2.8,0c0.9-0.4,1.6-1.1,1.9-2l2.4-6.5
				c0.3-0.9,1.1-1.5,2-1.6c4.2-0.7,8.5-0.7,12.7,0c0.9,0.1,1.6,0.8,2,1.6l2.4,6.5c0.3,0.9,1,1.6,1.9,2c0.9,0.4,1.9,0.4,2.8,0
				l6.2-2.9c0.8-0.4,1.8-0.3,2.5,0.2c3.4,2.5,6.5,5.5,9,9c0.5,0.7,0.6,1.7,0.2,2.5l-2.9,6.2c-0.4,0.9-0.4,1.9,0,2.8
				c0.4,0.9,1.1,1.6,2,1.9l6.5,2.4c0.9,0.3,1.5,1.1,1.6,2c0.7,4.2,0.7,8.5,0,12.7c-0.1,0.9-0.8,1.6-1.6,2l-6.5,2.4
				c-0.9,0.3-1.6,1-2,1.9c-0.4,0.9-0.4,1.9,0,2.8l2.9,6.2c0.4,0.8,0.3,1.8-0.2,2.5c-2.5,3.4-5.5,6.5-9,9c-0.7,0.5-1.7,0.6-2.5,0.2
				l-6.2-2.9c-0.9-0.4-1.9-0.4-2.8,0c-0.9,0.4-1.6,1.1-1.9,2l-2.4,6.5c-0.3,0.9-1.1,1.5-2,1.6C106.8,375.7,104.7,375.9,102.6,375.9z
				 M102.6,349.1c-7.8,0-14.2-6.4-14.2-14.2c0-7.8,6.4-14.2,14.2-14.2s14.2,6.4,14.2,14.2C116.7,342.8,110.4,349.1,102.6,349.1z
				 M102.6,325.8c-5.1,0-9.2,4.1-9.2,9.2s4.1,9.2,9.2,9.2c5.1,0,9.2-4.1,9.2-9.2S107.6,325.8,102.6,325.8z"/>
		</g>
		<g>
			<path class="st52" d="M946,764.6c-1.7,0-3.4-0.1-5.1-0.4c-0.9-0.1-1.6-0.8-2-1.6l-1.9-5.1c-0.2-0.6-0.7-1-1.2-1.3
				c-0.6-0.2-1.2-0.2-1.8,0l-5,2.3c-0.8,0.4-1.8,0.3-2.5-0.2c-2.8-2-5.2-4.5-7.2-7.2c-0.5-0.7-0.6-1.7-0.2-2.5l2.3-5
				c0.3-0.6,0.3-1.2,0-1.8c-0.2-0.6-0.7-1-1.3-1.2l-5.1-1.9c-0.9-0.3-1.5-1.1-1.6-2c-0.5-3.4-0.5-6.8,0-10.2c0.1-0.9,0.8-1.6,1.6-2
				l5.1-1.9c0.6-0.2,1-0.7,1.3-1.3c0.5-1.3,2-1.9,3.2-1.4c1.3,0.5,1.9,2,1.4,3.2c-0.8,1.9-2.3,3.4-4.2,4.1l-3.7,1.4
				c-0.2,1.9-0.2,3.9,0,5.8l3.7,1.4c1.9,0.7,3.4,2.2,4.2,4c0.8,1.9,0.7,4-0.1,5.8l-1.7,3.6c1.2,1.5,2.6,2.9,4.1,4.1l3.6-1.7
				c1.8-0.8,3.9-0.9,5.8-0.1c1.9,0.8,3.3,2.3,4,4.2l1.4,3.7c1.9,0.2,3.9,0.2,5.8,0l1.4-3.7c0.7-1.9,2.1-3.4,4-4.2
				c1.9-0.8,4-0.7,5.8,0.1l3.6,1.7c1.5-1.2,2.9-2.6,4.1-4.1l-1.7-3.6c-0.8-1.8-0.9-3.9-0.1-5.8c0.8-1.9,2.3-3.3,4.2-4l3.7-1.4
				c0.2-1.9,0.2-3.9,0-5.8l-3.7-1.4c-1.9-0.7-3.4-2.1-4.2-4c-0.8-1.9-0.7-4,0.1-5.8l1.7-3.6c-1.2-1.5-2.6-2.9-4.1-4.1l-3.6,1.7
				c-1.8,0.8-3.9,0.9-5.8,0.1c-1.9-0.8-3.3-2.3-4-4.2l-1.4-3.7c-1.9-0.2-3.9-0.2-5.8,0l-1.4,3.7c-0.7,1.9-2.1,3.4-4,4.2
				c-1.9,0.8-4,0.7-5.8-0.1l-3.6-1.7c-1.9,1.5-3.6,3.3-5,5.3c-0.8,1.1-2.4,1.4-3.5,0.5c-1.1-0.8-1.4-2.4-0.5-3.5
				c2-2.8,4.5-5.2,7.2-7.2c0.7-0.5,1.7-0.6,2.5-0.2l5,2.3c0.6,0.3,1.2,0.3,1.8,0c0.6-0.2,1-0.7,1.2-1.3l1.9-5.1
				c0.3-0.9,1.1-1.5,2-1.6c3.4-0.5,6.8-0.5,10.2,0c0.9,0.1,1.6,0.8,2,1.6l1.9,5.1c0.2,0.6,0.7,1,1.2,1.3c0.6,0.2,1.2,0.2,1.8,0
				l5-2.3c0.8-0.4,1.8-0.3,2.5,0.2c2.8,2,5.2,4.5,7.2,7.2c0.5,0.7,0.6,1.7,0.2,2.5l-2.3,5c-0.3,0.6-0.3,1.2,0,1.8
				c0.2,0.6,0.7,1,1.3,1.2l5.1,1.9c0.9,0.3,1.5,1.1,1.6,2c0.5,3.4,0.5,6.8,0,10.2c-0.1,0.9-0.8,1.6-1.6,2l-5.1,1.9
				c-0.6,0.2-1,0.7-1.3,1.2c-0.2,0.6-0.2,1.2,0,1.8l2.3,5c0.4,0.8,0.3,1.8-0.2,2.5c-2,2.8-4.5,5.2-7.2,7.2c-0.7,0.5-1.7,0.6-2.5,0.2
				l-5-2.3c-0.6-0.3-1.2-0.3-1.8,0c-0.6,0.2-1,0.7-1.2,1.3l-1.9,5.1c-0.3,0.9-1.1,1.5-2,1.6C949.5,764.4,947.7,764.6,946,764.6z
				 M946,743.3c-6.5,0-11.8-5.3-11.8-11.8s5.3-11.8,11.8-11.8c6.5,0,11.8,5.3,11.8,11.8S952.5,743.3,946,743.3z M946,724.8
				c-3.7,0-6.8,3-6.8,6.8s3,6.8,6.8,6.8c3.7,0,6.8-3,6.8-6.8S949.8,724.8,946,724.8z"/>
		</g>
		<g>
			<path class="st52" d="M607.8,1052.5c-1.5,0-3-0.1-4.5-0.4c-0.9-0.1-1.6-0.8-2-1.6l-1.6-4.5c-0.2-0.6-0.7-0.8-0.9-1
				c-0.3-0.1-0.8-0.2-1.3,0l-4.4,2c-0.8,0.4-1.8,0.3-2.5-0.2c-2.5-1.8-4.6-4-6.4-6.4c-0.5-0.7-0.6-1.7-0.2-2.5l2-4.4
				c0.3-0.6,0.1-1.1,0-1.3c-0.1-0.3-0.4-0.7-1-0.9l-4.5-1.6c-0.9-0.3-1.5-1.1-1.6-2c-0.5-3-0.5-6.1,0-9.1c0.1-0.9,0.8-1.6,1.6-2
				l4.5-1.6c0.6-0.2,0.9-0.7,1-0.9c0.5-1.3,2-1.9,3.2-1.4c1.3,0.5,1.9,2,1.4,3.2c-0.7,1.7-2.1,3.1-3.9,3.8l-3.1,1.1
				c-0.1,1.6-0.1,3.1,0,4.7l3.1,1.1c1.7,0.6,3.2,2,3.9,3.7c0.7,1.7,0.7,3.7-0.1,5.4l-1.4,3c1,1.2,2.1,2.3,3.3,3.3l3-1.4
				c1.7-0.8,3.6-0.8,5.3-0.1c1.7,0.7,3.1,2.1,3.7,3.9l1.1,3.1c1.6,0.1,3.1,0.1,4.7,0l1.1-3.1c0.6-1.7,2-3.1,3.7-3.9
				c1.7-0.7,3.7-0.7,5.3,0.1l3,1.4c1.2-1,2.3-2.1,3.3-3.3l-1.4-3c-0.8-1.7-0.8-3.6-0.1-5.3c0.7-1.7,2.1-3.1,3.9-3.7l3.1-1.1
				c0.1-1.6,0.1-3.1,0-4.7l-3.1-1.1c-1.7-0.6-3.1-2-3.9-3.7c-0.7-1.7-0.7-3.7,0.1-5.3l1.4-3c-1-1.2-2.1-2.3-3.3-3.3l-3,1.4
				c-1.7,0.8-3.6,0.8-5.3,0.1c-1.7-0.7-3.1-2.1-3.7-3.9l-1.1-3.1c-1.6-0.1-3.1-0.1-4.7,0l-1.1,3.1c-0.6,1.7-2,3.1-3.7,3.9
				c-1.7,0.7-3.7,0.7-5.3-0.1l-3-1.4c-1.6,1.3-3,2.8-4.2,4.5c-0.8,1.1-2.4,1.4-3.5,0.5c-1.1-0.8-1.4-2.4-0.5-3.5
				c1.8-2.5,4-4.6,6.4-6.4c0.7-0.5,1.7-0.6,2.5-0.2l4.4,2c0.6,0.3,1.1,0.1,1.3,0c0.3-0.1,0.7-0.4,0.9-1l1.6-4.5
				c0.3-0.9,1.1-1.5,2-1.6c3-0.5,6.1-0.5,9.1,0c0.9,0.1,1.6,0.8,2,1.6l1.6,4.5c0.2,0.6,0.7,0.8,0.9,1c0.3,0.1,0.8,0.2,1.3,0l4.4-2
				c0.8-0.4,1.8-0.3,2.5,0.2c2.5,1.8,4.6,4,6.4,6.4c0.5,0.7,0.6,1.7,0.2,2.5l-2,4.4c-0.3,0.6-0.1,1.1,0,1.3c0.1,0.3,0.4,0.7,1,0.9
				l4.5,1.6c0.9,0.3,1.5,1.1,1.6,2c0.5,3,0.5,6.1,0,9.1c-0.1,0.9-0.8,1.6-1.6,2l-4.5,1.6c-0.6,0.2-0.8,0.7-1,0.9
				c-0.1,0.3-0.2,0.8,0,1.3l2,4.4c0.4,0.8,0.3,1.8-0.2,2.5c-1.8,2.5-4,4.6-6.4,6.4c-0.7,0.5-1.7,0.6-2.5,0.2l-4.4-2
				c-0.6-0.3-1.1-0.1-1.3,0c-0.3,0.1-0.7,0.4-0.9,1l-1.6,4.5c-0.3,0.9-1.1,1.5-2,1.6C610.9,1052.4,609.3,1052.5,607.8,1052.5z
				 M607.8,1033.8c-5.9,0-10.7-4.8-10.7-10.7c0-5.9,4.8-10.7,10.7-10.7s10.7,4.8,10.7,10.7C618.5,1029,613.7,1033.8,607.8,1033.8z
				 M607.8,1017.5c-3.1,0-5.7,2.5-5.7,5.7c0,3.1,2.5,5.7,5.7,5.7s5.7-2.5,5.7-5.7C613.5,1020,610.9,1017.5,607.8,1017.5z"/>
		</g>
		<g>
			<path class="st52" d="M249.6,986.9c-1.4,0-2.5-1.1-2.5-2.5s1.1-2.5,2.5-2.5c7.1,0,12.9-5.8,12.9-12.9c0-7.1-5.8-12.9-12.9-12.9
				c-1.1,0-2.2,0.1-3.3,0.4c-1.3,0.3-2.6-0.4-3-1.7c-1.9-6.3-7.8-10.7-14.4-10.7c-7.9,0-14.5,6.2-15,14.1c0,0.7-0.4,1.3-0.9,1.8
				c-0.5,0.4-1.2,0.6-1.9,0.5c-0.5-0.1-1-0.1-1.4-0.1c-6,0-10.8,4.8-10.8,10.8c0,6,4.8,10.8,10.8,10.8h27.7c1.4,0,2.5,1.1,2.5,2.5
				s-1.1,2.5-2.5,2.5h-27.7c-8.7,0-15.8-7.1-15.8-15.8c0-8.6,6.9-15.6,15.4-15.8c1.8-9.3,10-16.3,19.7-16.3c8,0,15.3,4.9,18.4,12.2
				c0.8-0.1,1.5-0.1,2.3-0.1c9.9,0,17.9,8,17.9,17.9S259.4,986.9,249.6,986.9z"/>
		</g>
		<g>
			<path class="st52" d="M649.3,189.4c-1.4,0-2.5-1.1-2.5-2.5s1.1-2.5,2.5-2.5c11.1,0,20.1-9,20.1-20.1s-9-20.1-20.1-20.1
				c-1.7,0-3.5,0.2-5.1,0.7c-1.3,0.3-2.6-0.4-3-1.7c-2.9-9.7-12.1-16.5-22.2-16.5c-12.2,0-22.4,9.5-23.2,21.7c0,0.7-0.4,1.3-0.9,1.8
				c-0.5,0.4-1.2,0.6-1.9,0.5c-0.7-0.1-1.5-0.2-2.3-0.2c-9.4,0-17,7.6-17,17c0,9.4,7.6,17,17,17h40.5c1.4,0,2.5,1.1,2.5,2.5
				s-1.1,2.5-2.5,2.5h-40.5c-12.1,0-22-9.8-22-22c0-12.1,9.8-22,22-22c0.1,0,0.3,0,0.4,0c2.1-13.5,13.9-23.8,27.9-23.8
				c11.6,0,22.1,7.3,26.3,17.9c1.4-0.2,2.7-0.3,4.1-0.3c13.8,0,25.1,11.2,25.1,25.1C674.4,178.1,663.1,189.4,649.3,189.4z"/>
		</g>
		<g>
			<g>
				<path class="st52" d="M1016.3,831.1c-18.2,0-33-14.8-33-33c0-15.6,11.1-29.2,26.3-32.3c2.2-0.4,4.4-0.7,6.6-0.7
					c18.2,0,33,14.8,33,33S1034.5,831.1,1016.3,831.1z M1016.3,770.1c-1.9,0-3.8,0.2-5.6,0.6c-13,2.7-22.4,14.2-22.4,27.4
					c0,15.4,12.6,28,28,28c15.4,0,28-12.6,28-28C1044.3,782.7,1031.7,770.1,1016.3,770.1z"/>
			</g>
			<g>
				<path class="st52" d="M1047.2,838.9c-0.3,0-0.6,0-0.9,0c-2.9-0.3-5.6-1.8-7.3-4.2l-2.5-3.6c-0.8-1.1-0.5-2.7,0.6-3.5
					c1.1-0.8,2.7-0.5,3.5,0.6l2.5,3.6c0.8,1.2,2.2,2,3.6,2.1c1.5,0.1,2.9-0.4,3.9-1.4c1-1,1.5-2.5,1.4-3.9c-0.1-1.5-0.9-2.8-2.1-3.6
					l-9.3-6.4c-1.1-0.8-1.4-2.3-0.6-3.5c0.8-1.1,2.3-1.4,3.5-0.6l9.3,6.4c2.4,1.7,4,4.3,4.3,7.2c0.3,2.9-0.8,5.8-2.8,7.9
					C1052.4,837.9,1049.9,838.9,1047.2,838.9z"/>
			</g>
			<g>
				<path class="st52" d="M1011.7,810.5c-0.6,0-1.2-0.2-1.7-0.7l-9.9-9.3c-1-0.9-1.1-2.5-0.1-3.5l9.3-9.9c0.9-1,2.5-1.1,3.5-0.1
					c1,0.9,1.1,2.5,0.1,3.5l-7.5,8.1l8.1,7.5c1,0.9,1.1,2.5,0.1,3.5C1013.1,810.2,1012.4,810.5,1011.7,810.5z"/>
			</g>
			<g>
				<path class="st52" d="M1028.2,810c-0.6,0-1.2-0.2-1.7-0.7l-9.9-9.3c-0.5-0.5-0.8-1.1-0.8-1.7c0-0.7,0.2-1.3,0.7-1.8l9.3-9.9
					c0.9-1,2.5-1.1,3.5-0.1c1,0.9,1.1,2.5,0.1,3.5l-7.5,8.1l8.1,7.5c1,0.9,1.1,2.5,0.1,3.5C1029.5,809.7,1028.8,810,1028.2,810z"/>
			</g>
		</g>
		<g>
			<g>
				<path class="st52" d="M138.7,898.8c-1.4,0-2.5-1.1-2.5-2.5v-3c0-3.7-1.8-7-5.2-9.2l-18-12c-4.6-3.1-7.4-8.2-7.4-13.8v-8.5
					c0-1.4,1.1-2.5,2.5-2.5s2.5,1.1,2.5,2.5v8.5c0,3.9,1.9,7.5,5.2,9.7l18,12c4.8,3.2,7.4,7.9,7.4,13.4v3
					C141.2,897.7,140.1,898.8,138.7,898.8z"/>
			</g>
			<g>
				<path class="st52" d="M108.1,851.7c-5,0-9.2-4.1-9.2-9.2c0-5.1,4.1-9.2,9.2-9.2s9.2,4.1,9.2,9.2
					C117.3,847.6,113.2,851.7,108.1,851.7z M108.1,838.4c-2.3,0-4.2,1.9-4.2,4.2s1.9,4.2,4.2,4.2s4.2-1.9,4.2-4.2
					S110.4,838.4,108.1,838.4z"/>
			</g>
			<g>
				<path class="st52" d="M138.7,901.5c-1.4,0-2.5-1.1-2.5-2.5v-49.8c0-1.4,1.1-2.5,2.5-2.5s2.5,1.1,2.5,2.5v49.8
					C141.2,900.4,140.1,901.5,138.7,901.5z"/>
			</g>
			<g>
				<path class="st52" d="M138.7,851.7c-5,0-9.2-4.1-9.2-9.2c0-5.1,4.1-9.2,9.2-9.2s9.2,4.1,9.2,9.2
					C147.9,847.6,143.8,851.7,138.7,851.7z M138.7,838.4c-2.3,0-4.2,1.9-4.2,4.2s1.9,4.2,4.2,4.2c2.3,0,4.2-1.9,4.2-4.2
					S141,838.4,138.7,838.4z"/>
			</g>
			<g>
				<path class="st52" d="M138.7,914.9c-5,0-9.2-4.1-9.2-9.2c0-5.1,4.1-9.2,9.2-9.2s9.2,4.1,9.2,9.2
					C147.9,910.8,143.8,914.9,138.7,914.9z M138.7,901.5c-2.3,0-4.2,1.9-4.2,4.2s1.9,4.2,4.2,4.2c2.3,0,4.2-1.9,4.2-4.2
					S141,901.5,138.7,901.5z"/>
			</g>
		</g>
		<g>
			<g>
				<path class="st52" d="M1072.2,750.7c-1.4,0-2.5-1.1-2.5-2.5v-3c0-5.4,2.6-10.2,7.4-13.4l18-12c3.2-2.2,5.2-5.8,5.2-9.7v-8.5
					c0-1.4,1.1-2.5,2.5-2.5c1.4,0,2.5,1.1,2.5,2.5v8.5c0,5.6-2.8,10.7-7.4,13.8l-18,12c-3.3,2.2-5.2,5.5-5.2,9.2v3
					C1074.7,749.6,1073.6,750.7,1072.2,750.7z"/>
			</g>
			<g>
				<path class="st52" d="M1102.8,703.7c-5,0-9.2-4.1-9.2-9.2c0-5.1,4.1-9.2,9.2-9.2s9.2,4.1,9.2,9.2
					C1111.9,699.6,1107.8,703.7,1102.8,703.7z M1102.8,690.3c-2.3,0-4.2,1.9-4.2,4.2s1.9,4.2,4.2,4.2s4.2-1.9,4.2-4.2
					S1105.1,690.3,1102.8,690.3z"/>
			</g>
			<g>
				<path class="st52" d="M1072.2,771.5c-1.4,0-2.5-1.1-2.5-2.5v-67.8c0-1.4,1.1-2.5,2.5-2.5c1.4,0,2.5,1.1,2.5,2.5V769
					C1074.7,770.3,1073.6,771.5,1072.2,771.5z"/>
			</g>
			<g>
				<path class="st52" d="M1072.2,703.7c-5,0-9.2-4.1-9.2-9.2c0-5.1,4.1-9.2,9.2-9.2s9.2,4.1,9.2,9.2
					C1081.4,699.6,1077.3,703.7,1072.2,703.7z M1072.2,690.3c-2.3,0-4.2,1.9-4.2,4.2s1.9,4.2,4.2,4.2c2.3,0,4.2-1.9,4.2-4.2
					S1074.5,690.3,1072.2,690.3z"/>
			</g>
			<g>
				<path class="st52" d="M1072.2,784.8c-5,0-9.2-4.1-9.2-9.2c0-5.1,4.1-9.2,9.2-9.2s9.2,4.1,9.2,9.2
					C1081.4,780.7,1077.3,784.8,1072.2,784.8z M1072.2,771.5c-2.3,0-4.2,1.9-4.2,4.2s1.9,4.2,4.2,4.2c2.3,0,4.2-1.9,4.2-4.2
					S1074.5,771.5,1072.2,771.5z"/>
			</g>
		</g>
		<g>
			<g>
				<path class="st52" d="M284.3,118h-3c-1.4,0-2.5-1.1-2.5-2.5s1.1-2.5,2.5-2.5h3c3.7,0,7-1.8,9.2-5.2l12-18
					c3.1-4.6,8.2-7.4,13.8-7.4h8.5c1.4,0,2.5,1.1,2.5,2.5s-1.1,2.5-2.5,2.5h-8.5c-3.9,0-7.5,1.9-9.7,5.2l-12,18
					C294.5,115.4,289.7,118,284.3,118z"/>
			</g>
			<g>
				<path class="st52" d="M335,94.1c-5,0-9.2-4.1-9.2-9.2s4.1-9.2,9.2-9.2c5,0,9.2,4.1,9.2,9.2S340.1,94.1,335,94.1z M335,80.8
					c-2.3,0-4.2,1.9-4.2,4.2s1.9,4.2,4.2,4.2c2.3,0,4.2-1.9,4.2-4.2S337.3,80.8,335,80.8z"/>
			</g>
			<g>
				<path class="st52" d="M328.3,118h-79.8c-1.4,0-2.5-1.1-2.5-2.5s1.1-2.5,2.5-2.5h79.8c1.4,0,2.5,1.1,2.5,2.5S329.7,118,328.3,118
					z"/>
			</g>
			<g>
				<path class="st52" d="M335,124.7c-5,0-9.2-4.1-9.2-9.2c0-5.1,4.1-9.2,9.2-9.2c5,0,9.2,4.1,9.2,9.2
					C344.2,120.6,340.1,124.7,335,124.7z M335,111.4c-2.3,0-4.2,1.9-4.2,4.2c0,2.3,1.9,4.2,4.2,4.2c2.3,0,4.2-1.9,4.2-4.2
					C339.2,113.2,337.3,111.4,335,111.4z"/>
			</g>
			<g>
				<path class="st52" d="M241.9,124.7c-5,0-9.2-4.1-9.2-9.2c0-5.1,4.1-9.2,9.2-9.2c5,0,9.2,4.1,9.2,9.2
					C251.1,120.6,247,124.7,241.9,124.7z M241.9,111.4c-2.3,0-4.2,1.9-4.2,4.2c0,2.3,1.9,4.2,4.2,4.2c2.3,0,4.2-1.9,4.2-4.2
					C246.1,113.2,244.2,111.4,241.9,111.4z"/>
			</g>
		</g>
		<g>
			<g>
				<path class="st52" d="M846.2,357.1h-3c-1.4,0-2.5-1.1-2.5-2.5s1.1-2.5,2.5-2.5h3c3.7,0,7-1.8,9.2-5.2l12-18
					c3.1-4.6,8.2-7.4,13.8-7.4h8.5c1.4,0,2.5,1.1,2.5,2.5s-1.1,2.5-2.5,2.5h-8.5c-3.9,0-7.5,1.9-9.7,5.2l-12,18
					C856.4,354.5,851.7,357.1,846.2,357.1z"/>
			</g>
			<g>
				<path class="st52" d="M897,333.2c-5,0-9.2-4.1-9.2-9.2s4.1-9.2,9.2-9.2c5,0,9.2,4.1,9.2,9.2S902,333.2,897,333.2z M897,319.9
					c-2.3,0-4.2,1.9-4.2,4.2c0,2.3,1.9,4.2,4.2,4.2c2.3,0,4.2-1.9,4.2-4.2C901.1,321.8,899.3,319.9,897,319.9z"/>
			</g>
			<g>
				<path class="st52" d="M890.3,357.1h-79.8c-1.4,0-2.5-1.1-2.5-2.5s1.1-2.5,2.5-2.5h79.8c1.4,0,2.5,1.1,2.5,2.5
					S891.7,357.1,890.3,357.1z"/>
			</g>
			<g>
				<path class="st52" d="M897,363.8c-5,0-9.2-4.1-9.2-9.2s4.1-9.2,9.2-9.2c5,0,9.2,4.1,9.2,9.2S902,363.8,897,363.8z M897,350.5
					c-2.3,0-4.2,1.9-4.2,4.2s1.9,4.2,4.2,4.2c2.3,0,4.2-1.9,4.2-4.2S899.3,350.5,897,350.5z"/>
			</g>
			<g>
				<path class="st52" d="M803.9,363.8c-5,0-9.2-4.1-9.2-9.2s4.1-9.2,9.2-9.2c5,0,9.2,4.1,9.2,9.2S808.9,363.8,803.9,363.8z
					 M803.9,350.5c-2.3,0-4.2,1.9-4.2,4.2s1.9,4.2,4.2,4.2c2.3,0,4.2-1.9,4.2-4.2S806.2,350.5,803.9,350.5z"/>
			</g>
		</g>
		<g>
			<g>
				<path class="st52" d="M1047.5,396.8h-29.6c-1.4,0-2.5-1.1-2.5-2.5s1.1-2.5,2.5-2.5h29.6c1.4,0,2.5,1.1,2.5,2.5
					S1048.9,396.8,1047.5,396.8z"/>
			</g>
			<g>
				<path class="st52" d="M1046.7,408.3h-28.8c-1.4,0-2.5-1.1-2.5-2.5s1.1-2.5,2.5-2.5h28.8c1.4,0,2.5,1.1,2.5,2.5
					S1048.1,408.3,1046.7,408.3z"/>
			</g>
			<g>
				<path class="st52" d="M1032.3,419.8c-0.1,0-0.3,0-0.4,0c-9.7-0.2-17.4-8.2-17.1-17.9l0.2-8.4c0-1.8-0.8-3.5-2.3-4.6
					c-9.4-7-14.5-18.2-13.7-30c1.3-18.2,17.1-32.6,35.4-32c18.8,0.6,33.7,16.4,33.3,35.1c-0.2,9-3.8,17.5-10.3,23.8
					c-1,1-2.6,0.9-3.5,0c-1-1-1-2.6,0-3.5c5.5-5.4,8.6-12.6,8.8-20.3c0.3-16-12.4-29.5-28.4-30c-15.6-0.5-29.2,11.8-30.3,27.3
					c-0.7,10,3.7,19.6,11.8,25.6c2.8,2.1,4.4,5.3,4.3,8.7l-0.2,8.4c-0.2,6.9,5.4,12.7,12.3,12.8c3.3,0.1,6.5-1.2,9-3.5
					c2.4-2.3,3.8-5.4,3.9-8.8l0.2-8.4c0-1.4,1.2-2.5,2.5-2.4c1.4,0,2.5,1.2,2.4,2.5l-0.2,8.4c-0.1,4.7-2,9-5.4,12.3
					C1041.1,418.1,1036.8,419.8,1032.3,419.8z"/>
			</g>
			<g>
				<path class="st52" d="M1033.2,396.8c-1.4,0-2.5-1.1-2.5-2.5v-28.8c0-1.4,1.1-2.5,2.5-2.5c1.4,0,2.5,1.1,2.5,2.5v28.8
					C1035.7,395.7,1034.5,396.8,1033.2,396.8z"/>
			</g>
			<g>
				<path class="st52" d="M1020.2,369.2c-0.6,0-1.1-0.2-1.6-0.6c-1-0.9-1.2-2.5-0.3-3.5l6.5-7.6c0.9-1.1,2.9-1.1,3.8,0l4.6,5.4
					l4.6-5.4c0.5-0.6,1.2-0.9,1.9-0.9l0,0c0.7,0,1.4,0.3,1.9,0.9l6.5,7.6c0.9,1.1,0.8,2.6-0.3,3.5c-1,0.9-2.6,0.8-3.5-0.3l-4.6-5.4
					l-4.6,5.4c-0.5,0.6-1.2,0.9-1.9,0.9c0,0,0,0,0,0c-0.7,0-1.4-0.3-1.9-0.9l-4.6-5.4l-4.6,5.4
					C1021.6,368.9,1020.9,369.2,1020.2,369.2z"/>
			</g>
		</g>
		<g>
			<g>
				<path class="st52" d="M818.4,317.8c-9.6,0-19.2-0.9-28.8-2.6c-1.2-0.2-2.1-1.2-2.1-2.5c0-21.9,16.7-29.2,22-31v-0.1
					c-7.1-3.3-11.7-10.5-11.7-18.4c0-5.8,2.5-11.4,6.8-15.3c4.3-3.9,10.2-5.7,16-5.1c9.3,1,16.9,8.5,18,17.8
					c1,8.7-3.6,17.1-11.4,20.9c5.4,1.7,22,8.8,22,31c0,1.2-0.9,2.2-2.1,2.5C837.6,317,828,317.8,818.4,317.8z M792.6,310.7
					c17.1,2.8,34.5,2.8,51.6,0c-0.9-17-13.2-22.6-18.6-24.2c-2-0.6-3.4-2.5-3.4-4.6c0-2,1.1-3.7,2.7-4.5c6.1-2.8,9.6-9.2,8.8-15.9
					c-0.8-7-6.5-12.7-13.6-13.5c-4.5-0.5-8.8,0.9-12.1,3.8c-3.3,2.9-5.2,7.1-5.2,11.5c0,5.9,3.5,11.4,8.8,14
					c1.8,0.8,2.8,2.5,2.8,4.4v0.2c0,2.1-1.3,3.9-3.3,4.6C805.8,288.3,793.5,294.1,792.6,310.7z M846.7,312.8L846.7,312.8
					L846.7,312.8z"/>
			</g>
			<g>
				<path class="st52" d="M855.5,301.9c-1.2,0-2.3-0.9-2.5-2.2c-0.2-1.4,0.8-2.6,2.1-2.8c1.2-0.2,2.3-0.3,3.5-0.5
					c-0.9-13.3-10.6-17.8-14.9-19.1c-1.9-0.6-3.1-2.3-3.1-4.2c0-1.8,1-3.4,2.5-4.1c4.8-2.2,7.6-7.3,7-12.6
					c-0.7-5.6-5.2-10.1-10.8-10.7c-1.4-0.2-2.4-1.4-2.2-2.8c0.2-1.4,1.4-2.4,2.8-2.2c7.8,0.9,14.2,7.2,15.2,15
					c0.8,7-2.6,13.8-8.7,17.2c5.3,1.9,17.4,8.2,17.4,25.6c0,1.2-0.9,2.2-2.1,2.5c-1.9,0.3-3.9,0.7-5.8,0.9
					C855.7,301.9,855.6,301.9,855.5,301.9z"/>
			</g>
			<g>
				<path class="st52" d="M780.1,301.8c-0.1,0-0.2,0-0.4,0c-1.6-0.2-3.2-0.5-4.8-0.8c-1.2-0.2-2.1-1.2-2.1-2.5
					c0-17.4,12.1-23.7,17.4-25.6c-6.1-3.4-9.6-10.1-8.7-17.2c0.9-7.8,7.3-14.2,15.2-15c1.4-0.2,2.6,0.8,2.8,2.2
					c0.2,1.4-0.8,2.6-2.2,2.8c-5.6,0.6-10.1,5.1-10.8,10.7c-0.6,5.3,2.2,10.4,7,12.6c1.5,0.7,2.5,2.3,2.5,4c0,2-1.2,3.7-3.1,4.3
					c-4.3,1.3-14,5.8-14.9,19.1c0.8,0.1,1.7,0.3,2.5,0.4c1.4,0.2,2.3,1.5,2.1,2.8C782.4,300.9,781.3,301.8,780.1,301.8z"/>
			</g>
		</g>
		<g>
			<g>
				<g>
					<path class="st52" d="M977.7,520.3c-22,0-39.9-17.9-39.9-39.9c0-16.1,9.6-30.5,24.4-36.8c1.3-0.5,2.7,0.1,3.3,1.3
						s-0.1,2.7-1.3,3.3c-13,5.5-21.3,18.1-21.3,32.2c0,19.3,15.7,34.9,34.9,34.9c1.4,0,2.5,1.1,2.5,2.5S979.1,520.3,977.7,520.3z
						 M992.5,517.2c-1,0-1.9-0.6-2.3-1.5c-0.5-1.3,0-2.7,1.3-3.3c12.8-5.5,21.1-18.1,21.1-32.1c0-19.3-15.7-34.9-34.9-34.9
						c-1.4,0-2.5-1.1-2.5-2.5s1.1-2.5,2.5-2.5c22,0,39.9,17.9,39.9,39.9c0,15.9-9.5,30.3-24.1,36.7
						C993.2,517.2,992.9,517.2,992.5,517.2z"/>
				</g>
				<g>
					<path class="st52" d="M981,452.1c-0.6,0-1.3-0.2-1.8-0.7l-6.7-6.7c-0.5-0.5-0.7-1.1-0.7-1.8s0.3-1.3,0.7-1.8l6.7-6.7
						c1-1,2.6-1,3.5,0c1,1,1,2.6,0,3.5l-4.9,4.9l4.9,4.9c1,1,1,2.6,0,3.5C982.3,451.9,981.7,452.1,981,452.1z"/>
				</g>
				<g>
					<path class="st52" d="M974.4,527c-0.6,0-1.3-0.2-1.8-0.7c-1-1-1-2.6,0-3.5l4.9-4.9l-4.9-4.9c-1-1-1-2.6,0-3.5c1-1,2.5-1,3.5,0
						l6.7,6.7c0.5,0.5,0.7,1.1,0.7,1.8s-0.3,1.3-0.7,1.8l-6.7,6.7C975.6,526.7,975,527,974.4,527z"/>
				</g>
				<g>
					<path class="st52" d="M962.6,491c-0.6,0-1.3-0.2-1.8-0.7l-8.2-8.2c-1-1-1-2.6,0-3.5l8.2-8.2c1-1,2.6-1,3.5,0c1,1,1,2.6,0,3.5
						l-6.5,6.5l6.5,6.5c1,1,1,2.6,0,3.5C963.8,490.8,963.2,491,962.6,491z"/>
				</g>
				<g>
					<path class="st52" d="M994.8,491c-0.6,0-1.3-0.2-1.8-0.7c-1-1-1-2.6,0-3.5l6.5-6.5l-6.5-6.5c-1-1-1-2.6,0-3.5c1-1,2.6-1,3.5,0
						l8.2,8.2c1,1,1,2.6,0,3.5l-8.2,8.2C996.1,490.8,995.5,491,994.8,491z"/>
				</g>
				<g>
					<path class="st52" d="M974.4,495.5c-0.3,0-0.5,0-0.8-0.1c-1.3-0.4-2-1.9-1.6-3.2l8.6-25.4c0.4-1.3,1.9-2,3.2-1.6
						c1.3,0.4,2,1.9,1.6,3.2l-8.6,25.4C976.4,494.9,975.4,495.5,974.4,495.5z"/>
				</g>
			</g>
		</g>
		<g>
			<g>
				<path class="st52" d="M856.5,189.1c-7.2,0-13.1-5.9-13.1-13.1v-57.4c0-1.4,1.1-2.5,2.5-2.5h31c0.7,0,1.3,0.3,1.8,0.7l6.5,6.5
					h35.7c1.4,0,2.5,1.1,2.5,2.5s-1.1,2.5-2.5,2.5h-36.8c-0.7,0-1.3-0.3-1.8-0.7l-6.5-6.5h-27.5V176c0,4.5,3.6,8.1,8.1,8.1
					c1.4,0,2.5,1.1,2.5,2.5S857.9,189.1,856.5,189.1z"/>
			</g>
			<g>
				<path class="st52" d="M921.4,189.1h-64.9c-1.4,0-2.5-1.1-2.5-2.5s1.1-2.5,2.5-2.5c4.5,0,8.1-3.6,8.1-8.1v-37.5
					c0-1.4,1.1-2.5,2.5-2.5H932c1.4,0,2.5,1.1,2.5,2.5V176C934.5,183.2,928.6,189.1,921.4,189.1z M866.8,184.1h54.6
					c4.5,0,8.1-3.6,8.1-8.1v-35h-59.9v35C869.6,179.1,868.6,181.9,866.8,184.1z"/>
			</g>
			<g>
				<g>
					<path class="st52" d="M932,219.5h-86.1c-1.4,0-2.5-1.1-2.5-2.5v-12.2c0-1.4,1.1-2.5,2.5-2.5H932c1.4,0,2.5,1.1,2.5,2.5l0,12.2
						c0,0.7-0.3,1.3-0.7,1.8C933.3,219.2,932.7,219.5,932,219.5z M848.4,214.5h81.1l0-7.3h-81.1V214.5z"/>
				</g>
				<g>
					<path class="st52" d="M914.1,219.5c-1.4,0-2.5-1.1-2.5-2.5l0-12.2c0-1.4,1.1-2.5,2.5-2.5h0c1.4,0,2.5,1.1,2.5,2.5l0,12.2
						C916.5,218.3,915.4,219.5,914.1,219.5L914.1,219.5z"/>
				</g>
				<g>
					<path class="st52" d="M863.9,219.5c-1.4,0-2.5-1.1-2.5-2.5v-12.2c0-1.4,1.1-2.5,2.5-2.5s2.5,1.1,2.5,2.5V217
						C866.4,218.3,865.3,219.5,863.9,219.5z"/>
				</g>
				<g>
					<path class="st52" d="M889,207.2c-1.4,0-2.5-1.1-2.5-2.5v-18.1c0-1.4,1.1-2.5,2.5-2.5s2.5,1.1,2.5,2.5v18.1
						C891.5,206.1,890.3,207.2,889,207.2z"/>
				</g>
			</g>
		</g>
		<g>
			<g>
				<path class="st52" d="M749.7,218.4c-0.4,0-0.9-0.1-1.3-0.3c-0.8-0.4-1.2-1.3-1.2-2.1v-16.5c0-1.4,1.1-2.5,2.5-2.5
					s2.5,1.1,2.5,2.5v12.2l14.2-7.8c0.8-0.4,1.7-0.4,2.4,0l14.2,7.8v-24c0-1.4,1.1-2.5,2.5-2.5s2.5,1.1,2.5,2.5v28.2
					c0,0.9-0.5,1.7-1.2,2.1c-0.8,0.4-1.7,0.5-2.5,0l-16.6-9.2l-16.6,9.2C750.5,218.3,750.1,218.4,749.7,218.4z"/>
			</g>
			<g>
				<path class="st52" d="M763.7,171.9c-0.6,0-1.3-0.2-1.8-0.7l-5.5-5.5c-1-1-1-2.6,0-3.5c1-1,2.5-1,3.5,0l3.8,3.8l11.4-11.4
					c1-1,2.5-1,3.5,0c1,1,1,2.6,0,3.5l-13.1,13.1C765,171.6,764.3,171.9,763.7,171.9z"/>
			</g>
			<g>
				<path class="st52" d="M767.5,197.1c-3.4,0-6-2.2-8.2-4.2c-1.3-1.1-2.4-2.1-3.5-2.6c-1.2-0.5-2.8-0.6-4.5-0.7
					c-2.9-0.2-6.3-0.5-8.6-2.8c-2.3-2.3-2.6-5.6-2.8-8.6c-0.1-1.7-0.3-3.3-0.7-4.5c-0.4-1.1-1.5-2.3-2.6-3.5c-2-2.3-4.2-4.8-4.2-8.2
					c0-3.4,2.2-6,4.2-8.2c1.1-1.3,2.1-2.4,2.6-3.5c0.5-1.2,0.6-2.8,0.7-4.5c0.2-2.9,0.5-6.3,2.8-8.6c2.3-2.3,5.6-2.6,8.6-2.8
					c1.7-0.1,3.3-0.3,4.5-0.7c1.1-0.4,2.3-1.5,3.5-2.6c2.3-2,4.8-4.2,8.2-4.2s6,2.2,8.2,4.2c1.3,1.1,2.4,2.1,3.5,2.6
					c1.2,0.5,2.8,0.6,4.5,0.7c2.9,0.2,6.3,0.5,8.6,2.8c2.3,2.3,2.6,5.6,2.8,8.6c0.1,1.7,0.3,3.3,0.7,4.5c0.4,1.1,1.5,2.3,2.6,3.5
					c2,2.3,4.2,4.8,4.2,8.2c0,3.4-2.2,6-4.2,8.2c-1.1,1.3-2.1,2.4-2.6,3.5c-0.5,1.2-0.6,2.8-0.7,4.5c-0.2,2.9-0.5,6.3-2.8,8.6
					c-2.3,2.3-5.6,2.6-8.6,2.8c-1.7,0.1-3.3,0.3-4.5,0.7c-1.1,0.4-2.3,1.5-3.5,2.6C773.5,194.9,770.9,197.1,767.5,197.1z
					 M767.5,131.8c-1.5,0-3.2,1.5-5,3c-1.5,1.3-3,2.7-4.9,3.4c-1.9,0.8-4,0.9-6,1.1c-2.2,0.2-4.4,0.3-5.4,1.3c-1,1-1.2,3.3-1.3,5.4
					c-0.2,2-0.3,4.1-1.1,6c-0.8,1.8-2.1,3.4-3.4,4.9c-1.5,1.8-3,3.4-3,5c0,1.5,1.5,3.2,3,5c1.3,1.5,2.7,3,3.4,4.9
					c0.8,1.9,0.9,4,1.1,6c0.2,2.2,0.3,4.4,1.3,5.4c1,1,3.3,1.2,5.4,1.3c2,0.2,4.1,0.3,6,1.1c1.8,0.8,3.4,2.1,4.9,3.4
					c1.8,1.5,3.4,3,5,3s3.2-1.5,5-3c1.5-1.3,3-2.7,4.9-3.4c1.9-0.8,4-0.9,6-1.1c2.2-0.2,4.4-0.3,5.4-1.3c1-1,1.2-3.3,1.3-5.4
					c0.2-2,0.3-4.1,1.1-6c0.8-1.8,2.1-3.4,3.4-4.9c1.5-1.8,3-3.4,3-5c0-1.5-1.5-3.2-3-5c-1.3-1.5-2.7-3-3.4-4.9
					c-0.8-1.9-0.9-4-1.1-6c-0.2-2.2-0.3-4.4-1.3-5.4c-1-1-3.3-1.2-5.4-1.3c-2-0.2-4.1-0.3-6-1.1c-1.8-0.8-3.4-2.1-4.9-3.4
					C770.7,133.3,769,131.8,767.5,131.8z"/>
			</g>
		</g>
		<g>
			<g>
				<path class="st52" d="M590.6,70.3h-56.3c-6.3,0-11.4-5.1-11.4-11.4V11.4C522.9,5.1,528,0,534.3,0c1.4,0,2.5,1.1,2.5,2.5
					S535.7,5,534.3,5c-3.5,0-6.4,2.9-6.4,6.4v47.5c0,3.5,2.9,6.4,6.4,6.4h56.3c1.4,0,2.5,1.1,2.5,2.5S592,70.3,590.6,70.3z"/>
			</g>
			<g>
				<path class="st52" d="M607.3,70.3c-1.4,0-2.5-1.1-2.5-2.5s1.1-2.5,2.5-2.5c3.5,0,6.4-2.9,6.4-6.4V11.4c0-3.5-2.9-6.4-6.4-6.4
					h-73c-1.4,0-2.5-1.1-2.5-2.5s1.1-2.5,2.5-2.5h73c6.3,0,11.4,5.1,11.4,11.4v47.5C618.7,65.2,613.6,70.3,607.3,70.3z"/>
			</g>
			<g>
				<path class="st52" d="M587.8,47.9c-0.7,0-1.5-0.3-2-1c-0.9-1.1-0.7-2.6,0.4-3.5l10.5-8.3l-10.5-8.3c-1.1-0.9-1.3-2.4-0.4-3.5
					c0.9-1.1,2.4-1.3,3.5-0.4l13,10.2c0.6,0.5,1,1.2,1,2s-0.4,1.5-1,2l-13,10.2C588.8,47.7,588.3,47.9,587.8,47.9z"/>
			</g>
			<g>
				<path class="st52" d="M553.8,47.9c-0.5,0-1.1-0.2-1.5-0.5l-13-10.2c-0.6-0.5-1-1.2-1-2s0.4-1.5,1-2l13-10.2
					c1.1-0.9,2.6-0.7,3.5,0.4c0.9,1.1,0.7,2.6-0.4,3.5l-10.5,8.3l10.5,8.3c1.1,0.9,1.3,2.4,0.4,3.5
					C555.3,47.6,554.5,47.9,553.8,47.9z"/>
			</g>
			<g>
				<path class="st52" d="M564.8,53c-0.3,0-0.6-0.1-1-0.2c-1.3-0.5-1.9-2-1.3-3.3l12.9-30.8c0.5-1.3,2-1.9,3.3-1.3
					c1.3,0.5,1.9,2,1.3,3.3l-12.9,30.8C566.7,52.5,565.7,53,564.8,53z"/>
			</g>
		</g>
		<g>
			<g>
				<path class="st52" d="M982.3,900.3c-3.9,0-7.5-1.5-10.3-4.1c-2.9-2.8-4.5-6.5-4.6-10.5c-0.1-4,1.4-7.8,4.1-10.7
					c2.8-2.9,6.5-4.5,10.5-4.6c4-0.1,7.8,1.4,10.7,4.1c2.9,2.8,4.5,6.5,4.6,10.5c0,0,0,0,0,0c0.2,8.3-6.4,15.1-14.6,15.3
					C982.5,900.3,982.4,900.3,982.3,900.3z M982.3,875.3c-0.1,0-0.2,0-0.2,0c-2.7,0.1-5.2,1.2-7,3.1c-1.8,1.9-2.8,4.5-2.8,7.1
					c0.1,2.7,1.2,5.2,3.1,7c1.9,1.8,4.5,2.8,7.1,2.8c5.5-0.1,9.9-4.7,9.8-10.2l0,0c-0.1-2.7-1.2-5.2-3.1-7
					C987.3,876.3,984.9,875.3,982.3,875.3z"/>
			</g>
			<g>
				<path class="st52" d="M983.4,935.4c-0.7,0-1.4-0.3-1.9-0.9c-2-2.3-4.2-4.7-6.5-7.3c-11.4-12.5-24.3-26.7-24.6-41.2
					c-0.2-8.5,2.9-16.6,8.8-22.8c5.9-6.2,13.8-9.7,22.3-9.9c8.5-0.2,16.6,2.9,22.8,8.8c6.2,5.9,9.7,13.8,9.9,22.3
					c0.3,14.5-11.9,29.3-22.7,42.3c-2.2,2.6-4.2,5.1-6.1,7.6C984.9,935,984.2,935.4,983.4,935.4
					C983.4,935.4,983.4,935.4,983.4,935.4z M982.3,858.4c-0.2,0-0.4,0-0.7,0c-7.2,0.2-13.9,3.1-18.8,8.3c-5,5.2-7.6,12-7.4,19.2
					c0.3,12.6,12.5,26.1,23.3,37.9c1.6,1.8,3.1,3.5,4.6,5.1c1.4-1.7,2.8-3.5,4.4-5.3c10.2-12.4,21.8-26.4,21.5-39
					c-0.2-7.2-3.1-13.9-8.3-18.8C995.8,861,989.2,858.4,982.3,858.4z"/>
			</g>
		</g>
		<g>
			<g>
				<path class="st52" d="M509.7,155.3c-3.2,0-6.3-1.2-8.6-3.5c-2.4-2.3-3.8-5.4-3.9-8.7c-0.1-3.3,1.1-6.5,3.4-8.9
					c2.3-2.4,5.4-3.8,8.7-3.9c6.8-0.2,12.6,5.3,12.8,12.2c0,0,0,0,0,0c0.2,6.9-5.3,12.6-12.2,12.8
					C509.9,155.3,509.8,155.3,509.7,155.3z M509.7,135.3c-0.1,0-0.1,0-0.2,0c-2,0-3.9,0.9-5.3,2.3c-1.4,1.5-2.1,3.4-2.1,5.4
					c0,2,0.9,3.9,2.3,5.3c1.5,1.4,3.3,2.1,5.4,2.1c4.1-0.1,7.4-3.5,7.3-7.7l0,0C517.1,138.6,513.7,135.3,509.7,135.3z"/>
			</g>
			<g>
				<path class="st52" d="M510.6,183.4c-0.7,0-1.4-0.3-1.9-0.9c-1.6-1.9-3.4-3.8-5.2-5.8c-9.2-10.1-19.6-21.5-19.8-33.3
					c-0.3-14.3,11.1-26.3,25.4-26.6c6.9-0.2,13.5,2.4,18.6,7.2c5,4.8,7.9,11.3,8.1,18.2c0.3,11.8-9.6,23.7-18.3,34.2
					c-1.7,2.1-3.4,4.1-4.9,6C512.1,183,511.4,183.4,510.6,183.4C510.6,183.4,510.6,183.4,510.6,183.4z M509.7,121.8
					c-0.2,0-0.3,0-0.5,0c-11.6,0.3-20.8,9.9-20.5,21.5c0.2,9.9,10,20.6,18.5,30c1.1,1.3,2.2,2.5,3.3,3.7c1-1.2,2-2.5,3.1-3.8
					c8.1-9.8,17.3-21,17.1-30.9c-0.1-5.6-2.4-10.9-6.5-14.7C520.3,123.8,515.1,121.8,509.7,121.8z"/>
			</g>
		</g>
		<g>
			<g>
				<g>
					<path class="st52" d="M1007.8,679.7c-0.6,0-1.3-0.2-1.8-0.7l-8.5-8.5c-1-1-1-2.6,0-3.5c1-1,2.5-1,3.5,0l6.8,6.8l18.5-18.5
						c1-1,2.6-1,3.5,0c1,1,1,2.6,0,3.5l-20.3,20.3C1009,679.5,1008.4,679.7,1007.8,679.7z"/>
				</g>
				<g>
					<path class="st52" d="M1013.6,704c-20.3,0-36.9-16.5-36.9-36.9s16.5-36.9,36.9-36.9c20.3,0,36.9,16.5,36.9,36.9
						c0,15.3-9.2,28.7-23.4,34.3c-1.3,0.5-2.7-0.1-3.2-1.4c-0.5-1.3,0.1-2.7,1.4-3.2c12.3-4.8,20.2-16.5,20.2-29.7
						c0-17.6-14.3-31.9-31.9-31.9c-17.6,0-31.9,14.3-31.9,31.9c0,17.6,14.3,31.9,31.9,31.9c1.4,0,2.5,1.1,2.5,2.5
						S1015,704,1013.6,704z"/>
				</g>
			</g>
			<g>
				<path class="st52" d="M1013.6,634.5c-0.6,0-1.1-0.2-1.6-0.6l-48.5-39.6c-1.1-0.9-1.2-2.4-0.4-3.5c0.9-1.1,2.4-1.2,3.5-0.4
					l48.5,39.6c1.1,0.9,1.2,2.4,0.4,3.5C1015.1,634.2,1014.4,634.5,1013.6,634.5z"/>
			</g>
			<g>
				<path class="st52" d="M1013.6,634.5c-1,0-1.9-0.6-2.3-1.5l-16.9-41.2c-0.1-0.2-0.1-0.4-0.2-0.6c-0.1-0.4-1.3-10,0.2-21.6
					c2-15.7,8.2-27.4,17.8-33.9c1.1-0.8,2.7-0.5,3.5,0.7c0.8,1.1,0.5,2.7-0.7,3.5c-19.5,13.2-16.2,46.9-15.8,50.4l16.7,40.9
					c0.5,1.3-0.1,2.7-1.4,3.2C1014.3,634.5,1014,634.5,1013.6,634.5z"/>
			</g>
			<g>
				<path class="st52" d="M965.2,594.9c-0.4,0-0.9-0.1-1.3-0.3c-1.2-0.7-1.6-2.2-0.9-3.4c3.8-6.5,10.8-10.5,18.3-10.5
					c6.3,0,12.1,2.7,16.2,7.5c4-4.8,9.9-7.5,16.2-7.5c6.3,0,12.1,2.7,16.2,7.5c4-4.8,9.9-7.5,16.2-7.5c5.1,0,9.9,1.8,13.7,5v-0.1
					c0-30.1-21.7-44.7-43.3-45.8c-30.3-1.6-46.3,19.6-48.4,39.8c-0.1,1.4-1.4,2.4-2.7,2.2c-1.4-0.1-2.4-1.4-2.2-2.7
					c3.2-30.7,29.4-45.6,53.6-44.3c23.9,1.2,48,17.4,48,50.8v6.9c0,1.1-0.8,2.1-1.8,2.4c-1.1,0.3-2.2-0.2-2.8-1.2
					c-2.9-5-8.3-8.1-14-8.1c-5,0-9.6,2.3-12.7,6.2c-0.8,1.1-2.1,1.7-3.4,1.7h0c-1.3,0-2.6-0.6-3.4-1.7c-3.1-3.9-7.7-6.2-12.7-6.2
					c-5,0-9.6,2.3-12.7,6.2c-0.8,1.1-2.1,1.7-3.4,1.7c0,0,0,0,0,0c-1.3,0-2.6-0.6-3.4-1.7c-3.1-3.9-7.7-6.2-12.7-6.2
					c-5.7,0-11.1,3.1-14,8.1C966.9,594.5,966,594.9,965.2,594.9z"/>
			</g>
			<g>
				<path class="st52" d="M1013.6,634.5c-0.7,0-1.4-0.3-1.9-0.9c-0.9-1.1-0.7-2.6,0.4-3.5l39.1-31.9c1.1-0.9,2.6-0.7,3.5,0.4
					c0.9,1.1,0.7,2.6-0.4,3.5l-39.1,31.9C1014.8,634.4,1014.2,634.5,1013.6,634.5z"/>
			</g>
			<g>
				<path class="st52" d="M1013.6,634.5c-0.3,0-0.6-0.1-0.9-0.2c-1.3-0.5-1.9-2-1.4-3.2l16.7-40.9c0.4-3.5,3.6-37.3-15.8-50.4
					c-1.1-0.8-1.4-2.3-0.7-3.5c0.8-1.1,2.3-1.4,3.5-0.7c9.6,6.5,15.8,18.2,17.8,33.9c1.5,11.6,0.2,21.2,0.2,21.6
					c0,0.2-0.1,0.4-0.2,0.6l-16.9,41.2C1015.6,634,1014.6,634.5,1013.6,634.5z"/>
			</g>
		</g>
		<g>
			<g>
				<g>
					<path class="st52" d="M428.2,1085.6c-0.7,0-1.3-0.3-1.8-0.7l-7.7-7.7c-1-1-1-2.6,0-3.5c1-1,2.6-1,3.5,0l6,6l16.6-16.6
						c1-1,2.5-1,3.5,0c1,1,1,2.6,0,3.5l-18.4,18.4C429.5,1085.3,428.8,1085.6,428.2,1085.6z"/>
				</g>
				<g>
					<path class="st52" d="M433.5,1107.6c-18.6,0-33.7-15.1-33.7-33.7c0-18.6,15.1-33.7,33.7-33.7c18.6,0,33.7,15.1,33.7,33.7
						c0,13.9-8.4,26.3-21.4,31.4c-1.3,0.5-2.7-0.1-3.2-1.4c-0.5-1.3,0.1-2.7,1.4-3.2c11.1-4.4,18.2-14.8,18.2-26.7
						c0-15.8-12.9-28.7-28.7-28.7c-15.8,0-28.7,12.9-28.7,28.7c0,15.8,12.9,28.7,28.7,28.7c1.4,0,2.5,1.1,2.5,2.5
						C436,1106.5,434.9,1107.6,433.5,1107.6z"/>
				</g>
			</g>
			<g>
				<path class="st52" d="M433.5,1044.6c-0.6,0-1.1-0.2-1.6-0.6l-44-35.9c-1.1-0.9-1.2-2.4-0.4-3.5c0.9-1.1,2.4-1.2,3.5-0.4l44,35.9
					c1.1,0.9,1.2,2.4,0.4,3.5C434.9,1044.3,434.2,1044.6,433.5,1044.6z"/>
			</g>
			<g>
				<path class="st52" d="M433.5,1044.6c-1,0-1.9-0.6-2.3-1.5l-15.3-37.4c-0.1-0.2-0.1-0.4-0.2-0.6c0-0.4-1.2-9.1,0.2-19.7
					c1.8-14.3,7.4-25,16.2-30.9c1.1-0.8,2.7-0.5,3.5,0.7c0.8,1.1,0.5,2.7-0.7,3.5c-17.5,11.8-14.6,42.1-14.3,45.5l15.2,37.1
					c0.5,1.3-0.1,2.7-1.4,3.2C434.1,1044.6,433.8,1044.6,433.5,1044.6z"/>
			</g>
			<g>
				<path class="st52" d="M389.5,1008.7c-0.4,0-0.9-0.1-1.3-0.3c-1.2-0.7-1.6-2.2-0.9-3.4c3.5-6,9.9-9.7,16.8-9.7
					c5.7,0,11,2.4,14.7,6.7c3.7-4.3,9-6.7,14.7-6.7c5.7,0,11,2.4,14.7,6.7c3.7-4.3,9-6.7,14.7-6.7c4.5,0,8.8,1.6,12.2,4.3
					c-0.2-26.9-19.7-39.9-39-40.9c-27.3-1.4-41.8,17.6-43.7,35.9c-0.1,1.4-1.4,2.4-2.7,2.2c-1.4-0.1-2.4-1.4-2.2-2.7
					c2.9-28,26.8-41.5,48.9-40.4c21.1,1.1,43.8,16.1,43.8,46.3v6.2c0,1.1-0.8,2.1-1.8,2.4c-1.1,0.3-2.2-0.2-2.8-1.2
					c-2.6-4.4-7.4-7.2-12.5-7.2c-4.5,0-8.6,2-11.4,5.5c-0.8,1-2,1.6-3.3,1.6s-2.5-0.6-3.3-1.6c-2.8-3.5-6.9-5.5-11.4-5.5
					c-4.5,0-8.6,2-11.4,5.5c-0.8,1-2,1.6-3.3,1.6c0,0,0,0,0,0c-1.3,0-2.5-0.6-3.3-1.6c-2.8-3.5-6.9-5.5-11.4-5.5
					c-5.1,0-9.9,2.8-12.5,7.2C391.2,1008.3,390.4,1008.7,389.5,1008.7z"/>
			</g>
			<g>
				<path class="st52" d="M433.5,1044.6c-0.7,0-1.4-0.3-1.9-0.9c-0.9-1.1-0.7-2.6,0.4-3.5l35.4-28.9c1.1-0.9,2.6-0.7,3.5,0.4
					c0.9,1.1,0.7,2.6-0.4,3.5l-35.4,28.9C434.6,1044.4,434.1,1044.6,433.5,1044.6z"/>
			</g>
			<g>
				<path class="st52" d="M433.5,1044.6c-0.3,0-0.6-0.1-0.9-0.2c-1.3-0.5-1.9-2-1.4-3.2l15.2-37.1c0.4-3.4,3.2-33.7-14.3-45.5
					c-1.1-0.8-1.4-2.3-0.7-3.5c0.8-1.1,2.3-1.4,3.5-0.7c8.8,5.9,14.4,16.6,16.2,30.9c1.4,10.6,0.2,19.3,0.2,19.7
					c0,0.2-0.1,0.4-0.2,0.6l-15.3,37.4C435.4,1044,434.5,1044.6,433.5,1044.6z"/>
			</g>
		</g>
		<g>
			<g>
				<g>
					<path class="st52" d="M195.1,298.8c-0.6,0-1.3-0.2-1.8-0.7l-8.5-8.5c-1-1-1-2.6,0-3.5c1-1,2.5-1,3.5,0l6.8,6.8l18.5-18.5
						c1-1,2.6-1,3.5,0c1,1,1,2.6,0,3.5l-20.3,20.3C196.4,298.6,195.7,298.8,195.1,298.8z"/>
				</g>
				<g>
					<path class="st52" d="M201,323.1c-20.3,0-36.9-16.5-36.9-36.9s16.5-36.9,36.9-36.9s36.9,16.5,36.9,36.9
						c0,15.3-9.2,28.7-23.4,34.3c-1.3,0.5-2.7-0.1-3.2-1.4c-0.5-1.3,0.1-2.7,1.4-3.2c12.3-4.8,20.2-16.5,20.2-29.7
						c0-17.6-14.3-31.9-31.9-31.9s-31.9,14.3-31.9,31.9c0,17.6,14.3,31.9,31.9,31.9c1.4,0,2.5,1.1,2.5,2.5S202.4,323.1,201,323.1z"
						/>
				</g>
			</g>
			<g>
				<path class="st52" d="M201,253.6c-0.6,0-1.1-0.2-1.6-0.6l-48.5-39.6c-1.1-0.9-1.2-2.4-0.4-3.5c0.9-1.1,2.4-1.2,3.5-0.4
					l48.5,39.6c1.1,0.9,1.2,2.4,0.4,3.5C202.4,253.3,201.7,253.6,201,253.6z"/>
			</g>
			<g>
				<path class="st52" d="M201,253.6c-1,0-1.9-0.6-2.3-1.5l-16.9-41.2c-0.1-0.2-0.1-0.4-0.2-0.6c-0.1-0.4-1.3-10,0.2-21.6
					c2-15.7,8.2-27.4,17.8-33.9c1.1-0.8,2.7-0.5,3.5,0.7c0.8,1.1,0.5,2.7-0.7,3.5c-19.5,13.2-16.2,46.9-15.8,50.4l16.7,40.9
					c0.5,1.3-0.1,2.7-1.4,3.2C201.6,253.6,201.3,253.6,201,253.6z"/>
			</g>
			<g>
				<path class="st52" d="M152.5,214c-0.4,0-0.9-0.1-1.3-0.3c-1.2-0.7-1.6-2.2-0.9-3.4c3.8-6.5,10.8-10.5,18.3-10.5
					c6.3,0,12.1,2.7,16.2,7.5c4-4.8,9.9-7.5,16.2-7.5c6.3,0,12.1,2.7,16.2,7.5c4-4.8,9.9-7.5,16.2-7.5c5.1,0,9.9,1.8,13.7,5v-0.1
					c0-30.1-21.7-44.7-43.3-45.8c-30.2-1.6-46.3,19.6-48.4,39.8c-0.1,1.4-1.4,2.4-2.7,2.2c-1.4-0.1-2.4-1.4-2.2-2.7
					c3.2-30.7,29.4-45.6,53.6-44.3c23.9,1.2,48,17.4,48,50.8v6.9c0,1.1-0.8,2.1-1.8,2.4c-1.1,0.3-2.2-0.2-2.8-1.2
					c-2.9-5-8.3-8.1-14-8.1c-5,0-9.6,2.3-12.7,6.2c-0.8,1.1-2.1,1.7-3.4,1.7h0c-1.3,0-2.6-0.6-3.4-1.7c-3.1-3.9-7.7-6.2-12.7-6.2
					c-5,0-9.6,2.3-12.7,6.2c-0.8,1.1-2.1,1.7-3.4,1.7c0,0,0,0,0,0c-1.3,0-2.6-0.6-3.4-1.7c-3.1-3.9-7.7-6.2-12.7-6.2
					c-5.7,0-11.1,3.1-14,8.1C154.2,213.6,153.4,214,152.5,214z"/>
			</g>
			<g>
				<path class="st52" d="M201,253.6c-0.7,0-1.4-0.3-1.9-0.9c-0.9-1.1-0.7-2.6,0.4-3.5l39.1-31.9c1.1-0.9,2.6-0.7,3.5,0.4
					c0.9,1.1,0.7,2.6-0.4,3.5l-39.1,31.9C202.1,253.4,201.5,253.6,201,253.6z"/>
			</g>
			<g>
				<path class="st52" d="M201,253.6c-0.3,0-0.6-0.1-0.9-0.2c-1.3-0.5-1.9-2-1.4-3.2l16.7-40.9c0.4-3.5,3.6-37.3-15.8-50.4
					c-1.1-0.8-1.4-2.3-0.7-3.5c0.8-1.1,2.3-1.4,3.5-0.7c9.6,6.5,15.8,18.2,17.8,33.9c1.5,11.6,0.2,21.2,0.2,21.6
					c0,0.2-0.1,0.4-0.2,0.6l-16.9,41.2C202.9,253,202,253.6,201,253.6z"/>
			</g>
		</g>
		<g>
			<path class="st52" d="M1083.8,638.4c-0.6,0-1.2-0.2-1.6-0.6c-0.9-0.8-1.1-2-0.5-3.1l13.2-24.4l-10.8-6c-0.7-0.4-1.2-1.2-1.3-2
				c0-0.9,0.3-1.7,1-2.2l34.7-24.8c0.9-0.7,2.2-0.6,3,0.1c0.9,0.7,1.1,1.9,0.7,3l-10.2,21.9l10.9,6c0.7,0.4,1.2,1.2,1.3,2
				c0.1,0.9-0.3,1.7-1,2.2l-38,27.4C1084.9,638.3,1084.3,638.4,1083.8,638.4z M1090,601.9l9.5,5.3c1.2,0.7,1.6,2.2,1,3.4l-9.2,17
				l26-18.7l-9.5-5.3c-1.1-0.6-1.6-2-1.1-3.2l7.2-15.5L1090,601.9z"/>
		</g>
		<g>
			<g>
				<path class="st52" d="M998.2,247.3c-0.7,0-1.4-0.3-1.9-0.9L982,229.2c-0.9-1.1-0.7-2.6,0.3-3.5c1.1-0.9,2.6-0.7,3.5,0.3
					l14.3,17.2c0.9,1.1,0.7,2.6-0.3,3.5C999.3,247.1,998.7,247.3,998.2,247.3z"/>
			</g>
			<g>
				<path class="st52" d="M983.9,230.1c-0.4,0-0.8-0.1-1.2-0.3c-0.8-0.4-1.3-1.2-1.3-2.1l-0.7-23.2c0-1.4,1-2.5,2.4-2.6
					c1.4,0,2.5,1,2.6,2.4l0.6,18.8l15.9-10.1c1.2-0.7,2.7-0.4,3.4,0.8c0.7,1.2,0.4,2.7-0.8,3.4l-19.6,12.4
					C984.8,229.9,984.3,230.1,983.9,230.1z"/>
			</g>
			<g>
				<path class="st52" d="M983.9,253.3c-13.8,0-25.3-11-25.7-24.9c-0.4-14.2,10.7-26,24.9-26.5c14.1-0.4,26,10.7,26.5,24.9v0
					c0.4,14.2-10.7,26-24.9,26.5C984.4,253.3,984.1,253.3,983.9,253.3z M983.9,206.9c-0.2,0-0.4,0-0.6,0
					c-11.4,0.3-20.4,9.9-20.1,21.3c0.3,11.4,9.9,20.4,21.3,20.1c11.4-0.3,20.4-9.9,20.1-21.3v0C1004.2,215.7,995,206.9,983.9,206.9z
					"/>
			</g>
		</g>
		<g>
			<g>
				<path class="st52" d="M923.3,664.2C923.2,664.2,923.2,664.2,923.3,664.2c-1.4,0-2.5-1.2-2.5-2.6l0.4-12.6c0.1-1.4,1-2.6,2.3-2.9
					c1.3-0.4,2.7,0.1,3.5,1.3l7.1,10.4c0.8,1.1,0.5,2.7-0.7,3.5c-1.1,0.8-2.7,0.5-3.5-0.7l-3.9-5.8l-0.2,7
					C925.7,663.1,924.6,664.2,923.3,664.2z M922.8,650.1C922.8,650.1,922.8,650.1,922.8,650.1L922.8,650.1z"/>
			</g>
			<g>
				<path class="st52" d="M944.3,658C944.3,658,944.3,658,944.3,658c-1.4,0-2.5-1.2-2.5-2.6l0.4-12.6c0-1.4,0.9-2.5,2.3-2.9
					c1.3-0.4,2.7,0.1,3.5,1.2l7.1,10.4c0.8,1.1,0.5,2.7-0.7,3.5c-1.1,0.8-2.7,0.5-3.5-0.7l-3.9-5.8l-0.2,7
					C946.8,656.9,945.7,658,944.3,658z"/>
			</g>
			<g>
				<path class="st52" d="M931.9,661.6c-1.1,0-2.1-0.7-2.4-1.8c-0.4-1.3,0.4-2.7,1.7-3.1l12.4-3.6c1.3-0.4,2.7,0.4,3.1,1.7
					c0.4,1.3-0.4,2.7-1.7,3.1l-12.4,3.6C932.4,661.6,932.2,661.6,931.9,661.6z"/>
			</g>
			<g>
				<path class="st52" d="M943.7,678.9c-0.3,0-0.6,0-0.8-0.1l-19.8-7.1c-1.6-0.6-2.6-2.1-2.5-3.7l0.2-6.4c0-1.4,1.2-2.5,2.6-2.4
					c1.4,0,2.5,1.2,2.4,2.6l-0.2,5.5l19,6.8c1.3,0.5,2,1.9,1.5,3.2C945.7,678.2,944.8,678.9,943.7,678.9z"/>
			</g>
			<g>
				<path class="st52" d="M943.7,678.9c-0.5,0-1.1-0.2-1.5-0.5c-1.1-0.8-1.3-2.4-0.5-3.5l12.3-16l-3.1-4.5c-0.8-1.1-0.5-2.7,0.6-3.5
					c1.1-0.8,2.7-0.5,3.5,0.6l3.6,5.2c0.9,1.4,0.9,3.2-0.1,4.5l-12.8,16.6C945.2,678.5,944.5,678.9,943.7,678.9z M954.5,659.6
					L954.5,659.6L954.5,659.6z"/>
			</g>
		</g>
		<g>
			<g>
				<path class="st52" d="M563.4,102c-0.1,0-0.2,0-0.3,0c-1.4-0.2-2.3-1.4-2.1-2.8l0.9-6.9l-4.8,5.1c-0.9,1-2.5,1-3.5,0.1
					c-1-0.9-1-2.5-0.1-3.5l8.7-9.1c1-1,2.4-1.3,3.7-0.7c1.2,0.6,1.9,1.9,1.7,3.3l-1.7,12.5C565.7,101.1,564.7,102,563.4,102z
					 M562.6,86.7C562.6,86.7,562.6,86.7,562.6,86.7L562.6,86.7z"/>
			</g>
			<g>
				<path class="st52" d="M583.2,111.5c-0.1,0-0.2,0-0.3,0c-1.4-0.2-2.3-1.4-2.1-2.8l0.9-6.9l-4.8,5.1c-0.9,1-2.5,1-3.5,0.1
					c-1-0.9-1-2.5-0.1-3.5l8.7-9.1c0.9-1,2.4-1.3,3.6-0.7c1.2,0.6,2,1.9,1.8,3.2l-1.7,12.5C585.5,110.6,584.5,111.5,583.2,111.5z"/>
			</g>
			<g>
				<path class="st52" d="M575.1,107.6c-0.4,0-0.7-0.1-1.1-0.2l-11.6-5.6c-1.2-0.6-1.8-2.1-1.2-3.3c0.6-1.2,2.1-1.8,3.3-1.2
					l11.6,5.6c1.2,0.6,1.8,2.1,1.2,3.3C576.9,107,576,107.6,575.1,107.6z"/>
			</g>
			<g>
				<path class="st52" d="M560.7,122.7c-0.9,0-1.7-0.5-2.2-1.3l-10-18.5c-0.8-1.5-0.5-3.3,0.6-4.5l4.4-4.6c0.9-1,2.5-1,3.5-0.1
					c1,0.9,1,2.5,0.1,3.5l-3.8,4l9.6,17.7c0.7,1.2,0.2,2.7-1,3.4C561.5,122.6,561.1,122.7,560.7,122.7z"/>
			</g>
			<g>
				<path class="st52" d="M560.7,122.7c-1.2,0-2.2-0.8-2.4-2c-0.2-1.4,0.6-2.7,2-2.9l19.8-3.6l0.7-5.5c0.2-1.4,1.4-2.3,2.8-2.1
					c1.4,0.2,2.3,1.4,2.1,2.8l-0.8,6.3c-0.2,1.7-1.5,3-3.1,3.3l-20.6,3.8C561,122.7,560.8,122.7,560.7,122.7z"/>
			</g>
		</g>
		<g>
			<g>
				<path class="st52" d="M8.7,595.2c0,0-0.1,0-0.1,0c-1.4-0.1-2.4-1.2-2.4-2.6l0.6-14.2c0.1-1.4,1-2.6,2.4-3
					c1.4-0.4,2.8,0.2,3.6,1.3l7.9,11.9c0.8,1.1,0.5,2.7-0.7,3.5c-1.1,0.8-2.7,0.5-3.5-0.7l-4.9-7.4l-0.4,8.9
					C11.1,594.2,10,595.2,8.7,595.2z M8.6,579.5C8.6,579.5,8.6,579.5,8.6,579.5L8.6,579.5z"/>
			</g>
			<g>
				<path class="st52" d="M32.7,588.5c0,0-0.1,0-0.1,0c-1.4-0.1-2.4-1.2-2.4-2.6l0.6-14.2c0.1-1.4,1-2.6,2.4-3
					c1.3-0.4,2.8,0.1,3.6,1.3l7.9,11.9c0.8,1.1,0.5,2.7-0.7,3.5c-1.1,0.8-2.7,0.4-3.5-0.7l-4.9-7.4l-0.4,8.9
					C35.1,587.5,34,588.5,32.7,588.5z"/>
			</g>
			<g>
				<path class="st52" d="M18.6,592.4c-1.1,0-2.1-0.7-2.4-1.8c-0.4-1.3,0.4-2.7,1.7-3.1l14.1-3.9c1.3-0.4,2.7,0.4,3.1,1.7
					c0.4,1.3-0.4,2.7-1.7,3.1l-14.1,3.9C19,592.4,18.8,592.4,18.6,592.4z"/>
			</g>
			<g>
				<path class="st52" d="M31.7,612.1c-0.3,0-0.6-0.1-0.9-0.2l-22.3-8.3c-1.6-0.6-2.7-2.2-2.6-3.9l0.3-7.2c0.1-1.4,1.2-2.4,2.6-2.4
					c1.4,0.1,2.4,1.2,2.4,2.6l-0.3,6.5l21.6,8c1.3,0.5,1.9,1.9,1.5,3.2C33.6,611.5,32.7,612.1,31.7,612.1z"/>
			</g>
			<g>
				<path class="st52" d="M31.7,612.1c-0.5,0-1.1-0.2-1.5-0.5c-1.1-0.9-1.3-2.4-0.4-3.5L44,590l-3.6-5.4c-0.8-1.1-0.5-2.7,0.7-3.5
					c1.1-0.8,2.7-0.5,3.5,0.7l4,6c1,1.5,0.9,3.3-0.2,4.7l-14.7,18.6C33.2,611.8,32.4,612.1,31.7,612.1z M44.4,590.6L44.4,590.6
					L44.4,590.6z"/>
			</g>
		</g>
		<g>
			<path class="st52" d="M663.1,1024.2c-0.5,0-0.9-0.1-1.4-0.4c-1-0.6-1.4-1.9-1-2.9l6.5-17.8l-7.5-2.8c-0.8-0.3-1.4-1-1.6-1.8
				c-0.2-0.8,0.1-1.7,0.7-2.3l21.8-21c0.8-0.8,2.1-0.9,3-0.3c1,0.6,1.4,1.8,1.1,2.8l-4.7,15.8l7.6,2.9c0.8,0.3,1.4,1,1.6,1.8
				c0.2,0.8-0.1,1.7-0.7,2.3l-23.8,23.1C664.4,1024,663.7,1024.2,663.1,1024.2z M665.2,997l6.1,2.3c1.3,0.5,1.9,1.9,1.5,3.2
				l-3.6,9.9l13.2-12.8l-6.1-2.3c-1.2-0.5-1.9-1.8-1.5-3l2.7-8.9L665.2,997z"/>
		</g>
		<g>
			<path class="st52" d="M155.8,672.8c-0.7,0-1.4-0.3-1.9-0.9c-0.8-0.9-0.8-2.2-0.1-3.1l13.8-18.5l-8-6.1c-0.7-0.5-1.1-1.3-1-2.2
				c0.1-0.9,0.6-1.6,1.3-2l32-16.6c1-0.5,2.2-0.3,3,0.5c0.8,0.8,0.9,2.1,0.2,3l-10.9,16.8l8.1,6.1c0.7,0.5,1,1.3,1,2.2
				c-0.1,0.9-0.6,1.6-1.3,2L157,672.5C156.6,672.7,156.2,672.8,155.8,672.8z M165.8,642.7l6.8,5.2c1.1,0.8,1.3,2.4,0.5,3.5
				l-8.8,11.8l21.9-11.4l-6.8-5.2c-1-0.8-1.3-2.3-0.6-3.3l7.1-10.8L165.8,642.7z"/>
		</g>
		<g>
			<path class="st52" d="M567.4,729.3c-0.2,0-0.4,0-0.6-0.1c-1.1-0.3-1.9-1.3-1.9-2.4l0-23.1l-10-0.1c-0.9,0-1.6-0.5-2.1-1.2
				c-0.4-0.7-0.5-1.6-0.1-2.4l15.8-32.4c0.5-1,1.6-1.6,2.7-1.3c1.1,0.2,1.9,1.2,2,2.3l1.2,20l10.2,0.1c0.9,0,1.6,0.5,2.1,1.2
				c0.4,0.7,0.5,1.6,0.1,2.4l-17.2,35.6C569.2,728.8,568.4,729.3,567.4,729.3z M558.9,698.7l8.5,0.1c1.4,0,2.5,1.1,2.5,2.5l0,14.7
				l10.8-22.3l-8.6-0.1c-1.3,0-2.4-1-2.5-2.3l-0.8-12.9L558.9,698.7z"/>
		</g>
		<g>
			<path class="st52" d="M305.7,213.3c-1,0-1.9-0.6-2.3-1.5L292.8,188l-10.5,4.6c-0.8,0.3-1.7,0.3-2.4-0.2c-0.7-0.5-1.1-1.3-1.1-2.1
				l1.4-40.2c0-1.1,0.8-2.1,1.9-2.3c1.1-0.3,2.2,0.3,2.8,1.3l10.5,20.1l10.7-4.6c0.8-0.3,1.7-0.3,2.4,0.2c0.7,0.5,1.1,1.3,1.1,2.1
				l-1.4,44.2c0,1.2-0.9,2.1-2,2.4C306,213.3,305.8,213.3,305.7,213.3z M294.1,182.3c1,0,1.9,0.6,2.3,1.5l7.2,16.1l0.9-29.3l-9.2,4
				c-1.2,0.5-2.6,0-3.2-1.1l-7.2-13.8l-1,26.9l9.2-4C293.4,182.3,293.8,182.3,294.1,182.3z"/>
		</g>
		<g>
			<g>
				<path class="st52" d="M1073.8,532.3c-0.7,0-1.5,0-2.2-0.1c-6.4-0.6-12.3-3.6-16.4-8.6c-4.1-5-6.1-11.2-5.5-17.7l4.7-51.6
					c0.1-1.4,1.3-2.4,2.7-2.3c1.4,0.1,2.4,1.3,2.3,2.7l-4.7,51.6c-0.5,5.1,1.1,10.1,4.4,14c3.3,3.9,7.9,6.4,13,6.8
					c5.1,0.5,10.1-1.1,14-4.4c3.9-3.3,6.4-7.9,6.8-13l4.7-51.6c0.1-1.4,1.3-2.4,2.7-2.3c1.4,0.1,2.4,1.3,2.3,2.7l-4.7,51.6
					c-0.6,6.4-3.6,12.3-8.6,16.4C1084.8,530.4,1079.4,532.3,1073.8,532.3z"/>
			</g>
			<g>
				<path class="st52" d="M1104.4,449.9c-0.2,0-0.5,0-0.7,0l-49-4.5c-2.1-0.2-4-1.2-5.3-2.8s-2-3.7-1.8-5.8l0.4-4.7
					c0.4-4.3,4.2-7.5,8.6-7.1l49,4.5c4.3,0.4,7.5,4.2,7.1,8.6l-0.4,4.7c-0.2,2.1-1.2,4-2.8,5.3
					C1108,449.3,1106.3,449.9,1104.4,449.9z M1055.9,429.9c-1.5,0-2.8,1.1-2.9,2.6l-0.4,4.7c-0.1,1.6,1,3,2.6,3.2l49,4.5
					c0.8,0.1,1.5-0.2,2.1-0.7c0.6-0.5,1-1.2,1-2l0.4-4.7c0.1-1.6-1-3-2.6-3.2l-49-4.5C1056.1,429.9,1056,429.9,1055.9,429.9z"/>
			</g>
			<g>
				<path class="st52" d="M1090.5,419.7c-0.1,0-0.2,0-0.2,0c-2.7-0.2-5.2-1.5-7-3.7c-1.8-2.1-2.6-4.8-2.3-7.5
					c0.5-5.6,5.5-9.8,11.2-9.3c5.6,0.5,9.8,5.5,9.3,11.2c-0.1,1.4-1.3,2.4-2.7,2.3c-1.4-0.1-2.4-1.3-2.3-2.7
					c0.3-2.9-1.9-5.5-4.8-5.8c-2.9-0.3-5.5,1.9-5.8,4.8c-0.1,1.4,0.3,2.8,1.2,3.9c0.9,1.1,2.2,1.8,3.6,1.9c1.4,0.1,2.4,1.3,2.3,2.7
					C1092.9,418.7,1091.8,419.7,1090.5,419.7z"/>
			</g>
			<g>
				<circle class="st52" cx="1080.1" cy="386.3" r="0"/>
			</g>
			<g>
				<path class="st52" d="M1066.4,457.3c-0.1,0-0.2,0-0.2,0l-9.6-0.9c-1.4-0.1-2.4-1.3-2.3-2.7c0.1-1.4,1.3-2.4,2.7-2.3l9.6,0.9
					c1.4,0.1,2.4,1.3,2.3,2.7C1068.8,456.3,1067.7,457.3,1066.4,457.3z"/>
			</g>
			<g>
				<path class="st52" d="M1083.8,472.7c-0.1,0-0.2,0-0.2,0l-28.2-2.6c-1.4-0.1-2.4-1.3-2.3-2.7c0.1-1.4,1.3-2.4,2.7-2.3l28.2,2.6
					c1.4,0.1,2.4,1.3,2.3,2.7C1086.2,471.8,1085.1,472.7,1083.8,472.7z"/>
			</g>
			<g>
				<path class="st52" d="M1063.9,484.8c-0.1,0-0.2,0-0.2,0l-9.6-0.9c-1.4-0.1-2.4-1.3-2.3-2.7c0.1-1.4,1.3-2.4,2.7-2.3l9.6,0.9
					c1.4,0.1,2.4,1.3,2.3,2.7C1066.3,483.8,1065.2,484.8,1063.9,484.8z"/>
			</g>
			<g>
				<path class="st52" d="M1062.7,498.5c-0.1,0-0.2,0-0.2,0l-9.6-0.9c-1.4-0.1-2.4-1.3-2.3-2.7c0.1-1.4,1.3-2.4,2.7-2.3l9.6,0.9
					c1.4,0.1,2.4,1.3,2.3,2.7C1065,497.5,1064,498.5,1062.7,498.5z"/>
			</g>
		</g>
		<g>
			<g>
				<g>
					<path class="st52" d="M53.3,557.9c-6.1,0-11.6-4.2-12.9-10.4l-21.1-98.8c-0.7-3.4-0.1-7,1.8-9.9c1.9-3,4.9-5,8.3-5.7l4.5-1
						c1.3-0.3,2.7,0.6,3,1.9c0.3,1.3-0.6,2.7-1.9,3l-4.5,1c-2.1,0.5-4,1.7-5.2,3.6c-1.2,1.8-1.6,4-1.1,6.2l21.1,98.8
						c0.9,4.4,5.3,7.2,9.7,6.3l77.8-16.6c4.4-0.9,7.2-5.3,6.3-9.7L118,427.5c-0.5-2.1-1.7-4-3.6-5.2c-1.8-1.2-4-1.6-6.2-1.1
						l-3.7,0.8c-1.3,0.3-2.7-0.6-3-1.9c-0.3-1.3,0.6-2.7,1.9-3l3.7-0.8c3.4-0.7,7-0.1,9.9,1.8s5,4.9,5.7,8.3l21.1,98.8
						c1.5,7.1-3,14.1-10.1,15.6L56,557.6C55.1,557.8,54.2,557.9,53.3,557.9z"/>
				</g>
				<g>
					<path class="st52" d="M47.4,448.6c-1.2,0-2.2-0.8-2.4-2l-4.5-20.9c-0.1-0.6,0-1.3,0.3-1.9c0.4-0.6,0.9-0.9,1.6-1.1l8-1.7
						c0-7.3,3.9-15.1,13.4-17.1c6.9-1.4,15.5,1.2,19.3,10.1l8-1.7c1.3-0.3,2.7,0.6,3,1.9l4.5,20.9c0.3,1.3-0.6,2.7-1.9,3l-48.7,10.4
						C47.7,448.6,47.6,448.6,47.4,448.6z M45.9,427.2l3.4,16l43.9-9.4l-3.4-16l-7.7,1.6c-1.3,0.3-2.5-0.5-2.9-1.7
						c-2.3-7.7-8.9-10-14.3-8.8c-4.9,1-10.3,5.3-9.3,13.9c0.2,1.3-0.7,2.5-2,2.7L45.9,427.2z"/>
				</g>
				<g>
					<path class="st52" d="M60.1,472.1c-0.5,0-0.9-0.1-1.4-0.4l-5.3-3.5c-1.2-0.7-1.5-2.3-0.7-3.4c0.7-1.2,2.3-1.5,3.4-0.7l3.2,2.1
						l6.9-10.6c0.7-1.2,2.3-1.5,3.4-0.7c1.2,0.7,1.5,2.3,0.7,3.4l-8.2,12.7C61.8,471.7,61,472.1,60.1,472.1z"/>
				</g>
				<g>
					<path class="st52" d="M70.4,520.1c-0.5,0-0.9-0.1-1.4-0.4l-5.3-3.5c-1.2-0.7-1.5-2.3-0.7-3.4c0.7-1.2,2.3-1.5,3.4-0.7l3.2,2.1
						l6.9-10.6c0.7-1.2,2.3-1.5,3.4-0.7c1.2,0.7,1.5,2.3,0.7,3.4L72.5,519c-0.4,0.6-0.9,0.9-1.6,1.1
						C70.8,520.1,70.6,520.1,70.4,520.1z"/>
				</g>
				<g>
					<g>
						<path class="st52" d="M63.2,496.9c-0.5,0-0.9-0.1-1.4-0.4c-1.2-0.7-1.5-2.3-0.7-3.4l8.1-12.6c0.7-1.2,2.3-1.5,3.4-0.7
							c1.2,0.7,1.5,2.3,0.7,3.4l-8.1,12.6C64.8,496.5,64,496.9,63.2,496.9z"/>
					</g>
					<g>
						<path class="st52" d="M73.6,494.7c-0.5,0-0.9-0.1-1.4-0.4l-12.6-8.1c-1.2-0.7-1.5-2.3-0.7-3.4c0.7-1.2,2.3-1.5,3.4-0.7
							l12.6,8.1c1.2,0.7,1.5,2.3,0.7,3.4C75.2,494.3,74.4,494.7,73.6,494.7z"/>
					</g>
				</g>
				<g>
					<path class="st52" d="M84,463.1c-1.2,0-2.2-0.8-2.4-2c-0.3-1.3,0.6-2.7,1.9-3l12.9-2.8c1.3-0.3,2.7,0.6,3,1.9
						c0.3,1.3-0.6,2.7-1.9,3L84.5,463C84.3,463.1,84.1,463.1,84,463.1z"/>
				</g>
				<g>
					<path class="st52" d="M88.8,485.6c-1.2,0-2.2-0.8-2.4-2c-0.3-1.3,0.6-2.7,1.9-3l12.9-2.8c1.3-0.3,2.7,0.6,3,1.9
						c0.3,1.3-0.6,2.7-1.9,3l-12.9,2.8C89.1,485.6,89,485.6,88.8,485.6z"/>
				</g>
				<g>
					<path class="st52" d="M93.9,509.6c-1.2,0-2.2-0.8-2.4-2c-0.3-1.3,0.6-2.7,1.9-3l12.9-2.8c1.3-0.3,2.7,0.6,3,1.9
						c0.3,1.3-0.6,2.7-1.9,3l-12.9,2.8C94.3,509.6,94.1,509.6,93.9,509.6z"/>
				</g>
				<g>
					<path class="st52" d="M125.6,527c-1.2,0-2.2-0.8-2.4-2l-19.4-90.9c-0.3-1.3,0.6-2.7,1.9-3c1.3-0.3,2.7,0.6,3,1.9L128,524
						c0.3,1.3-0.6,2.7-1.9,3C125.9,527,125.8,527,125.6,527z"/>
				</g>
				<g>
					<path class="st52" d="M56.8,541.7c-0.5,0-0.9-0.1-1.4-0.4c-0.6-0.4-0.9-0.9-1.1-1.6l-19.4-90.9c-0.3-1.3,0.6-2.7,1.9-3
						c1.3-0.3,2.7,0.6,3,1.9l18.9,88.5l55.4-11.9c1.3-0.3,2.7,0.6,3,1.9c0.3,1.3-0.6,2.7-1.9,3l-57.9,12.4
						C57.2,541.7,57,541.7,56.8,541.7z"/>
				</g>
			</g>
		</g>
		<g>
			<g>
				<g>
					<g>
						<path class="st52" d="M715.8,1037.5c-1.4,0-2.5-1.1-2.5-2.5v-70.2c0-5.3,4.3-9.7,9.7-9.7h12.8c1.4,0,2.5,1.1,2.5,2.5
							s-1.1,2.5-2.5,2.5h-12.8c-2.6,0-4.7,2.1-4.7,4.7v70.2C718.2,1036.3,717.1,1037.5,715.8,1037.5z"/>
					</g>
					<g>
						<path class="st52" d="M833.9,1037.5c-1.4,0-2.5-1.1-2.5-2.5v-70.2c0-2.6-2.1-4.7-4.7-4.7h-13.7c-1.4,0-2.5-1.1-2.5-2.5
							s1.1-2.5,2.5-2.5h13.7c5.3,0,9.7,4.3,9.7,9.7v70.2C836.4,1036.3,835.3,1037.5,833.9,1037.5z"/>
					</g>
					<g>
						<path class="st52" d="M839.4,1054.5H710.2c-5.3,0-9.7-4.3-9.7-9.7v-9.9c0-1.4,1.1-2.5,2.5-2.5h143.6c1.4,0,2.5,1.1,2.5,2.5
							v9.9C849.1,1050.2,844.8,1054.5,839.4,1054.5z M705.5,1037.5v7.4c0,2.6,2.1,4.7,4.7,4.7h129.2c2.6,0,4.7-2.1,4.7-4.7v-7.4
							H705.5z"/>
					</g>
				</g>
			</g>
			<g>
				<path class="st52" d="M764.9,1003.5h-18.6c-1.4,0-2.5-1.1-2.5-2.5s1.1-2.5,2.5-2.5h18.6c1.9,0,3.4-1.5,3.4-3.4s-1.5-3.4-3.4-3.4
					c-5.1,0-9.2-4.1-9.2-9.2v-2c0-5.1,4.1-9.2,9.2-9.2h4.8c3.5,0,6.4-2.9,6.4-6.4v-1.3c0-3-1.5-5.8-4-7.4l-9.1-5.9
					c-1.2-0.8-1.5-2.3-0.7-3.4c0.8-1.2,2.3-1.5,3.4-0.7l9.1,5.9c3.9,2.6,6.3,6.9,6.3,11.6v1.3c0,6.3-5.1,11.3-11.3,11.3h-4.8
					c-2.3,0-4.3,1.9-4.3,4.3v2c0,2.3,1.9,4.3,4.3,4.3c4.6,0,8.4,3.8,8.4,8.4S769.5,1003.5,764.9,1003.5z"/>
			</g>
			<g>
				<path class="st52" d="M798.3,1007.7c-1.4,0-2.5-1.1-2.5-2.5v-11.6c0-2-1.6-3.6-3.6-3.6c-3.9,0-7-3.2-7-7v-6.2c0-3.6,2-7,5.2-8.7
					l12.9-7.2c1.2-0.7,2.7-0.2,3.4,1c0.7,1.2,0.2,2.7-1,3.4l-12.9,7.2c-1.6,0.9-2.6,2.6-2.6,4.4v6.2c0,1.1,0.9,2.1,2.1,2.1
					c4.8,0,8.6,3.9,8.6,8.6v11.6C800.8,1006.6,799.7,1007.7,798.3,1007.7z"/>
			</g>
			<g>
				<path class="st52" d="M774.8,1018.5c-20.5,0-37.2-16.7-37.2-37.2c0-20.5,16.7-37.2,37.2-37.2s37.2,16.7,37.2,37.2
					C812.1,1001.8,795.4,1018.5,774.8,1018.5z M774.8,949c-17.8,0-32.3,14.5-32.3,32.3c0,17.8,14.5,32.3,32.3,32.3
					c17.8,0,32.3-14.5,32.3-32.3C807.1,963.4,792.6,949,774.8,949z"/>
			</g>
		</g>
		<g>
			<g>
				<path class="st52" d="M441.8,152.6c-0.1,0-0.1,0-0.2,0c-18.9-1.2-48-11.8-59.6-24.9c-10.9-12.2-14-24.2-18.8-42.2
					c-2.1-8-4.5-17.1-8.1-28.3c-0.4-1.3,0.3-2.7,1.6-3.1c1.3-0.4,2.7,0.3,3.1,1.6c3.6,11.3,6,20.4,8.2,28.5
					c4.7,18,7.6,28.8,17.7,40.2c9.6,10.9,36.4,21.9,56.2,23.2c1.4,0.1,2.4,1.3,2.3,2.7C444.2,151.6,443.1,152.6,441.8,152.6z"/>
			</g>
			<g>
				<path class="st52" d="M441.8,152.6c-0.8,0-1.5-0.4-2-1c-0.8-1.1-0.5-2.7,0.6-3.5c16.1-11.5,33.1-35,35.6-49.3
					c2.6-15-0.7-25.7-6.1-43.5c-2.2-7.3-4.7-15.6-7.4-25.7c-7.9,3-31.1,9.7-56.3-4.6c-11.3,20.7-29.2,28.8-39.1,31.9
					c-1.3,0.4-2.7-0.3-3.1-1.6s0.3-2.7,1.6-3.1c9.5-2.9,26.9-10.9,37.3-31.7c0.3-0.6,0.9-1.1,1.5-1.3s1.4-0.1,2,0.3
					c28.8,17.7,56.2,4.6,56.5,4.5c0.7-0.3,1.5-0.3,2.2,0c0.7,0.3,1.2,0.9,1.4,1.7c2.8,11.3,5.6,20.4,8,28.3
					c5.4,17.9,9,29.7,6.3,45.8c-3,17.3-22.2,41.6-37.6,52.5C442.8,152.4,442.3,152.6,441.8,152.6z"/>
			</g>
			<g>
				<path class="st52" d="M421.7,109.7c-1.4,0-2.8-0.4-4.1-1.1l-18.2-10.2c-3-1.7-4.1-5.5-2.4-8.5l4.4-7.8c1.7-3,5.5-4.1,8.5-2.4
					l6.9,3.9l12.1-21.7c1.7-3,5.5-4.1,8.5-2.4l7.8,4.4c1.5,0.8,2.5,2.1,3,3.8c0.5,1.6,0.3,3.3-0.6,4.8l-18.4,33
					c-1.1,2-2.9,3.4-5.1,4C423.2,109.6,422.4,109.7,421.7,109.7z M406.7,83.9c-0.4,0-0.9,0.2-1.1,0.6l-4.4,7.8
					c-0.3,0.6-0.1,1.4,0.5,1.7l18.2,10.2c0.8,0.5,1.8,0.6,2.7,0.3c0.9-0.3,1.7-0.9,2.1-1.7l18.4-33c0.2-0.4,0.2-0.8,0.1-1
					c-0.1-0.2-0.2-0.5-0.6-0.8l0,0l-7.8-4.4c-0.6-0.3-1.4-0.1-1.7,0.5l-13.3,23.9c-0.3,0.6-0.9,1-1.5,1.2c-0.6,0.2-1.3,0.1-1.9-0.2
					l-9.1-5.1C407.1,84,406.9,83.9,406.7,83.9z"/>
			</g>
		</g>
		<g>
			<g>
				<g>
					<path class="st52" d="M141.2,759.2h-11.3c-1.4,0-2.5-1.1-2.5-2.5s1.1-2.5,2.5-2.5h11.3c1.4,0,2.5,1.1,2.5,2.5
						S142.6,759.2,141.2,759.2z"/>
				</g>
				<g>
					<path class="st52" d="M75.2,759.2H63.9c-1.4,0-2.5-1.1-2.5-2.5s1.1-2.5,2.5-2.5h11.3c1.4,0,2.5,1.1,2.5,2.5
						S76.6,759.2,75.2,759.2z"/>
				</g>
				<g>
					<path class="st52" d="M102.6,731.9c-1.4,0-2.5-1.1-2.5-2.5v-11.3c0-1.4,1.1-2.5,2.5-2.5s2.5,1.1,2.5,2.5v11.3
						C105.1,730.8,104,731.9,102.6,731.9z"/>
				</g>
				<g>
					<path class="st52" d="M80.1,740.8c-0.6,0-1.3-0.2-1.8-0.7l-8-8c-1-1-1-2.6,0-3.5c1-1,2.6-1,3.5,0l8,8c1,1,1,2.6,0,3.5
						C81.4,740.5,80.7,740.8,80.1,740.8z"/>
				</g>
				<g>
					<path class="st52" d="M125,740.8c-0.6,0-1.3-0.2-1.8-0.7c-1-1-1-2.6,0-3.5l8-8c1-1,2.6-1,3.5,0c1,1,1,2.6,0,3.5l-8,8
						C126.3,740.5,125.7,740.8,125,740.8z"/>
				</g>
				<g>
					<path class="st52" d="M73,784.9c-0.6,0-1.3-0.2-1.8-0.7c-1-1-1-2.6,0-3.5l8-8c1-1,2.5-1,3.5,0c1,1,1,2.6,0,3.5l-8,8
						C74.2,784.7,73.6,784.9,73,784.9z"/>
				</g>
				<g>
					<path class="st52" d="M138.6,784.2c-0.3,0-0.6,0-0.9-0.2l-38-13.9c-2.8-0.9-5-3.1-6-5.8c-1-2.8-0.8-5.8,0.7-8.4
						c1.5-2.6,4-4.3,7-4.7c2.9-0.5,5.9,0.4,8.1,2.4l30.7,26.2c0.9,0.8,1.1,2.1,0.5,3.2C140.3,783.7,139.5,784.2,138.6,784.2z
						 M103,756c-0.2,0-0.5,0-0.7,0.1c-1.4,0.2-2.7,1.1-3.4,2.3c-0.7,1.3-0.9,2.8-0.4,4.1c0.5,1.4,1.6,2.4,3,2.9l25,9.2l-20.2-17.3
						C105.3,756.4,104.2,756,103,756z"/>
				</g>
			</g>
			<g>
				<path class="st52" d="M114.5,813.3c-1.1,0-2.2-0.8-2.4-1.9c-0.3-1.3,0.5-2.7,1.9-3c23.2-5.2,40-26.3,40-50.1
					c0-28.3-23-51.3-51.3-51.3c-1.4,0-2.5-1.1-2.5-2.5s1.1-2.5,2.5-2.5c31.1,0,56.3,25.3,56.3,56.3c0,26.1-18.5,49.2-43.9,54.9
					C114.8,813.3,114.6,813.3,114.5,813.3z"/>
			</g>
			<g>
				<path class="st52" d="M102.6,814.6c-31.1,0-56.3-25.3-56.3-56.3c0-27.7,19.8-51.1,47.1-55.6c1.4-0.2,2.6,0.7,2.9,2.1
					c0.2,1.4-0.7,2.6-2.1,2.9c-24.9,4.1-42.9,25.4-42.9,50.7c0,28.3,23,51.3,51.3,51.3c1.4,0,2.5,1.1,2.5,2.5S104,814.6,102.6,814.6
					z"/>
			</g>
		</g>
		<g>
			<g>
				<path class="st52" d="M285,1043.5c-0.8,0-1.6-0.4-2-1l-4.6-6.4h-3.3c-4.1,0-7.4-3.3-7.4-7.4V1006c0-4.1,3.3-7.4,7.4-7.4h30.5
					c4.1,0,7.4,3.3,7.4,7.4v22.6c0,4.1-3.3,7.4-7.4,7.4h-13.9l-4.6,6.4C286.6,1043.1,285.8,1043.5,285,1043.5z M275.1,1003.5
					c-1.3,0-2.4,1.1-2.4,2.4v22.6c0,1.3,1.1,2.4,2.4,2.4h4.5c0.8,0,1.6,0.4,2,1l3.4,4.7l3.4-4.7c0.5-0.7,1.2-1,2-1h15.2
					c1.3,0,2.4-1.1,2.4-2.4V1006c0-1.3-1.1-2.4-2.4-2.4H275.1z"/>
			</g>
			<g>
				<path class="st52" d="M298.2,1019.8h-15.6c-1.4,0-2.5-1.1-2.5-2.5s1.1-2.5,2.5-2.5h15.6c1.4,0,2.5,1.1,2.5,2.5
					S299.5,1019.8,298.2,1019.8z"/>
			</g>
			<g>
				<path class="st52" d="M326.6,1040.8h-10.8c-1.4,0-2.5-1.1-2.5-2.5c0-1.4,1.1-2.5,2.5-2.5h10.8c1.4,0,2.5,1.1,2.5,2.5
					C329.1,1039.7,328,1040.8,326.6,1040.8z"/>
			</g>
			<g>
				<path class="st52" d="M324.1,1064C324.1,1064,324.1,1064,324.1,1064c-0.8,0-1.6-0.4-2-1l-4.6-6.4h-13.9c-4.1,0-7.4-3.3-7.4-7.4
					v-7.1c0-1.4,1.1-2.5,2.5-2.5s2.5,1.1,2.5,2.5v7.1c0,1.3,1.1,2.4,2.4,2.4h15.2c0.8,0,1.6,0.4,2,1l3.3,4.7l3.4-4.7
					c0.5-0.6,1.2-1,2-1h4.5c1.3,0,2.4-1.1,2.4-2.4v-22.6c0-1.3-1.1-2.4-2.4-2.4h-14.4c-1.4,0-2.5-1.1-2.5-2.5s1.1-2.5,2.5-2.5h14.4
					c4.1,0,7.4,3.3,7.4,7.4v22.6c0,4.1-3.3,7.4-7.4,7.4h-3.3l-4.7,6.4C325.6,1063.6,324.9,1064,324.1,1064z"/>
			</g>
		</g>
		<g>
			<g>
				<path class="st52" d="M660.7,70.2c-1,0-2-0.6-2.3-1.6c-1.6-4.4-2.4-9-2.4-13.7c0-22.1,18-40.1,40.1-40.1
					c14,0,26.8,7.1,34.2,19.1c0.7,1.2,0.4,2.7-0.8,3.4c-1.2,0.7-2.7,0.4-3.4-0.8c-6.5-10.5-17.7-16.7-29.9-16.7
					c-19.4,0-35.2,15.8-35.2,35.2c0,4.1,0.7,8.1,2.1,12c0.5,1.3-0.2,2.7-1.5,3.2C661.2,70.2,660.9,70.2,660.7,70.2z"/>
			</g>
			<g>
				<path class="st52" d="M696.1,95c-13.2,0-25.5-6.5-33-17.3c-0.8-1.1-0.5-2.7,0.6-3.5c1.1-0.8,2.7-0.5,3.5,0.6
					c6.6,9.5,17.4,15.2,28.9,15.2c19.4,0,35.2-15.8,35.2-35.2c0-3.3-0.5-6.6-1.4-9.7c-0.4-1.3,0.4-2.7,1.7-3.1
					c1.3-0.4,2.7,0.4,3.1,1.7c1,3.6,1.6,7.3,1.6,11.1C736.2,77,718.2,95,696.1,95z"/>
			</g>
			<g>
				<path class="st52" d="M685.3,78.8h-20.2c-1.4,0-2.5-1.1-2.5-2.5s1.1-2.5,2.5-2.5h20.2c2.2,0,3.9-1.8,3.9-3.9s-1.8-3.9-3.9-3.9
					c-5.4,0-9.8-4.4-9.8-9.8v-2.1c0-5.4,4.4-9.8,9.8-9.8h5.2c3.9,0,7.1-3.2,7.1-7.1v-1.4c0-3.3-1.7-6.4-4.5-8.2l-9.8-6.4
					c-1.2-0.8-1.5-2.3-0.7-3.4c0.8-1.2,2.3-1.5,3.4-0.7l9.8,6.4c4.2,2.7,6.7,7.4,6.7,12.4v1.4c0,6.7-5.4,12.1-12.1,12.1h-5.2
					c-2.7,0-4.8,2.2-4.8,4.8v2.1c0,2.7,2.2,4.8,4.8,4.8c4.9,0,8.9,4,8.9,8.9S690.2,78.8,685.3,78.8z"/>
			</g>
			<g>
				<path class="st52" d="M721.5,83.4c-1.4,0-2.5-1.1-2.5-2.5V68.3c0-2.3-1.9-4.2-4.2-4.2c-4.1,0-7.4-3.3-7.4-7.4V50
					c0-3.9,2.1-7.4,5.5-9.3l14-7.7c1.2-0.7,2.7-0.2,3.4,1c0.7,1.2,0.2,2.7-1,3.4l-14,7.7c-1.8,1-2.9,2.9-2.9,4.9v6.7
					c0,1.3,1.1,2.4,2.4,2.4c5,0,9.1,4.1,9.1,9.1v12.5C724,82.2,722.9,83.4,721.5,83.4z"/>
			</g>
		</g>
		<g>
			<g>
				<path class="st52" d="M76.7,682.9H37.2c-1.4,0-2.5-1.1-2.5-2.5s1.1-2.5,2.5-2.5h39.5c18.9,0,34.2-15.4,34.2-34.2
					c0-18.9-15.4-34.2-34.2-34.2c-3.7,0-7.3,0.6-10.7,1.7c-1.3,0.4-2.7-0.3-3.1-1.6c-0.4-1.3,0.3-2.7,1.6-3.1c3.9-1.3,8.1-2,12.3-2
					c21.6,0,39.2,17.6,39.2,39.2C115.9,665.3,98.3,682.9,76.7,682.9z"/>
			</g>
			<g>
				<path class="st52" d="M125.6,682.9h-16.4c-1.4,0-2.5-1.1-2.5-2.5s1.1-2.5,2.5-2.5h16.4c1.4,0,2.5,1.1,2.5,2.5
					S127,682.9,125.6,682.9z"/>
			</g>
			<g>
				<path class="st52" d="M49.4,670.7c-0.7,0-1.4-0.3-1.9-0.8c-6.5-7.2-10.1-16.5-10.1-26.3c0-11.5,5.1-22.4,13.9-29.9
					c1-0.9,2.6-0.8,3.5,0.3c0.9,1,0.8,2.6-0.3,3.5c-7.7,6.5-12.1,16-12.1,26.1c0,8.5,3.1,16.6,8.8,22.9c0.9,1,0.8,2.6-0.2,3.5
					C50.6,670.5,50,670.7,49.4,670.7z"/>
			</g>
			<g>
				<path class="st52" d="M34.8,689.9H20.7c-1.4,0-2.5-1.1-2.5-2.5v-14.1c0-1.4,1.1-2.5,2.5-2.5h14.1c1.4,0,2.5,1.1,2.5,2.5v14.1
					C37.3,688.8,36.2,689.9,34.8,689.9z M23.2,684.9h9.1v-9.1h-9.1V684.9z"/>
			</g>
			<g>
				<path class="st52" d="M122.4,691.5c-0.6,0-1.3-0.2-1.8-0.7c-1-1-1-2.6,0-3.5l6.5-6.5l-6.5-6.5c-1-1-1-2.6,0-3.5c1-1,2.5-1,3.5,0
					l8.3,8.3c1,1,1,2.6,0,3.5l-8.3,8.3C123.6,691.2,123,691.5,122.4,691.5z"/>
			</g>
			<g>
				<path class="st52" d="M72.5,618.3c-0.5,0-0.9-0.1-1.3-0.4l-9.9-6.3c-1.2-0.7-1.5-2.3-0.8-3.4l6.3-9.9c0.7-1.2,2.3-1.5,3.4-0.8
					c1.2,0.7,1.5,2.3,0.8,3.4l-4.9,7.8l7.8,4.9c1.2,0.7,1.5,2.3,0.8,3.4C74.2,617.9,73.4,618.3,72.5,618.3z"/>
			</g>
			<g>
				<path class="st52" d="M71.9,654.9L71.9,654.9c-0.7,0-1.3-0.3-1.8-0.7l-6.5-6.5c-1-1-1-2.6,0-3.5c1-1,2.6-1,3.5,0l4.7,4.7
					L86,634.8c1-1,2.5-1,3.5,0c1,1,1,2.6,0,3.5l-15.8,15.8C73.2,654.7,72.6,654.9,71.9,654.9z"/>
			</g>
		</g>
		<g>
			<g>
				<path class="st52" d="M784.4,89.9c-0.6,0-1.3-0.2-1.8-0.7l-5.6-5.6c-0.5-0.5-0.7-1.1-0.7-1.8c0-0.7,0.3-1.3,0.7-1.8l5.6-5.6
					c1-1,2.6-1,3.5,0c1,1,1,2.6,0,3.5l-3.8,3.8l3.8,3.8c1,1,1,2.6,0,3.5C785.7,89.7,785.1,89.9,784.4,89.9z"/>
			</g>
			<g>
				<path class="st52" d="M806.4,89.9c-0.6,0-1.3-0.2-1.8-0.7c-1-1-1-2.6,0-3.5l3.8-3.8l-3.8-3.8c-1-1-1-2.6,0-3.5c1-1,2.6-1,3.5,0
					l5.6,5.6c0.5,0.5,0.7,1.1,0.7,1.8c0,0.7-0.3,1.3-0.7,1.8l-5.6,5.6C807.7,89.7,807.1,89.9,806.4,89.9z"/>
			</g>
			<g>
				<path class="st52" d="M792.5,93c-0.3,0-0.5,0-0.8-0.1c-1.3-0.4-2-1.9-1.6-3.2l5.9-17.3c0.4-1.3,1.9-2,3.2-1.6
					c1.3,0.4,2,1.9,1.6,3.2l-5.9,17.3C794.5,92.4,793.5,93,792.5,93z"/>
			</g>
			<g>
				<path class="st52" d="M795.4,114.9c-18.2,0-33-14.8-33-33s14.8-33,33-33c18.2,0,33,14.8,33,33S813.6,114.9,795.4,114.9z
					 M795.4,53.9c-15.4,0-28,12.6-28,28s12.6,28,28,28c15.4,0,28-12.6,28-28S810.9,53.9,795.4,53.9z"/>
			</g>
			<g>
				<path class="st52" d="M826.4,122.7c-0.3,0-0.6,0-0.9,0c-2.9-0.3-5.6-1.8-7.3-4.2l-2-2.9c-0.8-1.1-0.5-2.7,0.6-3.5
					c1.1-0.8,2.7-0.5,3.5,0.6l2,2.9c0.8,1.2,2.2,2,3.6,2.1c1.5,0.1,2.9-0.4,3.9-1.4c1-1,1.5-2.5,1.4-3.9c-0.1-1.5-0.9-2.8-2.1-3.6
					l-9.3-6.4c-1.1-0.8-1.4-2.3-0.6-3.5c0.8-1.1,2.3-1.4,3.5-0.6l9.3,6.4c2.4,1.7,4,4.3,4.3,7.2c0.3,2.9-0.8,5.8-2.8,7.9
					C831.6,121.6,829,122.7,826.4,122.7z"/>
			</g>
		</g>
		<g>
			<g>
				<path class="st52" d="M206.8,413.1c-1.4,0-2.5-1.1-2.5-2.5v-15.3h-29.8c-1.4,0-2.5-1.1-2.5-2.5s1.1-2.5,2.5-2.5h32.3
					c1.4,0,2.5,1.1,2.5,2.5v17.8C209.2,412,208.1,413.1,206.8,413.1z"/>
			</g>
			<g>
				<path class="st52" d="M206.8,462h-47.5c-1.4,0-2.5-1.1-2.5-2.5V418c0-1.4,1.1-2.5,2.5-2.5s2.5,1.1,2.5,2.5v39h42.6v-6.1
					c0-1.4,1.1-2.5,2.5-2.5s2.5,1.1,2.5,2.5v8.6C209.2,460.9,208.1,462,206.8,462z"/>
			</g>
			<g>
				<path class="st52" d="M174.5,410.6h-15.3c-1,0-1.9-0.6-2.3-1.5c-0.4-0.9-0.2-2,0.5-2.7l15.3-15.3c0.7-0.7,1.8-0.9,2.7-0.5
					c0.9,0.4,1.5,1.3,1.5,2.3v15.3C177,409.4,175.9,410.6,174.5,410.6z M165.2,405.6h6.8v-6.8L165.2,405.6z"/>
			</g>
			<g>
				<g>
					<path class="st52" d="M189.9,445.7c-0.7,0-1.3-0.3-1.8-0.7c-0.6-0.6-0.8-1.4-0.7-2.3l3.8-18.3c0.1-0.5,0.3-0.9,0.7-1.3
						l30.4-30.4c1.6-1.6,3.7-2.5,5.9-2.5s4.3,0.9,5.9,2.5l6.2,6.2c1.6,1.6,2.5,3.7,2.5,5.9c0,2.2-0.9,4.3-2.5,5.9L210,441.2
						c-0.3,0.3-0.8,0.6-1.3,0.7l-18.3,3.8C190.3,445.7,190.1,445.7,189.9,445.7z M196,426.2l-2.9,13.8l13.8-2.9l29.9-29.9
						c0.6-0.6,1-1.5,1-2.4c0-0.9-0.4-1.8-1-2.4l-6.2-6.2c-1.3-1.3-3.5-1.3-4.8,0L196,426.2z M208.2,439.4L208.2,439.4L208.2,439.4z"
						/>
				</g>
				<g>
					<path class="st52" d="M208.2,441.9c-0.6,0-1.3-0.2-1.8-0.7L192,426.7c-1-1-1-2.6,0-3.5c1-1,2.5-1,3.5,0l14.5,14.5
						c1,1,1,2.6,0,3.5C209.5,441.7,208.9,441.9,208.2,441.9z"/>
				</g>
				<g>
					<path class="st52" d="M233.2,417c-0.6,0-1.3-0.2-1.8-0.7l-14.5-14.5c-1-1-1-2.6,0-3.5c1-1,2.5-1,3.5,0l14.5,14.5
						c1,1,1,2.6,0,3.5C234.4,416.7,233.8,417,233.2,417z"/>
				</g>
				<g>
					<path class="st52" d="M194.3,444.9c-0.6,0-1.2-0.2-1.7-0.7l-3.6-3.4c-1-0.9-1.1-2.5-0.1-3.5c0.9-1,2.5-1.1,3.5-0.1l3.6,3.4
						c1,0.9,1.1,2.5,0.1,3.5C195.6,444.6,195,444.9,194.3,444.9z"/>
				</g>
			</g>
			<g>
				<path class="st52" d="M183,421.2h-12.1c-1.4,0-2.5-1.1-2.5-2.5s1.1-2.5,2.5-2.5H183c1.4,0,2.5,1.1,2.5,2.5
					S184.4,421.2,183,421.2z"/>
			</g>
			<g>
				<path class="st52" d="M191.5,432.6h-20.6c-1.4,0-2.5-1.1-2.5-2.5s1.1-2.5,2.5-2.5h20.6c1.4,0,2.5,1.1,2.5,2.5
					S192.8,432.6,191.5,432.6z"/>
			</g>
			<g>
				<path class="st52" d="M189.9,445.7h-19c-1.4,0-2.5-1.1-2.5-2.5s1.1-2.5,2.5-2.5h19c1.4,0,2.5,1.1,2.5,2.5
					S191.3,445.7,189.9,445.7z"/>
			</g>
		</g>
		<g>
			<g>
				<path class="st52" d="M316.7,346c-0.4,0-0.8-0.1-1.2-0.3l-40.2-21c-1-0.5-1.6-1.7-1.3-2.9l11.9-44.5c6.8-21.3,17-37.5,30.3-48.4
					c1.1-0.9,2.6-0.7,3.5,0.3c0.9,1.1,0.7,2.6-0.3,3.5c-12.5,10.3-22.2,25.8-28.7,46l-11.3,42.5l36.7,19.1l28.4-33.7
					c23.5-30.8,27.7-60.8,12.3-89.1c-9.8,1.1-18.8,3.8-26.7,8.1c-1.2,0.7-2.7,0.2-3.4-1c-0.7-1.2-0.2-2.7,1-3.4
					c8.9-4.8,19.1-7.8,30.2-8.8c1-0.1,1.9,0.4,2.4,1.3c17.3,30.6,13.3,62.9-12,96.1l-29.8,35.3C318.1,345.7,317.4,346,316.7,346z"/>
			</g>
			<g>
				<path class="st52" d="M324.3,332.8c-0.4,0-0.8-0.1-1.2-0.3l-40.7-21.3c-1.2-0.6-1.7-2.1-1.1-3.4c0.6-1.2,2.1-1.7,3.4-1.1
					l40.7,21.3c1.2,0.6,1.7,2.1,1.1,3.4C326,332.3,325.2,332.8,324.3,332.8z"/>
			</g>
			<g>
				<path class="st52" d="M329.8,286.3c-2.7,0-5.4-0.7-7.9-1.9c-8.4-4.4-11.6-14.7-7.2-23.1c4.4-8.4,14.7-11.6,23.1-7.2
					c4,2.1,7,5.7,8.4,10c1.4,4.4,1,9-1.2,13v0c-2.1,4-5.7,7-10,8.4C333.3,286,331.6,286.3,329.8,286.3z M329.9,257.1
					c-4.4,0-8.6,2.4-10.8,6.5c-3.1,5.9-0.8,13.2,5.1,16.3c2.9,1.5,6.1,1.8,9.2,0.8c3.1-1,5.6-3.1,7.1-5.9c0,0,0,0,0,0
					c1.5-2.9,1.8-6.1,0.8-9.2c-1-3.1-3.1-5.6-5.9-7.1C333.7,257.5,331.8,257.1,329.9,257.1z"/>
			</g>
			<g>
				<path class="st52" d="M366.8,246.7c-0.4,0-0.8-0.1-1.2-0.3l-37.9-20.7c-1.2-0.7-1.7-2.2-1-3.4c0.7-1.2,2.2-1.7,3.4-1L368,242
					c1.2,0.7,1.7,2.2,1,3.4C368.5,246.2,367.7,246.7,366.8,246.7z"/>
			</g>
			<g>
				<path class="st52" d="M262.9,344.3c0,0-0.1,0-0.1,0c-0.9,0-1.6-0.5-2-1.3c-0.2-0.3-17.6-33.1,11.3-57.5c1.1-0.9,2.6-0.8,3.5,0.3
					c0.9,1.1,0.8,2.6-0.3,3.5c-20.2,17-15,38.7-11.8,47.4l11-15.7c0.8-1.1,2.3-1.4,3.5-0.6c1.1,0.8,1.4,2.3,0.6,3.5L265,343.2
					C264.5,343.9,263.7,344.3,262.9,344.3z"/>
			</g>
			<g>
				<path class="st52" d="M308.7,368.2c-0.8,0-1.5-0.3-2-1c-0.5-0.7-0.7-1.6-0.4-2.4l8.1-22.1c0.5-1.3,1.9-2,3.2-1.5
					c1.3,0.5,2,1.9,1.5,3.2l-6.6,18c9.1-2.2,30.4-10.4,32.3-38.1c0.1-1.4,1.3-2.4,2.7-2.3c1.4,0.1,2.4,1.3,2.3,2.7
					c-2.7,38.8-40.4,43.5-40.8,43.5C308.8,368.1,308.7,368.2,308.7,368.2z"/>
			</g>
		</g>
		<g>
			<g>
				<path class="st52" d="M515.3,376.5c-0.6,0-1.3-0.2-1.8-0.7l-3.2-3.2c-1-1-1-2.6,0-3.5c1-1,2.6-1,3.5,0l1.4,1.4l5.7-5.7
					c1-1,2.6-1,3.5,0c1,1,1,2.6,0,3.5l-7.5,7.5C516.6,376.3,515.9,376.5,515.3,376.5z"/>
			</g>
			<g>
				<path class="st52" d="M517.5,390.3c-11,0-20-9-20-20c0-11,9-20,20-20s20,9,20,20C537.5,381.3,528.5,390.3,517.5,390.3z
					 M517.5,355.3c-8.3,0-15,6.7-15,15s6.7,15,15,15s15-6.7,15-15S525.7,355.3,517.5,355.3z"/>
			</g>
			<g>
				<path class="st52" d="M569.7,376.5c-0.6,0-1.3-0.2-1.8-0.7l-3.2-3.2c-1-1-1-2.6,0-3.5c1-1,2.6-1,3.5,0l1.4,1.4l5.7-5.7
					c1-1,2.6-1,3.5,0c1,1,1,2.6,0,3.5l-7.5,7.5C571,376.3,570.4,376.5,569.7,376.5z"/>
			</g>
			<g>
				<path class="st52" d="M571.9,390.3c-11,0-20-9-20-20c0-11,9-20,20-20c11,0,20,9,20,20C591.9,381.3,582.9,390.3,571.9,390.3z
					 M571.9,355.3c-8.3,0-15,6.7-15,15s6.7,15,15,15s15-6.7,15-15S580.2,355.3,571.9,355.3z"/>
			</g>
			<g>
				<path class="st52" d="M554.4,372.8h-18.1c-1.4,0-2.5-1.1-2.5-2.5s1.1-2.5,2.5-2.5h18.1c1.4,0,2.5,1.1,2.5,2.5
					S555.8,372.8,554.4,372.8z"/>
			</g>
			<g>
				<path class="st52" d="M622.8,376.5c-0.6,0-1.3-0.2-1.8-0.7l-3.2-3.2c-1-1-1-2.6,0-3.5c1-1,2.6-1,3.5,0l1.4,1.4l5.7-5.7
					c1-1,2.6-1,3.5,0c1,1,1,2.6,0,3.5l-7.5,7.5C624.1,376.3,623.4,376.5,622.8,376.5z"/>
			</g>
			<g>
				<path class="st52" d="M625,390.3c-11,0-20-9-20-20c0-11,9-20,20-20c11,0,20,9,20,20C645,381.3,636,390.3,625,390.3z M625,355.3
					c-8.3,0-15,6.7-15,15s6.7,15,15,15s15-6.7,15-15S633.2,355.3,625,355.3z"/>
			</g>
			<g>
				<path class="st52" d="M607.5,372.8h-18.1c-1.4,0-2.5-1.1-2.5-2.5s1.1-2.5,2.5-2.5h18.1c1.4,0,2.5,1.1,2.5,2.5
					S608.8,372.8,607.5,372.8z"/>
			</g>
		</g>
		<g>
			<path class="st52" d="M1047.7,305.1c-0.7,0-1.4-0.3-1.9-0.9l-14.2-16.8l-7.3,6.1c-0.7,0.5-1.6,0.7-2.4,0.4
				c-0.8-0.3-1.4-0.9-1.6-1.8l-8.4-33.5c-0.3-1.1,0.2-2.2,1.2-2.8c1-0.5,2.2-0.4,3,0.5l13.2,13.8l7.4-6.2c0.7-0.5,1.5-0.7,2.4-0.4
				c0.8,0.3,1.4,0.9,1.6,1.8l9.4,36.7c0.3,1.1-0.2,2.3-1.3,2.8C1048.5,305,1048.1,305.1,1047.7,305.1z M1032,281.4
				c0.7,0,1.4,0.3,1.9,0.9l8.7,10.4l-5.7-22.4l-6.2,5.1c-1,0.8-2.5,0.7-3.4-0.2l-8.3-8.7l5.1,20.5l6.2-5.1
				C1030.8,281.5,1031.4,281.4,1032,281.4z"/>
		</g>
		<g>
			<g>
				<path class="st52" d="M213.4,730.7c-18.2,0-33-14.8-33-33c0-18.2,14.8-33,33-33s33,14.8,33,33
					C246.4,715.9,231.6,730.7,213.4,730.7z M213.4,669.8c-15.4,0-28,12.5-28,28c0,15.4,12.5,28,28,28s28-12.5,28-28
					C241.4,682.3,228.8,669.8,213.4,669.8z"/>
			</g>
			<g>
				<path class="st52" d="M244.3,738.5c-0.3,0-0.6,0-0.9,0c-2.9-0.3-5.6-1.8-7.3-4.2l-2.5-3.7c-0.8-1.1-0.5-2.7,0.6-3.5
					c1.1-0.8,2.7-0.5,3.5,0.6l2.5,3.7c0.8,1.2,2.2,2,3.6,2.1c1.5,0.1,2.9-0.4,3.9-1.4c1-1,1.5-2.5,1.4-3.9c-0.1-1.5-0.9-2.8-2.1-3.6
					l-9.3-6.4c-1.1-0.8-1.4-2.3-0.6-3.5c0.8-1.1,2.3-1.4,3.5-0.6l9.3,6.4c2.4,1.7,4,4.3,4.2,7.2c0.3,2.9-0.8,5.8-2.8,7.9
					C249.5,737.4,247,738.5,244.3,738.5z"/>
			</g>
			<g>
				<path class="st52" d="M213.4,713.9c-7.6,0-14.7-5.4-19-14.5c-0.6-1.2-0.1-2.7,1.2-3.3c1.2-0.6,2.7-0.1,3.3,1.2
					c3.5,7.3,8.9,11.7,14.5,11.7c5.5,0,10.8-4.1,14.2-11.1c-3.5-7-8.8-11.1-14.2-11.1c-4.8,0-8.4,3-10.5,5.5c-0.9,1-2.5,1.1-3.5,0.2
					c-1-0.9-1.1-2.5-0.2-3.5c4.1-4.7,9-7.2,14.3-7.2c7.6,0,14.7,5.4,19,14.5c0.5,1,0.5,2.2,0,3.2C228.1,708.4,221,713.9,213.4,713.9
					z M227.9,698.3C227.9,698.3,227.9,698.3,227.9,698.3C227.9,698.3,227.9,698.3,227.9,698.3z"/>
			</g>
			<g>
				<path class="st52" d="M213.4,702.7c-2.7,0-4.9-2.2-4.9-4.9c0-2.7,2.2-4.9,4.9-4.9s4.9,2.2,4.9,4.9
					C218.3,700.5,216.1,702.7,213.4,702.7z M213.4,697.8C213.4,697.8,213.4,697.8,213.4,697.8L213.4,697.8z"/>
			</g>
		</g>
		<g>
			<g>
				<path class="st52" d="M174.2,605.8h-42.7c-5.1,0-9.2-4.1-9.2-9.2v-36c0-5.1,4.1-9.2,9.2-9.2c1.4,0,2.5,1.1,2.5,2.5
					s-1.1,2.5-2.5,2.5c-2.4,0-4.3,1.9-4.3,4.3v36c0,2.4,1.9,4.3,4.3,4.3h42.7c1.4,0,2.5,1.1,2.5,2.5S175.6,605.8,174.2,605.8z"/>
			</g>
			<g>
				<path class="st52" d="M186.8,605.8c-1.4,0-2.5-1.1-2.5-2.5s1.1-2.5,2.5-2.5c2.4,0,4.3-1.9,4.3-4.3v-36c0-2.4-1.9-4.3-4.3-4.3
					h-55.3c-1.4,0-2.5-1.1-2.5-2.5s1.1-2.5,2.5-2.5h55.3c5.1,0,9.2,4.1,9.2,9.2v36C196.1,601.6,191.9,605.8,186.8,605.8z"/>
			</g>
			<g>
				<path class="st52" d="M172.1,588.8c-0.7,0-1.5-0.3-2-1c-0.9-1.1-0.7-2.6,0.4-3.5l7.4-5.8l-7.4-5.8c-1.1-0.9-1.3-2.4-0.4-3.5
					c0.9-1.1,2.4-1.3,3.5-0.4l9.9,7.8c0.6,0.5,1,1.2,1,2c0,0.8-0.4,1.5-1,2l-9.9,7.8C173.2,588.6,172.6,588.8,172.1,588.8z"/>
			</g>
			<g>
				<path class="st52" d="M146.3,588.8c-0.5,0-1.1-0.2-1.5-0.5l-9.9-7.8c-0.6-0.5-1-1.2-1-2c0-0.8,0.4-1.5,1-2l9.9-7.8
					c1.1-0.9,2.6-0.7,3.5,0.4c0.9,1.1,0.7,2.6-0.4,3.5l-7.4,5.8l7.4,5.8c1.1,0.9,1.3,2.4,0.4,3.5
					C147.8,588.5,147.1,588.8,146.3,588.8z"/>
			</g>
			<g>
				<path class="st52" d="M154.6,592.7c-0.3,0-0.6-0.1-1-0.2c-1.3-0.5-1.9-2-1.3-3.3l9.8-23.3c0.5-1.3,2-1.9,3.3-1.3
					c1.3,0.5,1.9,2,1.3,3.3l-9.8,23.3C156.5,592.1,155.6,592.7,154.6,592.7z"/>
			</g>
		</g>
		<g>
			<g>
				<path class="st52" d="M341.7,973.8c-6,0-10.8-4.9-10.8-10.8c0-6,4.9-10.8,10.8-10.8c6,0,10.8,4.9,10.8,10.8
					C352.5,969,347.7,973.8,341.7,973.8z M341.7,957.1c-3.2,0-5.9,2.6-5.9,5.9c0,3.2,2.6,5.9,5.9,5.9c3.2,0,5.9-2.6,5.9-5.9
					C347.5,959.8,344.9,957.1,341.7,957.1z"/>
			</g>
			<g>
				<path class="st52" d="M362.5,965.5H350c-1.4,0-2.5-1.1-2.5-2.5s1.1-2.5,2.5-2.5h12.5c1.4,0,2.5,1.1,2.5,2.5
					S363.9,965.5,362.5,965.5z"/>
			</g>
			<g>
				<path class="st52" d="M333.3,965.5h-12.5c-1.4,0-2.5-1.1-2.5-2.5s1.1-2.5,2.5-2.5h12.5c1.4,0,2.5,1.1,2.5,2.5
					S334.7,965.5,333.3,965.5z"/>
			</g>
		</g>
		<g>
			<g>
				<path class="st52" d="M251,381.1c-6,0-10.8-4.9-10.8-10.8c0-6,4.9-10.8,10.8-10.8s10.8,4.9,10.8,10.8
					C261.8,376.3,257,381.1,251,381.1z M251,364.4c-3.2,0-5.9,2.6-5.9,5.9c0,3.2,2.6,5.9,5.9,5.9c3.2,0,5.9-2.6,5.9-5.9
					C256.8,367.1,254.2,364.4,251,364.4z"/>
			</g>
			<g>
				<path class="st52" d="M271.9,372.8h-12.5c-1.4,0-2.5-1.1-2.5-2.5s1.1-2.5,2.5-2.5h12.5c1.4,0,2.5,1.1,2.5,2.5
					S273.2,372.8,271.9,372.8z"/>
			</g>
			<g>
				<path class="st52" d="M242.6,372.8h-12.5c-1.4,0-2.5-1.1-2.5-2.5s1.1-2.5,2.5-2.5h12.5c1.4,0,2.5,1.1,2.5,2.5
					S244,372.8,242.6,372.8z"/>
			</g>
		</g>
		<g>
			<g>
				<path class="st52" d="M384.2,180.2c-6,0-10.8-4.9-10.8-10.8c0-6,4.9-10.8,10.8-10.8c6,0,10.8,4.9,10.8,10.8
					C395,175.4,390.1,180.2,384.2,180.2z M384.2,163.5c-3.2,0-5.9,2.6-5.9,5.9c0,3.2,2.6,5.9,5.9,5.9c3.2,0,5.9-2.6,5.9-5.9
					C390,166.2,387.4,163.5,384.2,163.5z"/>
			</g>
			<g>
				<path class="st52" d="M405,171.9h-12.5c-1.4,0-2.5-1.1-2.5-2.5s1.1-2.5,2.5-2.5H405c1.4,0,2.5,1.1,2.5,2.5
					S406.4,171.9,405,171.9z"/>
			</g>
			<g>
				<path class="st52" d="M375.8,171.9h-12.5c-1.4,0-2.5-1.1-2.5-2.5s1.1-2.5,2.5-2.5h12.5c1.4,0,2.5,1.1,2.5,2.5
					S377.2,171.9,375.8,171.9z"/>
			</g>
		</g>
		<g>
			<g>
				<path class="st52" d="M965.2,312.9c-6,0-10.8-4.9-10.8-10.8c0-6,4.9-10.8,10.8-10.8s10.8,4.9,10.8,10.8
					C976,308.1,971.2,312.9,965.2,312.9z M965.2,296.2c-3.2,0-5.9,2.6-5.9,5.9c0,3.2,2.6,5.9,5.9,5.9s5.9-2.6,5.9-5.9
					C971,298.9,968.4,296.2,965.2,296.2z"/>
			</g>
			<g>
				<path class="st52" d="M986.1,304.6h-12.5c-1.4,0-2.5-1.1-2.5-2.5c0-1.4,1.1-2.5,2.5-2.5h12.5c1.4,0,2.5,1.1,2.5,2.5
					C988.5,303.5,987.4,304.6,986.1,304.6z"/>
			</g>
			<g>
				<path class="st52" d="M956.8,304.6h-12.5c-1.4,0-2.5-1.1-2.5-2.5c0-1.4,1.1-2.5,2.5-2.5h12.5c1.4,0,2.5,1.1,2.5,2.5
					C959.3,303.5,958.2,304.6,956.8,304.6z"/>
			</g>
		</g>
		<g>
			<g>
				<path class="st52" d="M956.8,846.7c-6,0-10.8-4.9-10.8-10.8c0-6,4.9-10.8,10.8-10.8c6,0,10.8,4.9,10.8,10.8
					C967.7,841.9,962.8,846.7,956.8,846.7z M956.8,830c-3.2,0-5.9,2.6-5.9,5.9c0,3.2,2.6,5.9,5.9,5.9c3.2,0,5.9-2.6,5.9-5.9
					C962.7,832.7,960.1,830,956.8,830z"/>
			</g>
			<g>
				<path class="st52" d="M977.7,838.4h-12.5c-1.4,0-2.5-1.1-2.5-2.5s1.1-2.5,2.5-2.5h12.5c1.4,0,2.5,1.1,2.5,2.5
					S979.1,838.4,977.7,838.4z"/>
			</g>
			<g>
				<path class="st52" d="M948.5,838.4H936c-1.4,0-2.5-1.1-2.5-2.5s1.1-2.5,2.5-2.5h12.5c1.4,0,2.5,1.1,2.5,2.5
					S949.9,838.4,948.5,838.4z"/>
			</g>
		</g>
		<g>
			<g>
				<path class="st52" d="M680.3,1112.4h-30.5c-6.3,0-11.5-5.1-11.5-11.5v-30.5c0-6.3,5.1-11.5,11.5-11.5h30.5
					c6.3,0,11.5,5.1,11.5,11.5v30.5C691.8,1107.2,686.6,1112.4,680.3,1112.4z M649.9,1064c-3.6,0-6.5,2.9-6.5,6.5v30.5
					c0,3.6,2.9,6.5,6.5,6.5h30.5c3.6,0,6.5-2.9,6.5-6.5v-30.5c0-3.6-2.9-6.5-6.5-6.5H649.9z"/>
			</g>
			<g>
				<path class="st52" d="M651.7,1098.1c-0.7,0-1.3-0.3-1.8-0.8c-1-1-0.9-2.6,0.1-3.5l8.5-8.2l-8.5-8.2c-1-1-1-2.5-0.1-3.5
					c1-1,2.5-1,3.5-0.1l10.4,10c0.5,0.5,0.8,1.1,0.8,1.8c0,0.7-0.3,1.3-0.8,1.8l-10.4,10C653,1097.9,652.3,1098.1,651.7,1098.1z"/>
			</g>
			<g>
				<path class="st52" d="M678.5,1098.1h-9.3c-1.4,0-2.5-1.1-2.5-2.5c0-1.4,1.1-2.5,2.5-2.5h9.3c1.4,0,2.5,1.1,2.5,2.5
					C681,1097,679.8,1098.1,678.5,1098.1z"/>
			</g>
		</g>
		<g>
			<g>
				<g>
					<path class="st52" d="M554.4,1102.1h-28.3c-1.4,0-2.5-1.1-2.5-2.5c0-1.4,1.1-2.5,2.5-2.5h28.3c1.4,0,2.5,1.1,2.5,2.5
						C556.9,1101,555.8,1102.1,554.4,1102.1z"/>
				</g>
				<g>
					<path class="st52" d="M553.7,1113.1h-27.5c-1.4,0-2.5-1.1-2.5-2.5c0-1.4,1.1-2.5,2.5-2.5h27.5c1.4,0,2.5,1.1,2.5,2.5
						C556.2,1112,555.1,1113.1,553.7,1113.1z"/>
				</g>
				<g>
					<path class="st52" d="M539.9,1124.1c-0.1,0-0.2,0-0.4,0c-9.3-0.2-16.7-7.9-16.5-17.2l0.2-8c0-1.6-0.8-3.2-2.2-4.3
						c-4.5-3.4-8.1-7.9-10.4-13c-0.6-1.3,0-2.7,1.3-3.3c1.3-0.6,2.7,0,3.3,1.3c1.9,4.4,5,8.2,8.8,11c2.7,2,4.2,5.1,4.2,8.4l-0.2,8
						c-0.1,6.5,5.1,12,11.6,12.1c6.6,0.1,12-5.1,12.1-11.6l0.2-8c0-1.4,1.2-2.5,2.5-2.4c1.4,0,2.5,1.2,2.4,2.5l-0.2,8
						C556.6,1116.7,549.1,1124.1,539.9,1124.1z"/>
				</g>
				<g>
					<path class="st52" d="M569.3,1060.2c-1,0-2-0.6-2.3-1.6c-4-10.7-13.9-17.8-25.3-18.2c-4.5-0.1-9,0.8-13,2.8
						c-1.2,0.6-2.7,0.1-3.3-1.1c-0.6-1.2-0.1-2.7,1.1-3.3c4.8-2.3,10.1-3.5,15.4-3.3c13.4,0.4,25.1,8.8,29.8,21.5
						c0.5,1.3-0.2,2.7-1.5,3.2C569.9,1060.1,569.6,1060.2,569.3,1060.2z"/>
				</g>
			</g>
			<g>
				<path class="st52" d="M566.6,1101c-10.2,0-18.6-8.3-18.6-18.6s8.3-18.6,18.6-18.6c10.2,0,18.6,8.3,18.6,18.6
					S576.8,1101,566.6,1101z M566.6,1068.9c-7.5,0-13.6,6.1-13.6,13.6s6.1,13.6,13.6,13.6c7.5,0,13.6-6.1,13.6-13.6
					S574.1,1068.9,566.6,1068.9z"/>
			</g>
			<g>
				<path class="st52" d="M566.8,1083.1c-2.5,0-4.6-2-4.6-4.6s2-4.6,4.6-4.6s4.6,2,4.6,4.6S569.3,1083.1,566.8,1083.1z
					 M566.8,1078.1c-0.2,0-0.4,0.2-0.4,0.4c0,0.2,0.2,0.4,0.4,0.4c0.2,0,0.4-0.2,0.4-0.4C567.2,1078.3,567,1078.1,566.8,1078.1z"/>
			</g>
			<g>
				<path class="st52" d="M558.2,1096.9c-0.3,0-0.6,0-0.8-0.1c-1.3-0.5-2-1.9-1.5-3.2c1.7-4.6,6.1-7.7,10.9-7.7
					c4.7,0,8.9,2.8,10.7,7.1c0.5,1.3-0.1,2.7-1.3,3.3c-1.3,0.5-2.7-0.1-3.3-1.3c-1-2.5-3.5-4.1-6.1-4.1c-2.8,0-5.3,1.8-6.3,4.4
					C560.1,1096.3,559.2,1096.9,558.2,1096.9z"/>
			</g>
			<g>
				<path class="st52" d="M515,1072.5c-10.2,0-18.6-8.3-18.6-18.6s8.3-18.6,18.6-18.6c10.2,0,18.6,8.3,18.6,18.6
					S525.2,1072.5,515,1072.5z M515,1040.3c-7.5,0-13.6,6.1-13.6,13.6c0,7.5,6.1,13.6,13.6,13.6c7.5,0,13.6-6.1,13.6-13.6
					C528.6,1046.4,522.5,1040.3,515,1040.3z"/>
			</g>
			<g>
				<path class="st52" d="M515.2,1054.5c-2.5,0-4.6-2-4.6-4.6s2-4.6,4.6-4.6c2.5,0,4.6,2,4.6,4.6S517.7,1054.5,515.2,1054.5z
					 M515.2,1049.5c-0.2,0-0.4,0.2-0.4,0.4s0.2,0.4,0.4,0.4c0.2,0,0.4-0.2,0.4-0.4S515.4,1049.5,515.2,1049.5z"/>
			</g>
			<g>
				<path class="st52" d="M506.6,1068.4c-0.3,0-0.6,0-0.8-0.1c-1.3-0.5-2-1.9-1.5-3.2c1.7-4.6,6.1-7.7,10.9-7.7
					c4.7,0,8.9,2.8,10.7,7.1c0.5,1.3-0.1,2.7-1.3,3.3c-1.3,0.5-2.7-0.1-3.3-1.3c-1-2.5-3.5-4.1-6.1-4.1c-2.8,0-5.3,1.8-6.3,4.4
					C508.6,1067.7,507.6,1068.4,506.6,1068.4z"/>
			</g>
		</g>
		<g>
			<path class="st52" d="M905.8,1005c-0.9,0-1.8-0.5-2.3-1.4l-8.3-17.7l-11.5,8c-0.7,0.5-1.7,0.6-2.5,0.2c-0.8-0.4-1.3-1.1-1.4-2
				l-5.5-52.7c-0.1-0.9,0.3-1.8,1.1-2.3s1.7-0.6,2.5-0.2l47,23.9c0.8,0.4,1.3,1.2,1.4,2.1c0.1,0.9-0.3,1.7-1.1,2.2l-12.6,8.8
				l14.1,13.6c0.5,0.5,0.8,1.2,0.8,2c-0.1,0.7-0.5,1.4-1.1,1.8l-11.6,8c-1.1,0.8-2.7,0.5-3.5-0.6c-0.8-1.1-0.5-2.7,0.6-3.5l9.1-6.3
				L907,975.3c-0.5-0.5-0.8-1.3-0.8-2c0.1-0.7,0.5-1.4,1.1-1.8l11.7-8.1l-39.2-19.9l4.6,43.9l10.5-7.3c0.6-0.4,1.4-0.5,2.1-0.4
				c0.7,0.2,1.3,0.7,1.6,1.3l9.5,20.4c0.6,1.2,0,2.7-1.2,3.3C906.5,1004.9,906.2,1005,905.8,1005z"/>
		</g>
		<g>
			<g>
				<path class="st52" d="M519,1013.5c-1.4,0-2.5-1.1-2.5-2.5v-17.8c0-1.4,1.1-2.5,2.5-2.5s2.5,1.1,2.5,2.5v17.8
					C521.5,1012.4,520.4,1013.5,519,1013.5z"/>
			</g>
			<g>
				<path class="st52" d="M527.9,1004.6h-17.8c-1.4,0-2.5-1.1-2.5-2.5s1.1-2.5,2.5-2.5h17.8c1.4,0,2.5,1.1,2.5,2.5
					S529.3,1004.6,527.9,1004.6z"/>
			</g>
		</g>
		<g>
			<g>
				<path class="st52" d="M181.9,800.2c-1.4,0-2.5-1.1-2.5-2.5V780c0-1.4,1.1-2.5,2.5-2.5c1.4,0,2.5,1.1,2.5,2.5v17.8
					C184.4,799.1,183.3,800.2,181.9,800.2z"/>
			</g>
			<g>
				<path class="st52" d="M190.8,791.3H173c-1.4,0-2.5-1.1-2.5-2.5s1.1-2.5,2.5-2.5h17.8c1.4,0,2.5,1.1,2.5,2.5
					S192.2,791.3,190.8,791.3z"/>
			</g>
		</g>
		<g>
			<g>
				<path class="st52" d="M710,135.1c-1.4,0-2.5-1.1-2.5-2.5v-17.8c0-1.4,1.1-2.5,2.5-2.5s2.5,1.1,2.5,2.5v17.8
					C712.5,134,711.3,135.1,710,135.1z"/>
			</g>
			<g>
				<path class="st52" d="M718.9,126.2h-17.8c-1.4,0-2.5-1.1-2.5-2.5s1.1-2.5,2.5-2.5h17.8c1.4,0,2.5,1.1,2.5,2.5
					S720.2,126.2,718.9,126.2z"/>
			</g>
		</g>
		<g>
			<g>
				<path class="st52" d="M943.7,952.9c-1.4,0-2.5-1.1-2.5-2.5v-17.8c0-1.4,1.1-2.5,2.5-2.5s2.5,1.1,2.5,2.5v17.8
					C946.2,951.8,945.1,952.9,943.7,952.9z"/>
			</g>
			<g>
				<path class="st52" d="M952.6,944.1h-17.8c-1.4,0-2.5-1.1-2.5-2.5s1.1-2.5,2.5-2.5h17.8c1.4,0,2.5,1.1,2.5,2.5
					S954,944.1,952.6,944.1z"/>
			</g>
		</g>
		<g>
			<g>
				<path class="st52" d="M1118.3,541.2c-1.4,0-2.5-1.1-2.5-2.5v-17.8c0-1.4,1.1-2.5,2.5-2.5c1.4,0,2.5,1.1,2.5,2.5v17.8
					C1120.8,540.1,1119.7,541.2,1118.3,541.2z"/>
			</g>
			<g>
				<path class="st52" d="M1127.2,532.3h-17.8c-1.4,0-2.5-1.1-2.5-2.5s1.1-2.5,2.5-2.5h17.8c1.4,0,2.5,1.1,2.5,2.5
					S1128.6,532.3,1127.2,532.3z"/>
			</g>
		</g>
		<g>
			<g>
				<path class="st52" d="M753.4,1088c-1.4,0-2.5-1.1-2.5-2.5v-17.8c0-1.4,1.1-2.5,2.5-2.5s2.5,1.1,2.5,2.5v17.8
					C755.9,1086.9,754.8,1088,753.4,1088z"/>
			</g>
			<g>
				<path class="st52" d="M762.3,1079.2h-17.8c-1.4,0-2.5-1.1-2.5-2.5c0-1.4,1.1-2.5,2.5-2.5h17.8c1.4,0,2.5,1.1,2.5,2.5
					C764.8,1078,763.7,1079.2,762.3,1079.2z"/>
			</g>
		</g>
		<g>
			<g>
				<path class="st52" d="M903.6,271.9c-1.4,0-2.5-1.1-2.5-2.5v-17.8c0-1.4,1.1-2.5,2.5-2.5s2.5,1.1,2.5,2.5v17.8
					C906.1,270.8,905,271.9,903.6,271.9z"/>
			</g>
			<g>
				<path class="st52" d="M912.5,263h-17.8c-1.4,0-2.5-1.1-2.5-2.5s1.1-2.5,2.5-2.5h17.8c1.4,0,2.5,1.1,2.5,2.5S913.9,263,912.5,263
					z"/>
			</g>
		</g>
		<g>
			<g>
				<path class="st52" d="M186.6,515.8c-1.4,0-2.5-1.1-2.5-2.5v-17.8c0-1.4,1.1-2.5,2.5-2.5s2.5,1.1,2.5,2.5v17.8
					C189.1,514.7,188,515.8,186.6,515.8z"/>
			</g>
			<g>
				<path class="st52" d="M186.6,506.9h-8.9c-1.4,0-2.5-1.1-2.5-2.5s1.1-2.5,2.5-2.5h8.9c1.4,0,2.5,1.1,2.5,2.5
					S188,506.9,186.6,506.9z"/>
			</g>
			<g>
				<path class="st52" d="M195.5,506.9h-8.9c-1.4,0-2.5-1.1-2.5-2.5s1.1-2.5,2.5-2.5h8.9c1.4,0,2.5,1.1,2.5,2.5
					S196.9,506.9,195.5,506.9z"/>
			</g>
		</g>
		<g>
			<g>
				<path class="st52" d="M294.2,952.2c-1.4,0-2.5-1.1-2.5-2.5v-17.8c0-1.4,1.1-2.5,2.5-2.5s2.5,1.1,2.5,2.5v17.8
					C296.7,951.1,295.6,952.2,294.2,952.2z"/>
			</g>
			<g>
				<path class="st52" d="M294.2,943.3h-8.9c-1.4,0-2.5-1.1-2.5-2.5s1.1-2.5,2.5-2.5h8.9c1.4,0,2.5,1.1,2.5,2.5
					S295.6,943.3,294.2,943.3z"/>
			</g>
			<g>
				<path class="st52" d="M303.1,943.3h-8.9c-1.4,0-2.5-1.1-2.5-2.5s1.1-2.5,2.5-2.5h8.9c1.4,0,2.5,1.1,2.5,2.5
					S304.4,943.3,303.1,943.3z"/>
			</g>
		</g>
		<g>
			<path class="st52" d="M173.8,373.6C173.8,373.6,173.7,373.6,173.8,373.6c-0.9,0-1.7-0.5-2.2-1.3l-10.5-18.9
				c-0.4-0.8-0.4-1.7,0-2.5c0.5-0.8,1.3-1.2,2.2-1.2l21.7,0.3c0.9,0,1.7,0.5,2.1,1.3c0.4,0.8,0.4,1.7,0,2.5l-11.3,18.6
				C175.5,373.2,174.6,373.6,173.8,373.6z M167.6,354.8l6.3,11.4l6.8-11.2L167.6,354.8z"/>
		</g>
		<g>
			<path class="st52" d="M173.8,373.6C173.8,373.6,173.7,373.6,173.8,373.6c-0.9,0-1.7-0.5-2.2-1.3l-10.5-18.9
				c-0.4-0.8-0.4-1.7,0-2.5c0.5-0.8,1.3-1.2,2.2-1.2l21.7,0.3c0.9,0,1.7,0.5,2.1,1.3c0.4,0.8,0.4,1.7,0,2.5l-11.3,18.6
				C175.5,373.2,174.6,373.6,173.8,373.6z M167.6,354.8l6.3,11.4l6.8-11.2L167.6,354.8z"/>
		</g>
		<g>
			<path class="st52" d="M377.3,939.7C377.3,939.7,377.3,939.7,377.3,939.7c-0.9,0-1.7-0.5-2.2-1.3l-10.5-18.9
				c-0.4-0.8-0.4-1.7,0-2.5c0.5-0.8,1.3-1.2,2.2-1.2l21.7,0.3c0.9,0,1.7,0.5,2.1,1.3c0.4,0.8,0.4,1.7,0,2.5l-11.3,18.6
				C379,939.3,378.2,939.7,377.3,939.7z M371.1,920.9l6.3,11.4l6.8-11.2L371.1,920.9z"/>
		</g>
		<g>
			<path class="st52" d="M362.6,1082.2c-0.2,0-0.5,0-0.7-0.1c-0.9-0.3-1.5-0.9-1.7-1.8l-5.1-21c-0.2-0.9,0.1-1.8,0.7-2.4
				c0.6-0.6,1.6-0.8,2.4-0.6l20.9,6.1c0.9,0.2,1.5,0.9,1.7,1.8c0.2,0.9-0.1,1.8-0.7,2.4l-15.8,14.9
				C363.8,1081.9,363.2,1082.2,362.6,1082.2z M360.9,1062.3l3.1,12.6l9.5-9L360.9,1062.3z"/>
		</g>
		<g>
			<path class="st52" d="M186.6,880.1c-0.4,0-0.8-0.1-1.2-0.3l-19.2-10.2c-0.8-0.4-1.3-1.2-1.3-2.1c0-0.9,0.4-1.7,1.2-2.2l18.2-11.6
				c0.8-0.5,1.7-0.5,2.5-0.1c0.8,0.4,1.3,1.2,1.3,2.1l1,21.7c0,0.9-0.4,1.7-1.2,2.2C187.5,880,187,880.1,186.6,880.1z M172.3,867.3
				l11.6,6.1l-0.6-13.1L172.3,867.3z"/>
		</g>
		<g>
			<path class="st52" d="M1029.5,751.8c-0.1,0-0.1,0-0.2,0c-0.9-0.1-1.7-0.6-2.1-1.4l-9.3-19.7c-0.4-0.8-0.3-1.7,0.2-2.5
				c0.5-0.7,1.4-1.1,2.2-1.1l21.5,1.7c0.9,0.1,1.7,0.6,2,1.4c0.4,0.8,0.3,1.7-0.2,2.5l-12.3,18
				C1031.1,751.4,1030.3,751.8,1029.5,751.8z M1024.4,732.4l5.6,11.9l7.4-10.8L1024.4,732.4z"/>
		</g>
		<g>
			<path class="st52" d="M135.8,268.9c-4.6,0-8.4-3.8-8.4-8.4c0-4.6,3.8-8.4,8.4-8.4c4.6,0,8.4,3.8,8.4,8.4
				C144.3,265.2,140.5,268.9,135.8,268.9z M135.8,257.1c-1.9,0-3.4,1.5-3.4,3.4s1.5,3.4,3.4,3.4s3.4-1.5,3.4-3.4
				S137.7,257.1,135.8,257.1z"/>
		</g>
		<g>
			<path class="st52" d="M900.9,416.5c-4.6,0-8.4-3.8-8.4-8.4c0-4.6,3.8-8.4,8.4-8.4s8.4,3.8,8.4,8.4
				C909.4,412.7,905.6,416.5,900.9,416.5z M900.9,404.6c-1.9,0-3.4,1.5-3.4,3.4s1.5,3.4,3.4,3.4s3.4-1.5,3.4-3.4
				S902.8,404.6,900.9,404.6z"/>
		</g>
		<g>
			<path class="st52" d="M813.1,933.6c-4.6,0-8.4-3.8-8.4-8.4c0-4.6,3.8-8.4,8.4-8.4c4.6,0,8.4,3.8,8.4,8.4
				C821.5,929.8,817.7,933.6,813.1,933.6z M813.1,921.8c-1.9,0-3.4,1.5-3.4,3.4s1.5,3.4,3.4,3.4s3.4-1.5,3.4-3.4
				S815,921.8,813.1,921.8z"/>
		</g>
		<g>
			<path class="st52" d="M499.7,66.4c-4.6,0-8.4-3.8-8.4-8.4s3.8-8.4,8.4-8.4c4.6,0,8.4,3.8,8.4,8.4S504.3,66.4,499.7,66.4z
				 M499.7,54.6c-1.9,0-3.4,1.5-3.4,3.4c0,1.9,1.5,3.4,3.4,3.4s3.4-1.5,3.4-3.4C503.1,56.1,501.6,54.6,499.7,54.6z"/>
		</g>
		<g>
			<path class="st52" d="M613.7,1079.2c-4.6,0-8.4-3.8-8.4-8.4c0-4.6,3.8-8.4,8.4-8.4c4.6,0,8.4,3.8,8.4,8.4
				C622.2,1075.4,618.4,1079.2,613.7,1079.2z M613.7,1067.3c-1.9,0-3.4,1.5-3.4,3.4c0,1.9,1.5,3.4,3.4,3.4c1.9,0,3.4-1.5,3.4-3.4
				C617.2,1068.8,615.6,1067.3,613.7,1067.3z"/>
		</g>
		<g>
			<path class="st52" d="M181.2,927.7c-0.7,0-1.3-0.3-1.8-0.7c-0.1-0.1-0.2-0.2-0.3-0.4c-0.1-0.1-0.2-0.3-0.2-0.4
				c-0.1-0.1-0.1-0.3-0.1-0.5c0-0.2,0-0.3,0-0.5c0-0.2,0-0.3,0-0.5c0-0.2,0.1-0.3,0.1-0.5c0.1-0.1,0.1-0.3,0.2-0.4
				c0.1-0.1,0.2-0.3,0.3-0.4c0.9-0.9,2.6-0.9,3.5,0c0.5,0.5,0.7,1.1,0.7,1.8c0,0.6-0.3,1.3-0.7,1.8
				C182.5,927.4,181.8,927.7,181.2,927.7z"/>
		</g>
		<g>
			<path class="st52" d="M96.9,581c-0.7,0-1.3-0.3-1.8-0.7c-0.5-0.5-0.7-1.1-0.7-1.8s0.3-1.3,0.7-1.8c0.6-0.6,1.4-0.8,2.3-0.7
				c0.2,0,0.3,0.1,0.5,0.1c0.1,0.1,0.3,0.1,0.4,0.2c0.1,0.1,0.3,0.2,0.4,0.3c0.5,0.5,0.7,1.1,0.7,1.8s-0.3,1.3-0.7,1.8
				c-0.1,0.1-0.2,0.2-0.4,0.3c-0.1,0.1-0.3,0.2-0.4,0.2c-0.1,0.1-0.3,0.1-0.5,0.1C97.2,581,97,581,96.9,581z"/>
		</g>
		<g>
			<path class="st52" d="M64.1,387.2c-0.6,0-1.3-0.3-1.8-0.7c-0.5-0.5-0.7-1.1-0.7-1.8c0-0.2,0-0.3,0-0.5c0-0.2,0.1-0.3,0.1-0.5
				c0.1-0.1,0.1-0.3,0.2-0.4c0.1-0.1,0.2-0.3,0.3-0.4c0.9-0.9,2.6-0.9,3.5,0c0.5,0.5,0.7,1.1,0.7,1.8s-0.3,1.3-0.7,1.8
				C65.4,386.9,64.8,387.2,64.1,387.2z"/>
		</g>
		<g>
			<path class="st52" d="M339,189.1c-0.6,0-1.3-0.3-1.8-0.7c-0.1-0.1-0.2-0.2-0.3-0.4c-0.1-0.1-0.2-0.3-0.2-0.4
				c-0.1-0.1-0.1-0.3-0.1-0.5c0-0.2,0-0.3,0-0.5c0-0.7,0.3-1.3,0.7-1.8c0.9-0.9,2.6-0.9,3.5,0c0.5,0.5,0.7,1.1,0.7,1.8
				c0,0.2,0,0.3,0,0.5c0,0.1-0.1,0.3-0.1,0.5c-0.1,0.1-0.1,0.3-0.2,0.4c-0.1,0.1-0.2,0.3-0.3,0.4C340.3,188.8,339.6,189.1,339,189.1
				z"/>
		</g>
		<g>
			<path class="st52" d="M640.9,70.2c-0.6,0-1.3-0.3-1.8-0.7c-0.5-0.5-0.7-1.1-0.7-1.8c0-0.6,0.3-1.3,0.7-1.8
				c0.1-0.1,0.2-0.2,0.4-0.3c0.1-0.1,0.3-0.2,0.4-0.2c0.1-0.1,0.3-0.1,0.5-0.1c0.8-0.2,1.7,0.1,2.3,0.7c0.5,0.5,0.7,1.1,0.7,1.8
				c0,0.7-0.3,1.3-0.7,1.8C642.2,69.9,641.5,70.2,640.9,70.2z"/>
		</g>
		<g>
			<path class="st52" d="M956.8,189.1c-0.7,0-1.3-0.3-1.8-0.7c-0.5-0.5-0.7-1.1-0.7-1.8c0-0.7,0.3-1.3,0.7-1.8
				c0.6-0.6,1.4-0.8,2.2-0.7c0.2,0,0.3,0.1,0.5,0.1c0.1,0.1,0.3,0.1,0.4,0.2c0.1,0.1,0.3,0.2,0.4,0.3c0.5,0.5,0.7,1.1,0.7,1.8
				c0,0.6-0.3,1.3-0.7,1.8C958.1,188.8,957.5,189.1,956.8,189.1z"/>
		</g>
		<g>
			<path class="st52" d="M1104.4,655.4c-0.7,0-1.3-0.3-1.8-0.7c-0.1-0.1-0.2-0.2-0.3-0.4c-0.1-0.1-0.2-0.3-0.2-0.4
				c-0.1-0.1-0.1-0.3-0.1-0.5c0-0.2,0-0.3,0-0.5c0-0.2,0-0.3,0-0.5c0-0.2,0.1-0.3,0.1-0.5c0.1-0.1,0.1-0.3,0.2-0.4
				c0.1-0.1,0.2-0.3,0.3-0.4c0.6-0.6,1.4-0.8,2.3-0.7c0.1,0,0.3,0.1,0.5,0.1c0.1,0.1,0.3,0.1,0.4,0.2c0.1,0.1,0.3,0.2,0.4,0.3
				c0.5,0.5,0.7,1.1,0.7,1.8c0,0.7-0.3,1.3-0.7,1.8C1105.7,655.2,1105.1,655.4,1104.4,655.4z"/>
		</g>
		<g>
			<path class="st52" d="M366.4,1013.5c-0.7,0-1.3-0.3-1.8-0.7c-0.5-0.5-0.7-1.1-0.7-1.8c0-0.7,0.3-1.3,0.7-1.8
				c0.9-0.9,2.6-0.9,3.5,0c0.1,0.1,0.2,0.2,0.3,0.4c0.1,0.1,0.2,0.3,0.2,0.4c0.1,0.1,0.1,0.3,0.1,0.5c0,0.2,0,0.3,0,0.5
				c0,0.2,0,0.3,0,0.5c0,0.1-0.1,0.3-0.1,0.5c-0.1,0.1-0.1,0.3-0.2,0.4c-0.1,0.1-0.2,0.3-0.3,0.4
				C367.7,1013.2,367,1013.5,366.4,1013.5z"/>
		</g>
		<g>
			<path class="st52" d="M607.8,1117.1c-0.7,0-1.3-0.3-1.8-0.7c-0.5-0.5-0.7-1.1-0.7-1.8s0.3-1.3,0.7-1.8c0.9-0.9,2.6-0.9,3.5,0
				c0.5,0.5,0.7,1.1,0.7,1.8s-0.3,1.3-0.7,1.8C609.1,1116.9,608.5,1117.1,607.8,1117.1z"/>
		</g>
		<g>
			<path class="st52" d="M740.1,921.8c-0.7,0-1.3-0.3-1.8-0.7c-0.1-0.1-0.2-0.2-0.3-0.4c-0.1-0.1-0.2-0.3-0.2-0.4
				c-0.1-0.1-0.1-0.3-0.1-0.5c0-0.2,0-0.3,0-0.5c0-0.2,0-0.3,0-0.5c0-0.2,0.1-0.3,0.1-0.5c0.1-0.1,0.1-0.3,0.2-0.4
				c0.1-0.1,0.2-0.3,0.3-0.4c0.6-0.6,1.4-0.8,2.2-0.7c0.2,0,0.3,0.1,0.5,0.1c0.2,0.1,0.3,0.1,0.4,0.2c0.1,0.1,0.3,0.2,0.4,0.3
				c0.5,0.5,0.7,1.1,0.7,1.8c0,0.7-0.3,1.3-0.7,1.8C741.4,921.5,740.7,921.8,740.1,921.8z"/>
		</g>
		<g>
			<g>
				<path class="st52" d="M953,369.5c-3,0-29-0.3-29-9.3c0-9,26-9.3,29-9.3s29,0.3,29,9.3C982,369.2,956,369.5,953,369.5z
					 M929.2,360.2c1.6,1.7,10.2,4.3,23.9,4.3c13.7,0,22.3-2.6,23.9-4.3c-1.6-1.7-10.2-4.3-23.9-4.3S930.7,358.5,929.2,360.2z
					 M977.1,360.4L977.1,360.4L977.1,360.4z"/>
			</g>
			<g>
				<path class="st52" d="M953,387.9c-3,0-29-0.3-29-9.3c0-1.4,1.1-2.5,2.5-2.5c1.3,0,2.4,1,2.5,2.3c1.1,1.6,9.8,4.5,24,4.5
					c14.2,0,22.9-2.8,24-4.5c0.1-1.3,1.2-2.3,2.5-2.3c1.4,0,2.5,1.1,2.5,2.5C982,387.6,956,387.9,953,387.9z"/>
			</g>
			<g>
				<path class="st52" d="M953,406.3c-8.4,0-16.3-1-21.6-2.7c-1.3-0.4-2-1.8-1.6-3.1c0.4-1.3,1.8-2,3.1-1.6c4.8,1.6,12.1,2.5,20,2.5
					c14.2,0,22.9-2.8,24-4.5c0.1-1.3,1.2-2.3,2.5-2.3c1.4,0,2.5,1.1,2.5,2.5C982,406,956,406.3,953,406.3z"/>
			</g>
			<g>
				<path class="st52" d="M979.5,405.7c-1.4,0-2.5-1.1-2.5-2.5v-43c0-1.4,1.1-2.5,2.5-2.5s2.5,1.1,2.5,2.5v43
					C982,404.6,980.9,405.7,979.5,405.7z"/>
			</g>
			<g>
				<path class="st52" d="M953,424.7c-3,0-29-0.3-29-9.3V373c0-1.4,1.1-2.5,2.5-2.5s2.5,1.1,2.5,2.5v42.3c1.1,1.6,9.9,4.5,24,4.5
					c14.2,0,22.9-2.8,24-4.5c0.1-1.3,1.2-2.3,2.5-2.3c1.4,0,2.5,1.1,2.5,2.5C982,424.4,956,424.7,953,424.7z"/>
			</g>
		</g>
		<g>
			<path class="st52" d="M603,728.5c-0.7,0-1.5-0.3-2-1c-0.7-0.8-0.7-2-0.1-2.9l9.7-14.7c0.7-1.1,2.1-1.4,3.3-0.8l12.2,6.7
				c0.9,0.5,1.4,1.4,1.3,2.4c-0.1,1-0.7,1.8-1.6,2.1l-21.9,8C603.6,728.5,603.3,728.5,603,728.5z M613.6,714.7l-4.3,6.5l9.7-3.5
				L613.6,714.7z"/>
		</g>
		<g>
			<path class="st52" d="M528.2,728.5c-0.3,0-0.7-0.1-1-0.2l-22.6-9.9c-0.9-0.4-1.5-1.3-1.5-2.4c0-1,0.7-1.9,1.6-2.3l12.8-4.7
				c1.1-0.4,2.3,0,2.9,1l9.7,14.7c0.6,0.9,0.5,2.1-0.2,3C529.6,728.2,528.9,728.5,528.2,728.5z M512.3,716.3l9.2,4l-4-6L512.3,716.3
				z"/>
		</g>
	</g>
</g>
<g>
	<path class="st53" d="M505,933.1h12.5v1c0,2.3-0.3,4.3-0.8,6c-0.5,1.6-1.4,3.1-2.6,4.5c-2.8,3.1-6.4,4.7-10.7,4.7
		c-4.2,0-7.8-1.5-10.8-4.6c-3-3.1-4.5-6.7-4.5-11c0-4.4,1.5-8.1,4.6-11.1c3.1-3.1,6.8-4.6,11.2-4.6c2.4,0,4.6,0.5,6.6,1.4
		c2,1,3.9,2.5,5.8,4.7l-3.2,3.1c-2.5-3.3-5.5-4.9-9-4.9c-3.2,0-5.9,1.1-8,3.3c-2.2,2.2-3.2,4.9-3.2,8.1c0,3.4,1.2,6.1,3.6,8.3
		c2.3,2,4.7,3,7.3,3c2.2,0,4.2-0.8,6-2.3c1.8-1.5,2.8-3.3,3-5.5H505V933.1z"/>
	<path class="st53" d="M532.2,918.7v30.1h-4.5v-30.1H532.2z"/>
	<path class="st53" d="M552.1,922.9v25.9h-4.5v-25.9h-6.9v-4.3H559v4.3H552.1z"/>
	<path class="st53" d="M572,918.7v25.9h8.9v4.3h-13.4v-30.1H572z"/>
	<path class="st53" d="M609,941.5h-12.9l-3.4,7.3h-4.9l14.9-32l14.4,32h-5L609,941.5z M607.1,937.2l-4.5-10.2l-4.7,10.2H607.1z"/>
	<path class="st53" d="M625.3,948.8v-30.1h4.5c2,0,3.6,0.2,4.8,0.5c1.2,0.3,2.2,0.8,3.1,1.6c0.8,0.8,1.5,1.7,2,2.9
		c0.5,1.2,0.8,2.3,0.8,3.5c0,2.2-0.8,4-2.5,5.5c1.6,0.5,2.9,1.5,3.8,2.9c0.9,1.4,1.4,2.9,1.4,4.7c0,2.4-0.8,4.3-2.5,6
		c-1,1-2.1,1.7-3.4,2.1c-1.4,0.4-3.1,0.6-5.1,0.6H625.3z M629.8,931.6h1.4c1.7,0,2.9-0.4,3.7-1.1c0.8-0.7,1.2-1.9,1.2-3.3
		c0-1.4-0.4-2.5-1.2-3.2c-0.8-0.7-2-1.1-3.5-1.1h-1.6V931.6z M629.8,944.5h2.8c2.1,0,3.6-0.4,4.5-1.2c1-0.9,1.5-2,1.5-3.3
		c0-1.3-0.5-2.4-1.5-3.3c-1-0.9-2.6-1.3-5.1-1.3h-2.3V944.5z"/>
</g>
</svg>
